bt,A,1,cycles,156470579720
bt,A,1,L1-dcache-loads,102979760218
bt,A,1,L1-dcache-load-misses,7122282509
bt,A,1,L1-dcache-stores,52306058474
bt,A,1,LLC-loads,639622562
bt,A,1,LLC-load-misses,221840109
bt,A,1,LLC-stores,93571634
bt,A,1,offcore-requests-demand-rfo,48509153
bt,A,1,l2-rqsts-all-rfo,2388941620
bt,A,1,l2-rqsts-rfo-miss,31676926
bt,A,1,l2-store-lock-rqsts-all,2388786556
bt,A,1,l2-store-lock-rqsts-miss,34685058
bt,A,1,l2-trans-rfo,2398638288
bt,A,1,offcore-requests-outstanding-demand-rfo,9740539053
bt,A,1,offcore-response-demand-rfo-llc-hit-hitm-other-core,174
bt,A,1,offcore-response-demand-rfo-llc-miss-remote-hitm,1134
bt,A,1,offcore-response-all-reads-llc-hit-any-response,954657469
bt,A,1,offcore-response-all-reads-llc-miss-any-response,648328999
bt,A,2,cycles,157760556643
bt,A,2,L1-dcache-loads,103020349233
bt,A,2,L1-dcache-load-misses,7110897901
bt,A,2,L1-dcache-stores,52305776299
bt,A,2,LLC-loads,670240012
bt,A,2,LLC-load-misses,233389773
bt,A,2,LLC-stores,87396113
bt,A,2,offcore-requests-demand-rfo,54565118
bt,A,2,l2-rqsts-all-rfo,2394303960
bt,A,2,l2-rqsts-rfo-miss,40497321
bt,A,2,l2-store-lock-rqsts-all,2396990885
bt,A,2,l2-store-lock-rqsts-miss,33168535
bt,A,2,l2-trans-rfo,2406250441
bt,A,2,offcore-requests-outstanding-demand-rfo,20397098899
bt,A,2,offcore-response-demand-rfo-llc-hit-hitm-other-core,20833
bt,A,2,offcore-response-demand-rfo-llc-miss-remote-hitm,28695
bt,A,2,offcore-response-all-reads-llc-hit-any-response,1002812953
bt,A,2,offcore-response-all-reads-llc-miss-any-response,647045646
bt,A,4,cycles,166239889508
bt,A,4,L1-dcache-loads,103354594059
bt,A,4,L1-dcache-load-misses,7124080334
bt,A,4,L1-dcache-stores,52306850765
bt,A,4,LLC-loads,768356151
bt,A,4,LLC-load-misses,264901511
bt,A,4,LLC-stores,96153083
bt,A,4,offcore-requests-demand-rfo,52468174
bt,A,4,l2-rqsts-all-rfo,2398809852
bt,A,4,l2-rqsts-rfo-miss,44437923
bt,A,4,l2-store-lock-rqsts-all,2398516163
bt,A,4,l2-store-lock-rqsts-miss,41441437
bt,A,4,l2-trans-rfo,2416143488
bt,A,4,offcore-requests-outstanding-demand-rfo,18314763359
bt,A,4,offcore-response-demand-rfo-llc-hit-hitm-other-core,36024
bt,A,4,offcore-response-demand-rfo-llc-miss-remote-hitm,26353
bt,A,4,offcore-response-all-reads-llc-hit-any-response,1049929844
bt,A,4,offcore-response-all-reads-llc-miss-any-response,646017725
bt,A,8,cycles,179925236839
bt,A,8,L1-dcache-loads,103428202148
bt,A,8,L1-dcache-load-misses,7131230854
bt,A,8,L1-dcache-stores,52308346731
bt,A,8,LLC-loads,908684240
bt,A,8,LLC-load-misses,324161196
bt,A,8,LLC-stores,96306365
bt,A,8,offcore-requests-demand-rfo,59528467
bt,A,8,l2-rqsts-all-rfo,2402476055
bt,A,8,l2-rqsts-rfo-miss,51345617
bt,A,8,l2-store-lock-rqsts-all,2401640570
bt,A,8,l2-store-lock-rqsts-miss,40785836
bt,A,8,l2-trans-rfo,2465090502
bt,A,8,offcore-requests-outstanding-demand-rfo,31957741844
bt,A,8,offcore-response-demand-rfo-llc-hit-hitm-other-core,55217
bt,A,8,offcore-response-demand-rfo-llc-miss-remote-hitm,23642
bt,A,8,offcore-response-all-reads-llc-hit-any-response,1100607208
bt,A,8,offcore-response-all-reads-llc-miss-any-response,649471658
