bt,A,1,cycles,156079670144
bt,A,1,L1-dcache-loads,102979642083
bt,A,1,L1-dcache-load-misses,7166799739
bt,A,1,L1-dcache-stores,52306074881
bt,A,1,LLC-loads,634579217
bt,A,1,LLC-load-misses,224527103
bt,A,1,LLC-stores,75621203
bt,A,1,offcore-requests-demand-rfo,44743339
bt,A,1,l2-rqsts-all-rfo,2388146758
bt,A,1,l2-rqsts-rfo-miss,38453144
bt,A,1,l2-store-lock-rqsts-all,2388139362
bt,A,1,l2-store-lock-rqsts-miss,40047249
bt,A,1,l2-trans-rfo,2400752025
bt,A,1,offcore-requests-outstanding-demand-rfo,14150698990
bt,A,1,offcore-response-demand-rfo-llc-hit-hitm-other-core,63
bt,A,1,offcore-response-demand-rfo-llc-miss-remote-hitm,2047
bt,A,1,offcore-response-all-reads-llc-hit-any-response,960426965
bt,A,1,offcore-response-all-reads-llc-miss-any-response,648507287
bt,A,2,cycles,157841162807
bt,A,2,L1-dcache-loads,103042778110
bt,A,2,L1-dcache-load-misses,7130208773
bt,A,2,L1-dcache-stores,52305910838
bt,A,2,LLC-loads,657536071
bt,A,2,LLC-load-misses,222698707
bt,A,2,LLC-stores,89022045
bt,A,2,offcore-requests-demand-rfo,50972171
bt,A,2,l2-rqsts-all-rfo,2395664088
bt,A,2,l2-rqsts-rfo-miss,39579871
bt,A,2,l2-store-lock-rqsts-all,2393193206
bt,A,2,l2-store-lock-rqsts-miss,32611566
bt,A,2,l2-trans-rfo,2407428077
bt,A,2,offcore-requests-outstanding-demand-rfo,14837234230
bt,A,2,offcore-response-demand-rfo-llc-hit-hitm-other-core,21826
bt,A,2,offcore-response-demand-rfo-llc-miss-remote-hitm,28310
bt,A,2,offcore-response-all-reads-llc-hit-any-response,1006371625
bt,A,2,offcore-response-all-reads-llc-miss-any-response,646982480
bt,A,4,cycles,166124800125
bt,A,4,L1-dcache-loads,103293122051
bt,A,4,L1-dcache-load-misses,7123534535
bt,A,4,L1-dcache-stores,52307324454
bt,A,4,LLC-loads,751591894
bt,A,4,LLC-load-misses,270512647
bt,A,4,LLC-stores,97414516
bt,A,4,offcore-requests-demand-rfo,54243902
bt,A,4,l2-rqsts-all-rfo,2398916019
bt,A,4,l2-rqsts-rfo-miss,46604698
bt,A,4,l2-store-lock-rqsts-all,2400531021
bt,A,4,l2-store-lock-rqsts-miss,30828545
bt,A,4,l2-trans-rfo,2415542353
bt,A,4,offcore-requests-outstanding-demand-rfo,19681870803
bt,A,4,offcore-response-demand-rfo-llc-hit-hitm-other-core,38449
bt,A,4,offcore-response-demand-rfo-llc-miss-remote-hitm,24260
bt,A,4,offcore-response-all-reads-llc-hit-any-response,1058555417
bt,A,4,offcore-response-all-reads-llc-miss-any-response,649562668
bt,A,8,cycles,183345342582
bt,A,8,L1-dcache-loads,103497280152
bt,A,8,L1-dcache-load-misses,7131899633
bt,A,8,L1-dcache-stores,52308238493
bt,A,8,LLC-loads,896033416
bt,A,8,LLC-load-misses,326578355
bt,A,8,LLC-stores,95701869
bt,A,8,offcore-requests-demand-rfo,63054767
bt,A,8,l2-rqsts-all-rfo,2401346121
bt,A,8,l2-rqsts-rfo-miss,49821380
bt,A,8,l2-store-lock-rqsts-all,2401567432
bt,A,8,l2-store-lock-rqsts-miss,36363729
bt,A,8,l2-trans-rfo,2466599890
bt,A,8,offcore-requests-outstanding-demand-rfo,31013920721
bt,A,8,offcore-response-demand-rfo-llc-hit-hitm-other-core,53510
bt,A,8,offcore-response-demand-rfo-llc-miss-remote-hitm,23335
bt,A,8,offcore-response-all-reads-llc-hit-any-response,1118210207
bt,A,8,offcore-response-all-reads-llc-miss-any-response,652407824
