bt,A,1,cycles,154855028746
bt,A,1,L1-dcache-loads,102979399667
bt,A,1,L1-dcache-load-misses,7125814483
bt,A,1,L1-dcache-stores,52305884485
bt,A,1,LLC-loads,680868536
bt,A,1,LLC-load-misses,221558427
bt,A,1,LLC-stores,95811240
bt,A,1,offcore-requests-demand-rfo,44596851
bt,A,1,l2-rqsts-all-rfo,2388517181
bt,A,1,l2-rqsts-rfo-miss,40830574
bt,A,1,l2-store-lock-rqsts-all,2388153627
bt,A,1,l2-store-lock-rqsts-miss,33430679
bt,A,1,l2-trans-rfo,2398397616
bt,A,1,offcore-requests-outstanding-demand-rfo,12289785366
bt,A,1,offcore-response-demand-rfo-llc-hit-hitm-other-core,78
bt,A,1,offcore-response-demand-rfo-llc-miss-remote-hitm,1831
bt,A,1,offcore-response-all-reads-llc-hit-any-response,969071473
bt,A,1,offcore-response-all-reads-llc-miss-any-response,649194484
bt,A,2,cycles,156388139939
bt,A,2,L1-dcache-loads,103021036822
bt,A,2,L1-dcache-load-misses,7137268644
bt,A,2,L1-dcache-stores,52305378302
bt,A,2,LLC-loads,659881904
bt,A,2,LLC-load-misses,242013796
bt,A,2,LLC-stores,89588656
bt,A,2,offcore-requests-demand-rfo,52570264
bt,A,2,l2-rqsts-all-rfo,2395420290
bt,A,2,l2-rqsts-rfo-miss,39044803
bt,A,2,l2-store-lock-rqsts-all,2396167230
bt,A,2,l2-store-lock-rqsts-miss,40326054
bt,A,2,l2-trans-rfo,2406644273
bt,A,2,offcore-requests-outstanding-demand-rfo,15383314016
bt,A,2,offcore-response-demand-rfo-llc-hit-hitm-other-core,18928
bt,A,2,offcore-response-demand-rfo-llc-miss-remote-hitm,31808
bt,A,2,offcore-response-all-reads-llc-hit-any-response,1000291494
bt,A,2,offcore-response-all-reads-llc-miss-any-response,646987236
bt,A,4,cycles,166464135311
bt,A,4,L1-dcache-loads,103368972525
bt,A,4,L1-dcache-load-misses,7167641473
bt,A,4,L1-dcache-stores,52306753989
bt,A,4,LLC-loads,772461851
bt,A,4,LLC-load-misses,267791892
bt,A,4,LLC-stores,96582451
bt,A,4,offcore-requests-demand-rfo,50252363
bt,A,4,l2-rqsts-all-rfo,2400423431
bt,A,4,l2-rqsts-rfo-miss,54533713
bt,A,4,l2-store-lock-rqsts-all,2398507169
bt,A,4,l2-store-lock-rqsts-miss,31022674
bt,A,4,l2-trans-rfo,2416736291
bt,A,4,offcore-requests-outstanding-demand-rfo,20323434701
bt,A,4,offcore-response-demand-rfo-llc-hit-hitm-other-core,32222
bt,A,4,offcore-response-demand-rfo-llc-miss-remote-hitm,24865
bt,A,4,offcore-response-all-reads-llc-hit-any-response,1040250964
bt,A,4,offcore-response-all-reads-llc-miss-any-response,648620983
bt,A,8,cycles,182392530148
bt,A,8,L1-dcache-loads,103528662999
bt,A,8,L1-dcache-load-misses,7139410582
bt,A,8,L1-dcache-stores,52308377458
bt,A,8,LLC-loads,905591754
bt,A,8,LLC-load-misses,321685233
bt,A,8,LLC-stores,98732990
bt,A,8,offcore-requests-demand-rfo,54039728
bt,A,8,l2-rqsts-all-rfo,2403176578
bt,A,8,l2-rqsts-rfo-miss,48576550
bt,A,8,l2-store-lock-rqsts-all,2402192364
bt,A,8,l2-store-lock-rqsts-miss,33494686
bt,A,8,l2-trans-rfo,2467316973
bt,A,8,offcore-requests-outstanding-demand-rfo,29316765603
bt,A,8,offcore-response-demand-rfo-llc-hit-hitm-other-core,51269
bt,A,8,offcore-response-demand-rfo-llc-miss-remote-hitm,22911
bt,A,8,offcore-response-all-reads-llc-hit-any-response,1106550002
bt,A,8,offcore-response-all-reads-llc-miss-any-response,650889281
