bt,A,1,cycles,156204103894
bt,A,1,L1-dcache-loads,102979613265
bt,A,1,L1-dcache-load-misses,7109783492
bt,A,1,L1-dcache-stores,52305968769
bt,A,1,LLC-loads,638250471
bt,A,1,LLC-load-misses,236713231
bt,A,1,LLC-stores,76547604
bt,A,1,offcore-requests-demand-rfo,64535588
bt,A,1,l2-rqsts-all-rfo,2388650748
bt,A,1,l2-rqsts-rfo-miss,37747518
bt,A,1,l2-store-lock-rqsts-all,2388443876
bt,A,1,l2-store-lock-rqsts-miss,36128720
bt,A,1,l2-trans-rfo,2399348867
bt,A,1,offcore-requests-outstanding-demand-rfo,13431190211
bt,A,1,offcore-response-demand-rfo-llc-hit-hitm-other-core,160
bt,A,1,offcore-response-demand-rfo-llc-miss-remote-hitm,1997
bt,A,1,offcore-response-all-reads-llc-hit-any-response,968583784
bt,A,1,offcore-response-all-reads-llc-miss-any-response,648778093
bt,A,2,cycles,158027977182
bt,A,2,L1-dcache-loads,102989032399
bt,A,2,L1-dcache-load-misses,7121132844
bt,A,2,L1-dcache-stores,52305355722
bt,A,2,LLC-loads,673530539
bt,A,2,LLC-load-misses,229839481
bt,A,2,LLC-stores,90501185
bt,A,2,offcore-requests-demand-rfo,55287626
bt,A,2,l2-rqsts-all-rfo,2393996276
bt,A,2,l2-rqsts-rfo-miss,44608497
bt,A,2,l2-store-lock-rqsts-all,2394561514
bt,A,2,l2-store-lock-rqsts-miss,34528399
bt,A,2,l2-trans-rfo,2408277079
bt,A,2,offcore-requests-outstanding-demand-rfo,14176505063
bt,A,2,offcore-response-demand-rfo-llc-hit-hitm-other-core,20703
bt,A,2,offcore-response-demand-rfo-llc-miss-remote-hitm,28908
bt,A,2,offcore-response-all-reads-llc-hit-any-response,975636578
bt,A,2,offcore-response-all-reads-llc-miss-any-response,647342246
bt,A,4,cycles,167366796501
bt,A,4,L1-dcache-loads,103397256758
bt,A,4,L1-dcache-load-misses,7169596025
bt,A,4,L1-dcache-stores,52306736149
bt,A,4,LLC-loads,743197058
bt,A,4,LLC-load-misses,265726888
bt,A,4,LLC-stores,97934643
bt,A,4,offcore-requests-demand-rfo,65527834
bt,A,4,l2-rqsts-all-rfo,2399492444
bt,A,4,l2-rqsts-rfo-miss,55603788
bt,A,4,l2-store-lock-rqsts-all,2399037814
bt,A,4,l2-store-lock-rqsts-miss,31758917
bt,A,4,l2-trans-rfo,2417264138
bt,A,4,offcore-requests-outstanding-demand-rfo,19557232049
bt,A,4,offcore-response-demand-rfo-llc-hit-hitm-other-core,37190
bt,A,4,offcore-response-demand-rfo-llc-miss-remote-hitm,25487
bt,A,4,offcore-response-all-reads-llc-hit-any-response,1037880594
bt,A,4,offcore-response-all-reads-llc-miss-any-response,645568630
bt,A,8,cycles,182109130007
bt,A,8,L1-dcache-loads,103465504808
bt,A,8,L1-dcache-load-misses,7127203660
bt,A,8,L1-dcache-stores,52308338280
bt,A,8,LLC-loads,908115674
bt,A,8,LLC-load-misses,326525528
bt,A,8,LLC-stores,102023840
bt,A,8,offcore-requests-demand-rfo,55739581
bt,A,8,l2-rqsts-all-rfo,2403434087
bt,A,8,l2-rqsts-rfo-miss,46099819
bt,A,8,l2-store-lock-rqsts-all,2401986565
bt,A,8,l2-store-lock-rqsts-miss,36027364
bt,A,8,l2-trans-rfo,2468524377
bt,A,8,offcore-requests-outstanding-demand-rfo,28955599555
bt,A,8,offcore-response-demand-rfo-llc-hit-hitm-other-core,53482
bt,A,8,offcore-response-demand-rfo-llc-miss-remote-hitm,23630
bt,A,8,offcore-response-all-reads-llc-hit-any-response,1106873143
bt,A,8,offcore-response-all-reads-llc-miss-any-response,654382986
