bt,A,1,cycles,155431489537
bt,A,1,L1-dcache-loads,102979641231
bt,A,1,L1-dcache-load-misses,7137347455
bt,A,1,L1-dcache-stores,52306025848
bt,A,1,LLC-loads,642690111
bt,A,1,LLC-load-misses,231693122
bt,A,1,LLC-stores,73443233
bt,A,1,offcore-requests-demand-rfo,46035308
bt,A,1,l2-rqsts-all-rfo,2389087468
bt,A,1,l2-rqsts-rfo-miss,37454680
bt,A,1,l2-store-lock-rqsts-all,2387778366
bt,A,1,l2-store-lock-rqsts-miss,36970902
bt,A,1,l2-trans-rfo,2402211452
bt,A,1,offcore-requests-outstanding-demand-rfo,8711810229
bt,A,1,offcore-response-demand-rfo-llc-hit-hitm-other-core,154
bt,A,1,offcore-response-demand-rfo-llc-miss-remote-hitm,1291
bt,A,1,offcore-response-all-reads-llc-hit-any-response,973667324
bt,A,1,offcore-response-all-reads-llc-miss-any-response,651047277
bt,A,2,cycles,157864434772
bt,A,2,L1-dcache-loads,103106292711
bt,A,2,L1-dcache-load-misses,7128359830
bt,A,2,L1-dcache-stores,52305882616
bt,A,2,LLC-loads,672176200
bt,A,2,LLC-load-misses,227172512
bt,A,2,LLC-stores,93027604
bt,A,2,offcore-requests-demand-rfo,57060026
bt,A,2,l2-rqsts-all-rfo,2395677850
bt,A,2,l2-rqsts-rfo-miss,43287980
bt,A,2,l2-store-lock-rqsts-all,2396109750
bt,A,2,l2-store-lock-rqsts-miss,34506923
bt,A,2,l2-trans-rfo,2406485681
bt,A,2,offcore-requests-outstanding-demand-rfo,15044926592
bt,A,2,offcore-response-demand-rfo-llc-hit-hitm-other-core,21309
bt,A,2,offcore-response-demand-rfo-llc-miss-remote-hitm,29033
bt,A,2,offcore-response-all-reads-llc-hit-any-response,981253959
bt,A,2,offcore-response-all-reads-llc-miss-any-response,650617204
bt,A,4,cycles,163500410631
bt,A,4,L1-dcache-loads,103448734915
bt,A,4,L1-dcache-load-misses,7122173398
bt,A,4,L1-dcache-stores,52307661891
bt,A,4,LLC-loads,757599236
bt,A,4,LLC-load-misses,265894653
bt,A,4,LLC-stores,94759459
bt,A,4,offcore-requests-demand-rfo,53546131
bt,A,4,l2-rqsts-all-rfo,2399367885
bt,A,4,l2-rqsts-rfo-miss,42967776
bt,A,4,l2-store-lock-rqsts-all,2398922353
bt,A,4,l2-store-lock-rqsts-miss,34228224
bt,A,4,l2-trans-rfo,2417562867
bt,A,4,offcore-requests-outstanding-demand-rfo,20370563178
bt,A,4,offcore-response-demand-rfo-llc-hit-hitm-other-core,35302
bt,A,4,offcore-response-demand-rfo-llc-miss-remote-hitm,24735
bt,A,4,offcore-response-all-reads-llc-hit-any-response,1076223672
bt,A,4,offcore-response-all-reads-llc-miss-any-response,646729332
bt,A,8,cycles,182124287397
bt,A,8,L1-dcache-loads,103569307890
bt,A,8,L1-dcache-load-misses,7138703797
bt,A,8,L1-dcache-stores,52308291975
bt,A,8,LLC-loads,906300294
bt,A,8,LLC-load-misses,327728314
bt,A,8,LLC-stores,102948241
bt,A,8,offcore-requests-demand-rfo,53835847
bt,A,8,l2-rqsts-all-rfo,2402340745
bt,A,8,l2-rqsts-rfo-miss,50222526
bt,A,8,l2-store-lock-rqsts-all,2402312982
bt,A,8,l2-store-lock-rqsts-miss,35179446
bt,A,8,l2-trans-rfo,2469424579
bt,A,8,offcore-requests-outstanding-demand-rfo,30884246758
bt,A,8,offcore-response-demand-rfo-llc-hit-hitm-other-core,52526
bt,A,8,offcore-response-demand-rfo-llc-miss-remote-hitm,23923
bt,A,8,offcore-response-all-reads-llc-hit-any-response,1100671990
bt,A,8,offcore-response-all-reads-llc-miss-any-response,653336793
