cg,A,1,cycles,5268101765
cg,A,1,L1-dcache-loads,2770050646
cg,A,1,L1-dcache-load-misses,747998917
cg,A,1,L1-dcache-stores,177922063
cg,A,1,LLC-loads,486678534
cg,A,1,LLC-load-misses,31128817
cg,A,1,LLC-stores,1486915
cg,A,1,offcore-requests-demand-rfo,1481861
cg,A,1,l2-rqsts-all-rfo,2027397
cg,A,1,l2-rqsts-rfo-miss,1456573
cg,A,1,l2-store-lock-rqsts-all,2022419
cg,A,1,l2-store-lock-rqsts-miss,1456830
cg,A,1,l2-trans-rfo,2051748
cg,A,1,offcore-requests-outstanding-demand-rfo,484821796
cg,A,1,offcore-response-demand-rfo-llc-hit-hitm-other-core,1060
cg,A,1,offcore-response-demand-rfo-llc-miss-remote-hitm,321
cg,A,1,offcore-response-all-reads-llc-hit-any-response,676109342
cg,A,1,offcore-response-all-reads-llc-miss-any-response,61888684
cg,A,2,cycles,4381512092
cg,A,2,L1-dcache-loads,2774508908
cg,A,2,L1-dcache-load-misses,751996698
cg,A,2,L1-dcache-stores,179066591
cg,A,2,LLC-loads,162336351
cg,A,2,LLC-load-misses,21373151
cg,A,2,LLC-stores,1906031
cg,A,2,offcore-requests-demand-rfo,1665290
cg,A,2,l2-rqsts-all-rfo,2247046
cg,A,2,l2-rqsts-rfo-miss,1577950
cg,A,2,l2-store-lock-rqsts-all,2204267
cg,A,2,l2-store-lock-rqsts-miss,1436046
cg,A,2,l2-trans-rfo,2287309
cg,A,2,offcore-requests-outstanding-demand-rfo,645595914
cg,A,2,offcore-response-demand-rfo-llc-hit-hitm-other-core,15642
cg,A,2,offcore-response-demand-rfo-llc-miss-remote-hitm,995
cg,A,2,offcore-response-all-reads-llc-hit-any-response,342456548
cg,A,2,offcore-response-all-reads-llc-miss-any-response,63353237
cg,A,4,cycles,4472839760
cg,A,4,L1-dcache-loads,2784483952
cg,A,4,L1-dcache-load-misses,750054353
cg,A,4,L1-dcache-stores,180662729
cg,A,4,LLC-loads,152280423
cg,A,4,LLC-load-misses,25962360
cg,A,4,LLC-stores,1935971
cg,A,4,offcore-requests-demand-rfo,1713819
cg,A,4,l2-rqsts-all-rfo,2344197
cg,A,4,l2-rqsts-rfo-miss,1710287
cg,A,4,l2-store-lock-rqsts-all,2299129
cg,A,4,l2-store-lock-rqsts-miss,1479943
cg,A,4,l2-trans-rfo,2391730
cg,A,4,offcore-requests-outstanding-demand-rfo,750573889
cg,A,4,offcore-response-demand-rfo-llc-hit-hitm-other-core,22970
cg,A,4,offcore-response-demand-rfo-llc-miss-remote-hitm,649
cg,A,4,offcore-response-all-reads-llc-hit-any-response,343310349
cg,A,4,offcore-response-all-reads-llc-miss-any-response,64411967
cg,A,8,cycles,4931947953
cg,A,8,L1-dcache-loads,2801987576
cg,A,8,L1-dcache-load-misses,749506463
cg,A,8,L1-dcache-stores,184450275
cg,A,8,LLC-loads,159560021
cg,A,8,LLC-load-misses,25556708
cg,A,8,LLC-stores,2078422
cg,A,8,offcore-requests-demand-rfo,1777806
cg,A,8,l2-rqsts-all-rfo,2448107
cg,A,8,l2-rqsts-rfo-miss,1781086
cg,A,8,l2-store-lock-rqsts-all,2432909
cg,A,8,l2-store-lock-rqsts-miss,1483040
cg,A,8,l2-trans-rfo,2569280
cg,A,8,offcore-requests-outstanding-demand-rfo,1104138315
cg,A,8,offcore-response-demand-rfo-llc-hit-hitm-other-core,43702
cg,A,8,offcore-response-demand-rfo-llc-miss-remote-hitm,758
cg,A,8,offcore-response-all-reads-llc-hit-any-response,250493763
cg,A,8,offcore-response-all-reads-llc-miss-any-response,62500990
