cg,A,1,cycles,5243942092
cg,A,1,L1-dcache-loads,2770092982
cg,A,1,L1-dcache-load-misses,748431157
cg,A,1,L1-dcache-stores,177983911
cg,A,1,LLC-loads,488785860
cg,A,1,LLC-load-misses,30686122
cg,A,1,LLC-stores,1475852
cg,A,1,offcore-requests-demand-rfo,1473520
cg,A,1,l2-rqsts-all-rfo,2029360
cg,A,1,l2-rqsts-rfo-miss,1455755
cg,A,1,l2-store-lock-rqsts-all,2027079
cg,A,1,l2-store-lock-rqsts-miss,1452701
cg,A,1,l2-trans-rfo,2069470
cg,A,1,offcore-requests-outstanding-demand-rfo,299268495
cg,A,1,offcore-response-demand-rfo-llc-hit-hitm-other-core,103
cg,A,1,offcore-response-demand-rfo-llc-miss-remote-hitm,86
cg,A,1,offcore-response-all-reads-llc-hit-any-response,674882382
cg,A,1,offcore-response-all-reads-llc-miss-any-response,60213903
cg,A,2,cycles,4604932862
cg,A,2,L1-dcache-loads,2774434880
cg,A,2,L1-dcache-load-misses,749310885
cg,A,2,L1-dcache-stores,178842500
cg,A,2,LLC-loads,206852517
cg,A,2,LLC-load-misses,21741289
cg,A,2,LLC-stores,1779423
cg,A,2,offcore-requests-demand-rfo,1616126
cg,A,2,l2-rqsts-all-rfo,2217433
cg,A,2,l2-rqsts-rfo-miss,1567718
cg,A,2,l2-store-lock-rqsts-all,2200780
cg,A,2,l2-store-lock-rqsts-miss,1453070
cg,A,2,l2-trans-rfo,2283671
cg,A,2,offcore-requests-outstanding-demand-rfo,1505375595
cg,A,2,offcore-response-demand-rfo-llc-hit-hitm-other-core,16168
cg,A,2,offcore-response-demand-rfo-llc-miss-remote-hitm,898
cg,A,2,offcore-response-all-reads-llc-hit-any-response,316048675
cg,A,2,offcore-response-all-reads-llc-miss-any-response,62976267
cg,A,4,cycles,4811937682
cg,A,4,L1-dcache-loads,2784819704
cg,A,4,L1-dcache-load-misses,750017282
cg,A,4,L1-dcache-stores,180751399
cg,A,4,LLC-loads,156083565
cg,A,4,LLC-load-misses,22309534
cg,A,4,LLC-stores,1901211
cg,A,4,offcore-requests-demand-rfo,1689386
cg,A,4,l2-rqsts-all-rfo,2333839
cg,A,4,l2-rqsts-rfo-miss,1603581
cg,A,4,l2-store-lock-rqsts-all,2314612
cg,A,4,l2-store-lock-rqsts-miss,1463295
cg,A,4,l2-trans-rfo,2419903
cg,A,4,offcore-requests-outstanding-demand-rfo,345285871
cg,A,4,offcore-response-demand-rfo-llc-hit-hitm-other-core,23407
cg,A,4,offcore-response-demand-rfo-llc-miss-remote-hitm,651
cg,A,4,offcore-response-all-reads-llc-hit-any-response,360631860
cg,A,4,offcore-response-all-reads-llc-miss-any-response,64390218
cg,A,8,cycles,4912827002
cg,A,8,L1-dcache-loads,2802127945
cg,A,8,L1-dcache-load-misses,749520958
cg,A,8,L1-dcache-stores,184533910
cg,A,8,LLC-loads,185382982
cg,A,8,LLC-load-misses,25459378
cg,A,8,LLC-stores,2052561
cg,A,8,offcore-requests-demand-rfo,1743368
cg,A,8,l2-rqsts-all-rfo,2470873
cg,A,8,l2-rqsts-rfo-miss,1703121
cg,A,8,l2-store-lock-rqsts-all,2441843
cg,A,8,l2-store-lock-rqsts-miss,1460208
cg,A,8,l2-trans-rfo,2568319
cg,A,8,offcore-requests-outstanding-demand-rfo,1417450722
cg,A,8,offcore-response-demand-rfo-llc-hit-hitm-other-core,40605
cg,A,8,offcore-response-demand-rfo-llc-miss-remote-hitm,865
cg,A,8,offcore-response-all-reads-llc-hit-any-response,235217549
cg,A,8,offcore-response-all-reads-llc-miss-any-response,63238274
