cg,A,1,cycles,5225970460
cg,A,1,L1-dcache-loads,2770143793
cg,A,1,L1-dcache-load-misses,748443494
cg,A,1,L1-dcache-stores,178011113
cg,A,1,LLC-loads,490220088
cg,A,1,LLC-load-misses,27801911
cg,A,1,LLC-stores,1473116
cg,A,1,offcore-requests-demand-rfo,1472578
cg,A,1,l2-rqsts-all-rfo,2040329
cg,A,1,l2-rqsts-rfo-miss,1451342
cg,A,1,l2-store-lock-rqsts-all,2021896
cg,A,1,l2-store-lock-rqsts-miss,1455439
cg,A,1,l2-trans-rfo,2069953
cg,A,1,offcore-requests-outstanding-demand-rfo,250057421
cg,A,1,offcore-response-demand-rfo-llc-hit-hitm-other-core,102
cg,A,1,offcore-response-demand-rfo-llc-miss-remote-hitm,390
cg,A,1,offcore-response-all-reads-llc-hit-any-response,686941857
cg,A,1,offcore-response-all-reads-llc-miss-any-response,54535744
cg,A,2,cycles,4311961817
cg,A,2,L1-dcache-loads,2774585438
cg,A,2,L1-dcache-load-misses,749174510
cg,A,2,L1-dcache-stores,178871336
cg,A,2,LLC-loads,139228301
cg,A,2,LLC-load-misses,19652766
cg,A,2,LLC-stores,1781771
cg,A,2,offcore-requests-demand-rfo,1604536
cg,A,2,l2-rqsts-all-rfo,2217475
cg,A,2,l2-rqsts-rfo-miss,1627930
cg,A,2,l2-store-lock-rqsts-all,2200972
cg,A,2,l2-store-lock-rqsts-miss,1428569
cg,A,2,l2-trans-rfo,2295889
cg,A,2,offcore-requests-outstanding-demand-rfo,437135146
cg,A,2,offcore-response-demand-rfo-llc-hit-hitm-other-core,16715
cg,A,2,offcore-response-demand-rfo-llc-miss-remote-hitm,1044
cg,A,2,offcore-response-all-reads-llc-hit-any-response,254883408
cg,A,2,offcore-response-all-reads-llc-miss-any-response,62270465
cg,A,4,cycles,4594321817
cg,A,4,L1-dcache-loads,2785013003
cg,A,4,L1-dcache-load-misses,750242213
cg,A,4,L1-dcache-stores,180735650
cg,A,4,LLC-loads,193695193
cg,A,4,LLC-load-misses,19026519
cg,A,4,LLC-stores,1808414
cg,A,4,offcore-requests-demand-rfo,1600056
cg,A,4,l2-rqsts-all-rfo,2339787
cg,A,4,l2-rqsts-rfo-miss,1713420
cg,A,4,l2-store-lock-rqsts-all,2320996
cg,A,4,l2-store-lock-rqsts-miss,1433824
cg,A,4,l2-trans-rfo,2399351
cg,A,4,offcore-requests-outstanding-demand-rfo,654794328
cg,A,4,offcore-response-demand-rfo-llc-hit-hitm-other-core,23174
cg,A,4,offcore-response-demand-rfo-llc-miss-remote-hitm,872
cg,A,4,offcore-response-all-reads-llc-hit-any-response,257995983
cg,A,4,offcore-response-all-reads-llc-miss-any-response,60866649
cg,A,8,cycles,4864711179
cg,A,8,L1-dcache-loads,2801731134
cg,A,8,L1-dcache-load-misses,749210839
cg,A,8,L1-dcache-stores,184550158
cg,A,8,LLC-loads,172534264
cg,A,8,LLC-load-misses,23355800
cg,A,8,LLC-stores,2035079
cg,A,8,offcore-requests-demand-rfo,1721503
cg,A,8,l2-rqsts-all-rfo,2468574
cg,A,8,l2-rqsts-rfo-miss,1724081
cg,A,8,l2-store-lock-rqsts-all,2430762
cg,A,8,l2-store-lock-rqsts-miss,1459123
cg,A,8,l2-trans-rfo,2582809
cg,A,8,offcore-requests-outstanding-demand-rfo,631167332
cg,A,8,offcore-response-demand-rfo-llc-hit-hitm-other-core,41400
cg,A,8,offcore-response-demand-rfo-llc-miss-remote-hitm,806
cg,A,8,offcore-response-all-reads-llc-hit-any-response,257394001
cg,A,8,offcore-response-all-reads-llc-miss-any-response,57344149
