cg,A,1,cycles,5235456514
cg,A,1,L1-dcache-loads,2770091716
cg,A,1,L1-dcache-load-misses,748027842
cg,A,1,L1-dcache-stores,177959222
cg,A,1,LLC-loads,490830817
cg,A,1,LLC-load-misses,30518242
cg,A,1,LLC-stores,1476710
cg,A,1,offcore-requests-demand-rfo,1473808
cg,A,1,l2-rqsts-all-rfo,2046643
cg,A,1,l2-rqsts-rfo-miss,1465864
cg,A,1,l2-store-lock-rqsts-all,2035155
cg,A,1,l2-store-lock-rqsts-miss,1457182
cg,A,1,l2-trans-rfo,2059718
cg,A,1,offcore-requests-outstanding-demand-rfo,258557929
cg,A,1,offcore-response-demand-rfo-llc-hit-hitm-other-core,37
cg,A,1,offcore-response-demand-rfo-llc-miss-remote-hitm,229
cg,A,1,offcore-response-all-reads-llc-hit-any-response,680414377
cg,A,1,offcore-response-all-reads-llc-miss-any-response,60275281
cg,A,2,cycles,4719563195
cg,A,2,L1-dcache-loads,2774471586
cg,A,2,L1-dcache-load-misses,749724560
cg,A,2,L1-dcache-stores,178822937
cg,A,2,LLC-loads,186392611
cg,A,2,LLC-load-misses,22915706
cg,A,2,LLC-stores,1753032
cg,A,2,offcore-requests-demand-rfo,1662275
cg,A,2,l2-rqsts-all-rfo,2229507
cg,A,2,l2-rqsts-rfo-miss,1561057
cg,A,2,l2-store-lock-rqsts-all,2190056
cg,A,2,l2-store-lock-rqsts-miss,1444317
cg,A,2,l2-trans-rfo,2278412
cg,A,2,offcore-requests-outstanding-demand-rfo,477222543
cg,A,2,offcore-response-demand-rfo-llc-hit-hitm-other-core,15746
cg,A,2,offcore-response-demand-rfo-llc-miss-remote-hitm,800
cg,A,2,offcore-response-all-reads-llc-hit-any-response,236733920
cg,A,2,offcore-response-all-reads-llc-miss-any-response,65125369
cg,A,4,cycles,4773925522
cg,A,4,L1-dcache-loads,2784945247
cg,A,4,L1-dcache-load-misses,749859038
cg,A,4,L1-dcache-stores,180725478
cg,A,4,LLC-loads,151349500
cg,A,4,LLC-load-misses,23007046
cg,A,4,LLC-stores,1876988
cg,A,4,offcore-requests-demand-rfo,1756272
cg,A,4,l2-rqsts-all-rfo,2342879
cg,A,4,l2-rqsts-rfo-miss,1671085
cg,A,4,l2-store-lock-rqsts-all,2326411
cg,A,4,l2-store-lock-rqsts-miss,1394835
cg,A,4,l2-trans-rfo,2395930
cg,A,4,offcore-requests-outstanding-demand-rfo,718496809
cg,A,4,offcore-response-demand-rfo-llc-hit-hitm-other-core,23400
cg,A,4,offcore-response-demand-rfo-llc-miss-remote-hitm,735
cg,A,4,offcore-response-all-reads-llc-hit-any-response,242973983
cg,A,4,offcore-response-all-reads-llc-miss-any-response,61027010
cg,A,8,cycles,4903666086
cg,A,8,L1-dcache-loads,2801745959
cg,A,8,L1-dcache-load-misses,749645413
cg,A,8,L1-dcache-stores,184496893
cg,A,8,LLC-loads,152401437
cg,A,8,LLC-load-misses,23528936
cg,A,8,LLC-stores,2084483
cg,A,8,offcore-requests-demand-rfo,1757350
cg,A,8,l2-rqsts-all-rfo,2459680
cg,A,8,l2-rqsts-rfo-miss,1754522
cg,A,8,l2-store-lock-rqsts-all,2425631
cg,A,8,l2-store-lock-rqsts-miss,1468276
cg,A,8,l2-trans-rfo,2568069
cg,A,8,offcore-requests-outstanding-demand-rfo,453990751
cg,A,8,offcore-response-demand-rfo-llc-hit-hitm-other-core,41532
cg,A,8,offcore-response-demand-rfo-llc-miss-remote-hitm,701
cg,A,8,offcore-response-all-reads-llc-hit-any-response,233645487
cg,A,8,offcore-response-all-reads-llc-miss-any-response,59789084
