cg,A,1,cycles,5231417672
cg,A,1,L1-dcache-loads,2770077958
cg,A,1,L1-dcache-load-misses,748005398
cg,A,1,L1-dcache-stores,177958376
cg,A,1,LLC-loads,488554927
cg,A,1,LLC-load-misses,29871614
cg,A,1,LLC-stores,1477162
cg,A,1,offcore-requests-demand-rfo,1461773
cg,A,1,l2-rqsts-all-rfo,2025288
cg,A,1,l2-rqsts-rfo-miss,1458371
cg,A,1,l2-store-lock-rqsts-all,2016777
cg,A,1,l2-store-lock-rqsts-miss,1456120
cg,A,1,l2-trans-rfo,2074226
cg,A,1,offcore-requests-outstanding-demand-rfo,246756456
cg,A,1,offcore-response-demand-rfo-llc-hit-hitm-other-core,1358
cg,A,1,offcore-response-demand-rfo-llc-miss-remote-hitm,157
cg,A,1,offcore-response-all-reads-llc-hit-any-response,680003714
cg,A,1,offcore-response-all-reads-llc-miss-any-response,58073110
cg,A,2,cycles,4508867840
cg,A,2,L1-dcache-loads,2774496731
cg,A,2,L1-dcache-load-misses,749783826
cg,A,2,L1-dcache-stores,178813616
cg,A,2,LLC-loads,199818854
cg,A,2,LLC-load-misses,19549598
cg,A,2,LLC-stores,1785341
cg,A,2,offcore-requests-demand-rfo,1593731
cg,A,2,l2-rqsts-all-rfo,2201991
cg,A,2,l2-rqsts-rfo-miss,1533214
cg,A,2,l2-store-lock-rqsts-all,2189566
cg,A,2,l2-store-lock-rqsts-miss,1383420
cg,A,2,l2-trans-rfo,2263734
cg,A,2,offcore-requests-outstanding-demand-rfo,411457686
cg,A,2,offcore-response-demand-rfo-llc-hit-hitm-other-core,14694
cg,A,2,offcore-response-demand-rfo-llc-miss-remote-hitm,920
cg,A,2,offcore-response-all-reads-llc-hit-any-response,274314898
cg,A,2,offcore-response-all-reads-llc-miss-any-response,61383145
cg,A,4,cycles,4514746279
cg,A,4,L1-dcache-loads,2784941470
cg,A,4,L1-dcache-load-misses,749567802
cg,A,4,L1-dcache-stores,180723525
cg,A,4,LLC-loads,162744979
cg,A,4,LLC-load-misses,21225508
cg,A,4,LLC-stores,1878823
cg,A,4,offcore-requests-demand-rfo,1712221
cg,A,4,l2-rqsts-all-rfo,2328379
cg,A,4,l2-rqsts-rfo-miss,1698933
cg,A,4,l2-store-lock-rqsts-all,2318468
cg,A,4,l2-store-lock-rqsts-miss,1353311
cg,A,4,l2-trans-rfo,2407302
cg,A,4,offcore-requests-outstanding-demand-rfo,802416737
cg,A,4,offcore-response-demand-rfo-llc-hit-hitm-other-core,22850
cg,A,4,offcore-response-demand-rfo-llc-miss-remote-hitm,707
cg,A,4,offcore-response-all-reads-llc-hit-any-response,237473552
cg,A,4,offcore-response-all-reads-llc-miss-any-response,61472236
cg,A,8,cycles,4841172267
cg,A,8,L1-dcache-loads,2802199692
cg,A,8,L1-dcache-load-misses,749681266
cg,A,8,L1-dcache-stores,184476728
cg,A,8,LLC-loads,152662344
cg,A,8,LLC-load-misses,23725401
cg,A,8,LLC-stores,2059379
cg,A,8,offcore-requests-demand-rfo,1760070
cg,A,8,l2-rqsts-all-rfo,2461425
cg,A,8,l2-rqsts-rfo-miss,1700689
cg,A,8,l2-store-lock-rqsts-all,2437382
cg,A,8,l2-store-lock-rqsts-miss,1454110
cg,A,8,l2-trans-rfo,2592826
cg,A,8,offcore-requests-outstanding-demand-rfo,947662325
cg,A,8,offcore-response-demand-rfo-llc-hit-hitm-other-core,41394
cg,A,8,offcore-response-demand-rfo-llc-miss-remote-hitm,1013
cg,A,8,offcore-response-all-reads-llc-hit-any-response,244484158
cg,A,8,offcore-response-all-reads-llc-miss-any-response,60147733
