cg,A,1,cycles,5263837154
cg,A,1,L1-dcache-loads,2770098261
cg,A,1,L1-dcache-load-misses,748200271
cg,A,1,L1-dcache-stores,178000396
cg,A,1,LLC-loads,492891371
cg,A,1,LLC-load-misses,30861887
cg,A,1,LLC-stores,1479641
cg,A,1,offcore-requests-demand-rfo,1473142
cg,A,1,l2-rqsts-all-rfo,2033773
cg,A,1,l2-rqsts-rfo-miss,1451124
cg,A,1,l2-store-lock-rqsts-all,2021563
cg,A,1,l2-store-lock-rqsts-miss,1455882
cg,A,1,l2-trans-rfo,2069236
cg,A,1,offcore-requests-outstanding-demand-rfo,244070662
cg,A,1,offcore-response-demand-rfo-llc-hit-hitm-other-core,679
cg,A,1,offcore-response-demand-rfo-llc-miss-remote-hitm,260
cg,A,1,offcore-response-all-reads-llc-hit-any-response,679713257
cg,A,1,offcore-response-all-reads-llc-miss-any-response,62246937
cg,A,2,cycles,4507585366
cg,A,2,L1-dcache-loads,2774722194
cg,A,2,L1-dcache-load-misses,749592873
cg,A,2,L1-dcache-stores,178848881
cg,A,2,LLC-loads,198406180
cg,A,2,LLC-load-misses,23900755
cg,A,2,LLC-stores,1804249
cg,A,2,offcore-requests-demand-rfo,1594595
cg,A,2,l2-rqsts-all-rfo,2211591
cg,A,2,l2-rqsts-rfo-miss,1601666
cg,A,2,l2-store-lock-rqsts-all,2185718
cg,A,2,l2-store-lock-rqsts-miss,1392578
cg,A,2,l2-trans-rfo,2307701
cg,A,2,offcore-requests-outstanding-demand-rfo,995015457
cg,A,2,offcore-response-demand-rfo-llc-hit-hitm-other-core,15887
cg,A,2,offcore-response-demand-rfo-llc-miss-remote-hitm,827
cg,A,2,offcore-response-all-reads-llc-hit-any-response,263140526
cg,A,2,offcore-response-all-reads-llc-miss-any-response,60407639
cg,A,4,cycles,4511948442
cg,A,4,L1-dcache-loads,2785311901
cg,A,4,L1-dcache-load-misses,749463634
cg,A,4,L1-dcache-stores,180741519
cg,A,4,LLC-loads,153865042
cg,A,4,LLC-load-misses,23974979
cg,A,4,LLC-stores,1901552
cg,A,4,offcore-requests-demand-rfo,1720575
cg,A,4,l2-rqsts-all-rfo,2335207
cg,A,4,l2-rqsts-rfo-miss,1696582
cg,A,4,l2-store-lock-rqsts-all,2313014
cg,A,4,l2-store-lock-rqsts-miss,1450412
cg,A,4,l2-trans-rfo,2414480
cg,A,4,offcore-requests-outstanding-demand-rfo,1117365290
cg,A,4,offcore-response-demand-rfo-llc-hit-hitm-other-core,23101
cg,A,4,offcore-response-demand-rfo-llc-miss-remote-hitm,731
cg,A,4,offcore-response-all-reads-llc-hit-any-response,241384607
cg,A,4,offcore-response-all-reads-llc-miss-any-response,64000964
cg,A,8,cycles,4923671079
cg,A,8,L1-dcache-loads,2802472318
cg,A,8,L1-dcache-load-misses,749371298
cg,A,8,L1-dcache-stores,184530045
cg,A,8,LLC-loads,142809365
cg,A,8,LLC-load-misses,24994590
cg,A,8,LLC-stores,2051065
cg,A,8,offcore-requests-demand-rfo,1744783
cg,A,8,l2-rqsts-all-rfo,2451810
cg,A,8,l2-rqsts-rfo-miss,1700594
cg,A,8,l2-store-lock-rqsts-all,2420549
cg,A,8,l2-store-lock-rqsts-miss,1452985
cg,A,8,l2-trans-rfo,2594492
cg,A,8,offcore-requests-outstanding-demand-rfo,608170322
cg,A,8,offcore-response-demand-rfo-llc-hit-hitm-other-core,41030
cg,A,8,offcore-response-demand-rfo-llc-miss-remote-hitm,560
cg,A,8,offcore-response-all-reads-llc-hit-any-response,247009384
cg,A,8,offcore-response-all-reads-llc-miss-any-response,65126438
