cg,A,1,cycles,5207527604
cg,A,1,L1-dcache-loads,2770048296
cg,A,1,L1-dcache-load-misses,748027661
cg,A,1,L1-dcache-stores,177992152
cg,A,1,LLC-loads,488144111
cg,A,1,LLC-load-misses,29173400
cg,A,1,LLC-stores,1488643
cg,A,1,offcore-requests-demand-rfo,1475019
cg,A,1,l2-rqsts-all-rfo,2033692
cg,A,1,l2-rqsts-rfo-miss,1468383
cg,A,1,l2-store-lock-rqsts-all,2029499
cg,A,1,l2-store-lock-rqsts-miss,1455218
cg,A,1,l2-trans-rfo,2058498
cg,A,1,offcore-requests-outstanding-demand-rfo,256036145
cg,A,1,offcore-response-demand-rfo-llc-hit-hitm-other-core,64
cg,A,1,offcore-response-demand-rfo-llc-miss-remote-hitm,154
cg,A,1,offcore-response-all-reads-llc-hit-any-response,678612947
cg,A,1,offcore-response-all-reads-llc-miss-any-response,57833166
cg,A,2,cycles,4566062609
cg,A,2,L1-dcache-loads,2774665602
cg,A,2,L1-dcache-load-misses,749185791
cg,A,2,L1-dcache-stores,178828665
cg,A,2,LLC-loads,180255942
cg,A,2,LLC-load-misses,19097954
cg,A,2,LLC-stores,1761466
cg,A,2,offcore-requests-demand-rfo,1637347
cg,A,2,l2-rqsts-all-rfo,2222315
cg,A,2,l2-rqsts-rfo-miss,1596148
cg,A,2,l2-store-lock-rqsts-all,2205576
cg,A,2,l2-store-lock-rqsts-miss,1361587
cg,A,2,l2-trans-rfo,2300656
cg,A,2,offcore-requests-outstanding-demand-rfo,586441811
cg,A,2,offcore-response-demand-rfo-llc-hit-hitm-other-core,15883
cg,A,2,offcore-response-demand-rfo-llc-miss-remote-hitm,962
cg,A,2,offcore-response-all-reads-llc-hit-any-response,432225675
cg,A,2,offcore-response-all-reads-llc-miss-any-response,64328263
cg,A,4,cycles,4621598848
cg,A,4,L1-dcache-loads,2783918243
cg,A,4,L1-dcache-load-misses,749491922
cg,A,4,L1-dcache-stores,181158093
cg,A,4,LLC-loads,140866616
cg,A,4,LLC-load-misses,21295041
cg,A,4,LLC-stores,1900509
cg,A,4,offcore-requests-demand-rfo,1729286
cg,A,4,l2-rqsts-all-rfo,2335433
cg,A,4,l2-rqsts-rfo-miss,1727236
cg,A,4,l2-store-lock-rqsts-all,2311593
cg,A,4,l2-store-lock-rqsts-miss,1397689
cg,A,4,l2-trans-rfo,2413582
cg,A,4,offcore-requests-outstanding-demand-rfo,393607799
cg,A,4,offcore-response-demand-rfo-llc-hit-hitm-other-core,23122
cg,A,4,offcore-response-demand-rfo-llc-miss-remote-hitm,728
cg,A,4,offcore-response-all-reads-llc-hit-any-response,241855705
cg,A,4,offcore-response-all-reads-llc-miss-any-response,65727072
cg,A,8,cycles,5064561742
cg,A,8,L1-dcache-loads,2801592468
cg,A,8,L1-dcache-load-misses,749313759
cg,A,8,L1-dcache-stores,184506970
cg,A,8,LLC-loads,150520949
cg,A,8,LLC-load-misses,24070720
cg,A,8,LLC-stores,2018815
cg,A,8,offcore-requests-demand-rfo,1766259
cg,A,8,l2-rqsts-all-rfo,2457616
cg,A,8,l2-rqsts-rfo-miss,1715659
cg,A,8,l2-store-lock-rqsts-all,2432478
cg,A,8,l2-store-lock-rqsts-miss,1467364
cg,A,8,l2-trans-rfo,2584178
cg,A,8,offcore-requests-outstanding-demand-rfo,748404580
cg,A,8,offcore-response-demand-rfo-llc-hit-hitm-other-core,38885
cg,A,8,offcore-response-demand-rfo-llc-miss-remote-hitm,976
cg,A,8,offcore-response-all-reads-llc-hit-any-response,271145339
cg,A,8,offcore-response-all-reads-llc-miss-any-response,60370072
