cg,A,1,cycles,5229379667
cg,A,1,L1-dcache-loads,2770110839
cg,A,1,L1-dcache-load-misses,747981260
cg,A,1,L1-dcache-stores,178063262
cg,A,1,LLC-loads,490424249
cg,A,1,LLC-load-misses,29542983
cg,A,1,LLC-stores,1468183
cg,A,1,offcore-requests-demand-rfo,1460822
cg,A,1,l2-rqsts-all-rfo,2032363
cg,A,1,l2-rqsts-rfo-miss,1450965
cg,A,1,l2-store-lock-rqsts-all,2028703
cg,A,1,l2-store-lock-rqsts-miss,1438315
cg,A,1,l2-trans-rfo,2059045
cg,A,1,offcore-requests-outstanding-demand-rfo,514404384
cg,A,1,offcore-response-demand-rfo-llc-hit-hitm-other-core,741
cg,A,1,offcore-response-demand-rfo-llc-miss-remote-hitm,66
cg,A,1,offcore-response-all-reads-llc-hit-any-response,678193728
cg,A,1,offcore-response-all-reads-llc-miss-any-response,58808906
cg,A,2,cycles,4353409274
cg,A,2,L1-dcache-loads,2774496422
cg,A,2,L1-dcache-load-misses,750062004
cg,A,2,L1-dcache-stores,178863873
cg,A,2,LLC-loads,139259692
cg,A,2,LLC-load-misses,18905759
cg,A,2,LLC-stores,1757237
cg,A,2,offcore-requests-demand-rfo,1631687
cg,A,2,l2-rqsts-all-rfo,2217080
cg,A,2,l2-rqsts-rfo-miss,1577237
cg,A,2,l2-store-lock-rqsts-all,2198893
cg,A,2,l2-store-lock-rqsts-miss,1379535
cg,A,2,l2-trans-rfo,2283928
cg,A,2,offcore-requests-outstanding-demand-rfo,575236255
cg,A,2,offcore-response-demand-rfo-llc-hit-hitm-other-core,15805
cg,A,2,offcore-response-demand-rfo-llc-miss-remote-hitm,881
cg,A,2,offcore-response-all-reads-llc-hit-any-response,254943165
cg,A,2,offcore-response-all-reads-llc-miss-any-response,63522153
cg,A,4,cycles,4460354792
cg,A,4,L1-dcache-loads,2784830428
cg,A,4,L1-dcache-load-misses,749697013
cg,A,4,L1-dcache-stores,180726349
cg,A,4,LLC-loads,221369642
cg,A,4,LLC-load-misses,19056399
cg,A,4,LLC-stores,1868316
cg,A,4,offcore-requests-demand-rfo,1677810
cg,A,4,l2-rqsts-all-rfo,2347028
cg,A,4,l2-rqsts-rfo-miss,1613560
cg,A,4,l2-store-lock-rqsts-all,2325688
cg,A,4,l2-store-lock-rqsts-miss,1445492
cg,A,4,l2-trans-rfo,2413998
cg,A,4,offcore-requests-outstanding-demand-rfo,668782042
cg,A,4,offcore-response-demand-rfo-llc-hit-hitm-other-core,23013
cg,A,4,offcore-response-demand-rfo-llc-miss-remote-hitm,718
cg,A,4,offcore-response-all-reads-llc-hit-any-response,252234594
cg,A,4,offcore-response-all-reads-llc-miss-any-response,58476547
cg,A,8,cycles,4910679133
cg,A,8,L1-dcache-loads,2803147804
cg,A,8,L1-dcache-load-misses,749715169
cg,A,8,L1-dcache-stores,184507243
cg,A,8,LLC-loads,149724832
cg,A,8,LLC-load-misses,24890599
cg,A,8,LLC-stores,2024100
cg,A,8,offcore-requests-demand-rfo,1753937
cg,A,8,l2-rqsts-all-rfo,2469398
cg,A,8,l2-rqsts-rfo-miss,1722441
cg,A,8,l2-store-lock-rqsts-all,2435138
cg,A,8,l2-store-lock-rqsts-miss,1469897
cg,A,8,l2-trans-rfo,2583324
cg,A,8,offcore-requests-outstanding-demand-rfo,557947046
cg,A,8,offcore-response-demand-rfo-llc-hit-hitm-other-core,41161
cg,A,8,offcore-response-demand-rfo-llc-miss-remote-hitm,583
cg,A,8,offcore-response-all-reads-llc-hit-any-response,274216311
cg,A,8,offcore-response-all-reads-llc-miss-any-response,61023777
