ep,A,1,cycles,41071173765
ep,A,1,L1-dcache-loads,9486859364
ep,A,1,L1-dcache-load-misses,143692170
ep,A,1,L1-dcache-stores,4120176555
ep,A,1,LLC-loads,3923790
ep,A,1,LLC-load-misses,4722
ep,A,1,LLC-stores,1805970
ep,A,1,offcore-requests-demand-rfo,2146827
ep,A,1,l2-rqsts-all-rfo,66338326
ep,A,1,l2-rqsts-rfo-miss,1281780
ep,A,1,l2-store-lock-rqsts-all,66340957
ep,A,1,l2-store-lock-rqsts-miss,1255869
ep,A,1,l2-trans-rfo,67726369
ep,A,1,offcore-requests-outstanding-demand-rfo,55032847
ep,A,1,offcore-response-demand-rfo-llc-hit-hitm-other-core,72
ep,A,1,offcore-response-demand-rfo-llc-miss-remote-hitm,387
ep,A,1,offcore-response-all-reads-llc-hit-any-response,139742623
ep,A,1,offcore-response-all-reads-llc-miss-any-response,24590
ep,A,2,cycles,40878073616
ep,A,2,L1-dcache-loads,9487024350
ep,A,2,L1-dcache-load-misses,143864931
ep,A,2,L1-dcache-stores,4120417496
ep,A,2,LLC-loads,3976286
ep,A,2,LLC-load-misses,34272
ep,A,2,LLC-stores,1928395
ep,A,2,offcore-requests-demand-rfo,2259874
ep,A,2,l2-rqsts-all-rfo,66367111
ep,A,2,l2-rqsts-rfo-miss,1332379
ep,A,2,l2-store-lock-rqsts-all,66357269
ep,A,2,l2-store-lock-rqsts-miss,1303192
ep,A,2,l2-trans-rfo,67891380
ep,A,2,offcore-requests-outstanding-demand-rfo,73563523
ep,A,2,offcore-response-demand-rfo-llc-hit-hitm-other-core,189
ep,A,2,offcore-response-demand-rfo-llc-miss-remote-hitm,8329
ep,A,2,offcore-response-all-reads-llc-hit-any-response,139691868
ep,A,2,offcore-response-all-reads-llc-miss-any-response,97517
ep,A,4,cycles,40901828487
ep,A,4,L1-dcache-loads,9488250653
ep,A,4,L1-dcache-load-misses,143800566
ep,A,4,L1-dcache-stores,4121162335
ep,A,4,LLC-loads,3976955
ep,A,4,LLC-load-misses,27928
ep,A,4,LLC-stores,1973032
ep,A,4,offcore-requests-demand-rfo,2314959
ep,A,4,l2-rqsts-all-rfo,66371087
ep,A,4,l2-rqsts-rfo-miss,1373786
ep,A,4,l2-store-lock-rqsts-all,66390497
ep,A,4,l2-store-lock-rqsts-miss,1354947
ep,A,4,l2-trans-rfo,67932288
ep,A,4,offcore-requests-outstanding-demand-rfo,74411323
ep,A,4,offcore-response-demand-rfo-llc-hit-hitm-other-core,2082
ep,A,4,offcore-response-demand-rfo-llc-miss-remote-hitm,6695
ep,A,4,offcore-response-all-reads-llc-hit-any-response,139592700
ep,A,4,offcore-response-all-reads-llc-miss-any-response,103167
ep,A,8,cycles,40989272139
ep,A,8,L1-dcache-loads,9490933436
ep,A,8,L1-dcache-load-misses,144076786
ep,A,8,L1-dcache-stores,4122745713
ep,A,8,LLC-loads,3984708
ep,A,8,LLC-load-misses,27361
ep,A,8,LLC-stores,2104565
ep,A,8,offcore-requests-demand-rfo,2401224
ep,A,8,l2-rqsts-all-rfo,66539598
ep,A,8,l2-rqsts-rfo-miss,1461881
ep,A,8,l2-store-lock-rqsts-all,66536128
ep,A,8,l2-store-lock-rqsts-miss,1439088
ep,A,8,l2-trans-rfo,68129770
ep,A,8,offcore-requests-outstanding-demand-rfo,10322837566
ep,A,8,offcore-response-demand-rfo-llc-hit-hitm-other-core,2534
ep,A,8,offcore-response-demand-rfo-llc-miss-remote-hitm,5518
ep,A,8,offcore-response-all-reads-llc-hit-any-response,139564227
ep,A,8,offcore-response-all-reads-llc-miss-any-response,164069
