ep,A,1,cycles,40859044584
ep,A,1,L1-dcache-loads,9486693834
ep,A,1,L1-dcache-load-misses,145262367
ep,A,1,L1-dcache-stores,4120188270
ep,A,1,LLC-loads,3843956
ep,A,1,LLC-load-misses,4373
ep,A,1,LLC-stores,1796406
ep,A,1,offcore-requests-demand-rfo,2123188
ep,A,1,l2-rqsts-all-rfo,66351674
ep,A,1,l2-rqsts-rfo-miss,1227991
ep,A,1,l2-store-lock-rqsts-all,66293336
ep,A,1,l2-store-lock-rqsts-miss,1279565
ep,A,1,l2-trans-rfo,67811984
ep,A,1,offcore-requests-outstanding-demand-rfo,50734719
ep,A,1,offcore-response-demand-rfo-llc-hit-hitm-other-core,111
ep,A,1,offcore-response-demand-rfo-llc-miss-remote-hitm,374
ep,A,1,offcore-response-all-reads-llc-hit-any-response,139796927
ep,A,1,offcore-response-all-reads-llc-miss-any-response,19933
ep,A,2,cycles,40865804882
ep,A,2,L1-dcache-loads,9487042033
ep,A,2,L1-dcache-load-misses,143578489
ep,A,2,L1-dcache-stores,4120466541
ep,A,2,LLC-loads,3924736
ep,A,2,LLC-load-misses,30667
ep,A,2,LLC-stores,1900814
ep,A,2,offcore-requests-demand-rfo,2201239
ep,A,2,l2-rqsts-all-rfo,66427648
ep,A,2,l2-rqsts-rfo-miss,1327798
ep,A,2,l2-store-lock-rqsts-all,66387156
ep,A,2,l2-store-lock-rqsts-miss,1294269
ep,A,2,l2-trans-rfo,67972496
ep,A,2,offcore-requests-outstanding-demand-rfo,63689633
ep,A,2,offcore-response-demand-rfo-llc-hit-hitm-other-core,522
ep,A,2,offcore-response-demand-rfo-llc-miss-remote-hitm,8351
ep,A,2,offcore-response-all-reads-llc-hit-any-response,139811412
ep,A,2,offcore-response-all-reads-llc-miss-any-response,90288
ep,A,4,cycles,40948655891
ep,A,4,L1-dcache-loads,9488260950
ep,A,4,L1-dcache-load-misses,143700878
ep,A,4,L1-dcache-stores,4121199302
ep,A,4,LLC-loads,4052024
ep,A,4,LLC-load-misses,25094
ep,A,4,LLC-stores,1960104
ep,A,4,offcore-requests-demand-rfo,2256499
ep,A,4,l2-rqsts-all-rfo,66443581
ep,A,4,l2-rqsts-rfo-miss,1386316
ep,A,4,l2-store-lock-rqsts-all,66468782
ep,A,4,l2-store-lock-rqsts-miss,1349389
ep,A,4,l2-trans-rfo,68040352
ep,A,4,offcore-requests-outstanding-demand-rfo,73566357
ep,A,4,offcore-response-demand-rfo-llc-hit-hitm-other-core,2853
ep,A,4,offcore-response-demand-rfo-llc-miss-remote-hitm,6633
ep,A,4,offcore-response-all-reads-llc-hit-any-response,139842095
ep,A,4,offcore-response-all-reads-llc-miss-any-response,119853
ep,A,8,cycles,40940053091
ep,A,8,L1-dcache-loads,9491295637
ep,A,8,L1-dcache-load-misses,143905780
ep,A,8,L1-dcache-stores,4122769170
ep,A,8,LLC-loads,4023273
ep,A,8,LLC-load-misses,27861
ep,A,8,LLC-stores,2089214
ep,A,8,offcore-requests-demand-rfo,2414613
ep,A,8,l2-rqsts-all-rfo,66528040
ep,A,8,l2-rqsts-rfo-miss,1461510
ep,A,8,l2-store-lock-rqsts-all,66547276
ep,A,8,l2-store-lock-rqsts-miss,1439216
ep,A,8,l2-trans-rfo,68121090
ep,A,8,offcore-requests-outstanding-demand-rfo,10324713583
ep,A,8,offcore-response-demand-rfo-llc-hit-hitm-other-core,5369
ep,A,8,offcore-response-demand-rfo-llc-miss-remote-hitm,5430
ep,A,8,offcore-response-all-reads-llc-hit-any-response,139710481
ep,A,8,offcore-response-all-reads-llc-miss-any-response,177849
