ep,A,1,cycles,40857555106
ep,A,1,L1-dcache-loads,9486761826
ep,A,1,L1-dcache-load-misses,144756920
ep,A,1,L1-dcache-stores,4120224091
ep,A,1,LLC-loads,3983790
ep,A,1,LLC-load-misses,3336
ep,A,1,LLC-stores,1833934
ep,A,1,offcore-requests-demand-rfo,2193026
ep,A,1,l2-rqsts-all-rfo,66396480
ep,A,1,l2-rqsts-rfo-miss,1263097
ep,A,1,l2-store-lock-rqsts-all,66360803
ep,A,1,l2-store-lock-rqsts-miss,1284170
ep,A,1,l2-trans-rfo,68049902
ep,A,1,offcore-requests-outstanding-demand-rfo,48400387
ep,A,1,offcore-response-demand-rfo-llc-hit-hitm-other-core,103
ep,A,1,offcore-response-demand-rfo-llc-miss-remote-hitm,388
ep,A,1,offcore-response-all-reads-llc-hit-any-response,139917061
ep,A,1,offcore-response-all-reads-llc-miss-any-response,18628
ep,A,2,cycles,40995509095
ep,A,2,L1-dcache-loads,9487095064
ep,A,2,L1-dcache-load-misses,143864638
ep,A,2,L1-dcache-stores,4120418385
ep,A,2,LLC-loads,3958778
ep,A,2,LLC-load-misses,31254
ep,A,2,LLC-stores,1903623
ep,A,2,offcore-requests-demand-rfo,2171677
ep,A,2,l2-rqsts-all-rfo,66404315
ep,A,2,l2-rqsts-rfo-miss,1333000
ep,A,2,l2-store-lock-rqsts-all,66414684
ep,A,2,l2-store-lock-rqsts-miss,1287205
ep,A,2,l2-trans-rfo,67992758
ep,A,2,offcore-requests-outstanding-demand-rfo,65975264
ep,A,2,offcore-response-demand-rfo-llc-hit-hitm-other-core,434
ep,A,2,offcore-response-demand-rfo-llc-miss-remote-hitm,7621
ep,A,2,offcore-response-all-reads-llc-hit-any-response,139836207
ep,A,2,offcore-response-all-reads-llc-miss-any-response,77602
ep,A,4,cycles,40922831088
ep,A,4,L1-dcache-loads,9488514468
ep,A,4,L1-dcache-load-misses,143589298
ep,A,4,L1-dcache-stores,4121236751
ep,A,4,LLC-loads,4041667
ep,A,4,LLC-load-misses,24891
ep,A,4,LLC-stores,1956484
ep,A,4,offcore-requests-demand-rfo,2213350
ep,A,4,l2-rqsts-all-rfo,66489130
ep,A,4,l2-rqsts-rfo-miss,1381448
ep,A,4,l2-store-lock-rqsts-all,66493964
ep,A,4,l2-store-lock-rqsts-miss,1356242
ep,A,4,l2-trans-rfo,68058891
ep,A,4,offcore-requests-outstanding-demand-rfo,76883524
ep,A,4,offcore-response-demand-rfo-llc-hit-hitm-other-core,4142
ep,A,4,offcore-response-demand-rfo-llc-miss-remote-hitm,6197
ep,A,4,offcore-response-all-reads-llc-hit-any-response,139694852
ep,A,4,offcore-response-all-reads-llc-miss-any-response,91167
ep,A,8,cycles,40949602854
ep,A,8,L1-dcache-loads,9492396656
ep,A,8,L1-dcache-load-misses,143977103
ep,A,8,L1-dcache-stores,4122770918
ep,A,8,LLC-loads,4060922
ep,A,8,LLC-load-misses,28859
ep,A,8,LLC-stores,2063708
ep,A,8,offcore-requests-demand-rfo,2366949
ep,A,8,l2-rqsts-all-rfo,66562033
ep,A,8,l2-rqsts-rfo-miss,1464489
ep,A,8,l2-store-lock-rqsts-all,66572348
ep,A,8,l2-store-lock-rqsts-miss,1440642
ep,A,8,l2-trans-rfo,68151702
ep,A,8,offcore-requests-outstanding-demand-rfo,10349497750
ep,A,8,offcore-response-demand-rfo-llc-hit-hitm-other-core,5886
ep,A,8,offcore-response-demand-rfo-llc-miss-remote-hitm,5240
ep,A,8,offcore-response-all-reads-llc-hit-any-response,139770811
ep,A,8,offcore-response-all-reads-llc-miss-any-response,192803
