ep,A,1,cycles,40822189112
ep,A,1,L1-dcache-loads,9488195527
ep,A,1,L1-dcache-load-misses,143722265
ep,A,1,L1-dcache-stores,4120534938
ep,A,1,LLC-loads,3929910
ep,A,1,LLC-load-misses,3263
ep,A,1,LLC-stores,1862238
ep,A,1,offcore-requests-demand-rfo,2171317
ep,A,1,l2-rqsts-all-rfo,66343544
ep,A,1,l2-rqsts-rfo-miss,1257880
ep,A,1,l2-store-lock-rqsts-all,66380500
ep,A,1,l2-store-lock-rqsts-miss,1265602
ep,A,1,l2-trans-rfo,67976040
ep,A,1,offcore-requests-outstanding-demand-rfo,51908666
ep,A,1,offcore-response-demand-rfo-llc-hit-hitm-other-core,74
ep,A,1,offcore-response-demand-rfo-llc-miss-remote-hitm,312
ep,A,1,offcore-response-all-reads-llc-hit-any-response,139947056
ep,A,1,offcore-response-all-reads-llc-miss-any-response,26914
ep,A,2,cycles,40965399284
ep,A,2,L1-dcache-loads,9487071354
ep,A,2,L1-dcache-load-misses,144025040
ep,A,2,L1-dcache-stores,4120426394
ep,A,2,LLC-loads,4001330
ep,A,2,LLC-load-misses,30964
ep,A,2,LLC-stores,1891550
ep,A,2,offcore-requests-demand-rfo,2154237
ep,A,2,l2-rqsts-all-rfo,66449976
ep,A,2,l2-rqsts-rfo-miss,1323651
ep,A,2,l2-store-lock-rqsts-all,66443279
ep,A,2,l2-store-lock-rqsts-miss,1301906
ep,A,2,l2-trans-rfo,68054763
ep,A,2,offcore-requests-outstanding-demand-rfo,20505271572
ep,A,2,offcore-response-demand-rfo-llc-hit-hitm-other-core,343
ep,A,2,offcore-response-demand-rfo-llc-miss-remote-hitm,7853
ep,A,2,offcore-response-all-reads-llc-hit-any-response,139836358
ep,A,2,offcore-response-all-reads-llc-miss-any-response,77416
ep,A,4,cycles,40925411969
ep,A,4,L1-dcache-loads,9488640395
ep,A,4,L1-dcache-load-misses,143902035
ep,A,4,L1-dcache-stores,4121172702
ep,A,4,LLC-loads,4069174
ep,A,4,LLC-load-misses,26991
ep,A,4,LLC-stores,1936006
ep,A,4,offcore-requests-demand-rfo,2211469
ep,A,4,l2-rqsts-all-rfo,66518489
ep,A,4,l2-rqsts-rfo-miss,1375297
ep,A,4,l2-store-lock-rqsts-all,66505824
ep,A,4,l2-store-lock-rqsts-miss,1351019
ep,A,4,l2-trans-rfo,68093560
ep,A,4,offcore-requests-outstanding-demand-rfo,74505521
ep,A,4,offcore-response-demand-rfo-llc-hit-hitm-other-core,3620
ep,A,4,offcore-response-demand-rfo-llc-miss-remote-hitm,6357
ep,A,4,offcore-response-all-reads-llc-hit-any-response,139762364
ep,A,4,offcore-response-all-reads-llc-miss-any-response,102332
ep,A,8,cycles,40952960640
ep,A,8,L1-dcache-loads,9492111538
ep,A,8,L1-dcache-load-misses,144335461
ep,A,8,L1-dcache-stores,4122777912
ep,A,8,LLC-loads,4073916
ep,A,8,LLC-load-misses,27687
ep,A,8,LLC-stores,2106111
ep,A,8,offcore-requests-demand-rfo,2381985
ep,A,8,l2-rqsts-all-rfo,66580270
ep,A,8,l2-rqsts-rfo-miss,1466063
ep,A,8,l2-store-lock-rqsts-all,66579189
ep,A,8,l2-store-lock-rqsts-miss,1439176
ep,A,8,l2-trans-rfo,68136559
ep,A,8,offcore-requests-outstanding-demand-rfo,100153760
ep,A,8,offcore-response-demand-rfo-llc-hit-hitm-other-core,4837
ep,A,8,offcore-response-demand-rfo-llc-miss-remote-hitm,5394
ep,A,8,offcore-response-all-reads-llc-hit-any-response,139851848
ep,A,8,offcore-response-all-reads-llc-miss-any-response,429124
