ep,A,1,cycles,40852315211
ep,A,1,L1-dcache-loads,9486718601
ep,A,1,L1-dcache-load-misses,144061583
ep,A,1,L1-dcache-stores,4120204739
ep,A,1,LLC-loads,3860751
ep,A,1,LLC-load-misses,5397
ep,A,1,LLC-stores,1823123
ep,A,1,offcore-requests-demand-rfo,2120267
ep,A,1,l2-rqsts-all-rfo,66358331
ep,A,1,l2-rqsts-rfo-miss,1266283
ep,A,1,l2-store-lock-rqsts-all,66372012
ep,A,1,l2-store-lock-rqsts-miss,1272562
ep,A,1,l2-trans-rfo,67694682
ep,A,1,offcore-requests-outstanding-demand-rfo,3536677885
ep,A,1,offcore-response-demand-rfo-llc-hit-hitm-other-core,71
ep,A,1,offcore-response-demand-rfo-llc-miss-remote-hitm,459
ep,A,1,offcore-response-all-reads-llc-hit-any-response,139997912
ep,A,1,offcore-response-all-reads-llc-miss-any-response,30188
ep,A,2,cycles,40908745578
ep,A,2,L1-dcache-loads,9487028468
ep,A,2,L1-dcache-load-misses,143880415
ep,A,2,L1-dcache-stores,4120449631
ep,A,2,LLC-loads,3937678
ep,A,2,LLC-load-misses,34069
ep,A,2,LLC-stores,1900551
ep,A,2,offcore-requests-demand-rfo,2252064
ep,A,2,l2-rqsts-all-rfo,66356462
ep,A,2,l2-rqsts-rfo-miss,1332168
ep,A,2,l2-store-lock-rqsts-all,66385672
ep,A,2,l2-store-lock-rqsts-miss,1298576
ep,A,2,l2-trans-rfo,67877011
ep,A,2,offcore-requests-outstanding-demand-rfo,72398171
ep,A,2,offcore-response-demand-rfo-llc-hit-hitm-other-core,165
ep,A,2,offcore-response-demand-rfo-llc-miss-remote-hitm,8537
ep,A,2,offcore-response-all-reads-llc-hit-any-response,139695202
ep,A,2,offcore-response-all-reads-llc-miss-any-response,91877
ep,A,4,cycles,40941591631
ep,A,4,L1-dcache-loads,9488340711
ep,A,4,L1-dcache-load-misses,143591108
ep,A,4,L1-dcache-stores,4121157304
ep,A,4,LLC-loads,4011882
ep,A,4,LLC-load-misses,28482
ep,A,4,LLC-stores,1950652
ep,A,4,offcore-requests-demand-rfo,2318106
ep,A,4,l2-rqsts-all-rfo,66406423
ep,A,4,l2-rqsts-rfo-miss,1376731
ep,A,4,l2-store-lock-rqsts-all,66423499
ep,A,4,l2-store-lock-rqsts-miss,1348909
ep,A,4,l2-trans-rfo,67906487
ep,A,4,offcore-requests-outstanding-demand-rfo,20521483920
ep,A,4,offcore-response-demand-rfo-llc-hit-hitm-other-core,1398
ep,A,4,offcore-response-demand-rfo-llc-miss-remote-hitm,6682
ep,A,4,offcore-response-all-reads-llc-hit-any-response,139608497
ep,A,4,offcore-response-all-reads-llc-miss-any-response,104834
ep,A,8,cycles,40925373054
ep,A,8,L1-dcache-loads,9491889070
ep,A,8,L1-dcache-load-misses,143980767
ep,A,8,L1-dcache-stores,4122779265
ep,A,8,LLC-loads,4053709
ep,A,8,LLC-load-misses,26941
ep,A,8,LLC-stores,2092672
ep,A,8,offcore-requests-demand-rfo,2383044
ep,A,8,l2-rqsts-all-rfo,66547763
ep,A,8,l2-rqsts-rfo-miss,1448783
ep,A,8,l2-store-lock-rqsts-all,66541783
ep,A,8,l2-store-lock-rqsts-miss,1439174
ep,A,8,l2-trans-rfo,68141728
ep,A,8,offcore-requests-outstanding-demand-rfo,10333782119
ep,A,8,offcore-response-demand-rfo-llc-hit-hitm-other-core,2594
ep,A,8,offcore-response-demand-rfo-llc-miss-remote-hitm,5509
ep,A,8,offcore-response-all-reads-llc-hit-any-response,139741049
ep,A,8,offcore-response-all-reads-llc-miss-any-response,160834
