ft,A,1,cycles,12878962059
ft,A,1,L1-dcache-loads,4843768724
ft,A,1,L1-dcache-load-misses,1105081462
ft,A,1,L1-dcache-stores,4561685206
ft,A,1,LLC-loads,84638602
ft,A,1,LLC-load-misses,29246509
ft,A,1,LLC-stores,96978535
ft,A,1,offcore-requests-demand-rfo,86885420
ft,A,1,l2-rqsts-all-rfo,537760864
ft,A,1,l2-rqsts-rfo-miss,78056156
ft,A,1,l2-store-lock-rqsts-all,537762426
ft,A,1,l2-store-lock-rqsts-miss,78577389
ft,A,1,l2-trans-rfo,550936025
ft,A,1,offcore-requests-outstanding-demand-rfo,6313874347
ft,A,1,offcore-response-demand-rfo-llc-hit-hitm-other-core,56
ft,A,1,offcore-response-demand-rfo-llc-miss-remote-hitm,237
ft,A,1,offcore-response-all-reads-llc-hit-any-response,298231484
ft,A,1,offcore-response-all-reads-llc-miss-any-response,98242095
ft,A,2,cycles,13190824431
ft,A,2,L1-dcache-loads,4844805325
ft,A,2,L1-dcache-load-misses,1105348796
ft,A,2,L1-dcache-stores,4561754818
ft,A,2,LLC-loads,88261060
ft,A,2,LLC-load-misses,31586948
ft,A,2,LLC-stores,100861160
ft,A,2,offcore-requests-demand-rfo,88295031
ft,A,2,l2-rqsts-all-rfo,537484787
ft,A,2,l2-rqsts-rfo-miss,80119142
ft,A,2,l2-store-lock-rqsts-all,537328852
ft,A,2,l2-store-lock-rqsts-miss,77917384
ft,A,2,l2-trans-rfo,551014689
ft,A,2,offcore-requests-outstanding-demand-rfo,6226329874
ft,A,2,offcore-response-demand-rfo-llc-hit-hitm-other-core,102295
ft,A,2,offcore-response-demand-rfo-llc-miss-remote-hitm,2551
ft,A,2,offcore-response-all-reads-llc-hit-any-response,316788827
ft,A,2,offcore-response-all-reads-llc-miss-any-response,98356882
ft,A,4,cycles,14246840240
ft,A,4,L1-dcache-loads,4848577912
ft,A,4,L1-dcache-load-misses,1105470171
ft,A,4,L1-dcache-stores,4562433688
ft,A,4,LLC-loads,92641753
ft,A,4,LLC-load-misses,33789642
ft,A,4,LLC-stores,103856967
ft,A,4,offcore-requests-demand-rfo,89844270
ft,A,4,l2-rqsts-all-rfo,536477323
ft,A,4,l2-rqsts-rfo-miss,79396186
ft,A,4,l2-store-lock-rqsts-all,536293216
ft,A,4,l2-store-lock-rqsts-miss,79096484
ft,A,4,l2-trans-rfo,559676463
ft,A,4,offcore-requests-outstanding-demand-rfo,7320373396
ft,A,4,offcore-response-demand-rfo-llc-hit-hitm-other-core,114686
ft,A,4,offcore-response-demand-rfo-llc-miss-remote-hitm,2444
ft,A,4,offcore-response-all-reads-llc-hit-any-response,348588966
ft,A,4,offcore-response-all-reads-llc-miss-any-response,98612985
ft,A,8,cycles,16881783129
ft,A,8,L1-dcache-loads,4854979491
ft,A,8,L1-dcache-load-misses,1106580697
ft,A,8,L1-dcache-stores,4562536396
ft,A,8,LLC-loads,95467707
ft,A,8,LLC-load-misses,35410862
ft,A,8,LLC-stores,103218197
ft,A,8,offcore-requests-demand-rfo,88615097
ft,A,8,l2-rqsts-all-rfo,536546319
ft,A,8,l2-rqsts-rfo-miss,79487898
ft,A,8,l2-store-lock-rqsts-all,536372895
ft,A,8,l2-store-lock-rqsts-miss,78504672
ft,A,8,l2-trans-rfo,591850771
ft,A,8,offcore-requests-outstanding-demand-rfo,9516415593
ft,A,8,offcore-response-demand-rfo-llc-hit-hitm-other-core,130740
ft,A,8,offcore-response-demand-rfo-llc-miss-remote-hitm,2219
ft,A,8,offcore-response-all-reads-llc-hit-any-response,328851851
ft,A,8,offcore-response-all-reads-llc-miss-any-response,99417356
