ft,A,1,cycles,12913211707
ft,A,1,L1-dcache-loads,4843701234
ft,A,1,L1-dcache-load-misses,1104567670
ft,A,1,L1-dcache-stores,4561687826
ft,A,1,LLC-loads,89903757
ft,A,1,LLC-load-misses,29391006
ft,A,1,LLC-stores,96433085
ft,A,1,offcore-requests-demand-rfo,86483449
ft,A,1,l2-rqsts-all-rfo,537968103
ft,A,1,l2-rqsts-rfo-miss,78261201
ft,A,1,l2-store-lock-rqsts-all,538076018
ft,A,1,l2-store-lock-rqsts-miss,78040483
ft,A,1,l2-trans-rfo,550571808
ft,A,1,offcore-requests-outstanding-demand-rfo,6364331218
ft,A,1,offcore-response-demand-rfo-llc-hit-hitm-other-core,34
ft,A,1,offcore-response-demand-rfo-llc-miss-remote-hitm,716
ft,A,1,offcore-response-all-reads-llc-hit-any-response,296460368
ft,A,1,offcore-response-all-reads-llc-miss-any-response,98251770
ft,A,2,cycles,13274035543
ft,A,2,L1-dcache-loads,4846448271
ft,A,2,L1-dcache-load-misses,1105415536
ft,A,2,L1-dcache-stores,4561704327
ft,A,2,LLC-loads,87877062
ft,A,2,LLC-load-misses,31998853
ft,A,2,LLC-stores,102069345
ft,A,2,offcore-requests-demand-rfo,88337248
ft,A,2,l2-rqsts-all-rfo,537376124
ft,A,2,l2-rqsts-rfo-miss,79204238
ft,A,2,l2-store-lock-rqsts-all,537158854
ft,A,2,l2-store-lock-rqsts-miss,78651934
ft,A,2,l2-trans-rfo,550905901
ft,A,2,offcore-requests-outstanding-demand-rfo,6345017567
ft,A,2,offcore-response-demand-rfo-llc-hit-hitm-other-core,103993
ft,A,2,offcore-response-demand-rfo-llc-miss-remote-hitm,2677
ft,A,2,offcore-response-all-reads-llc-hit-any-response,305947710
ft,A,2,offcore-response-all-reads-llc-miss-any-response,98364745
ft,A,4,cycles,14243974735
ft,A,4,L1-dcache-loads,4848073219
ft,A,4,L1-dcache-load-misses,1105230815
ft,A,4,L1-dcache-stores,4561963274
ft,A,4,LLC-loads,93345555
ft,A,4,LLC-load-misses,33902935
ft,A,4,LLC-stores,104272479
ft,A,4,offcore-requests-demand-rfo,89253082
ft,A,4,l2-rqsts-all-rfo,536372011
ft,A,4,l2-rqsts-rfo-miss,79164523
ft,A,4,l2-store-lock-rqsts-all,536311559
ft,A,4,l2-store-lock-rqsts-miss,78650999
ft,A,4,l2-trans-rfo,560037137
ft,A,4,offcore-requests-outstanding-demand-rfo,7490800865
ft,A,4,offcore-response-demand-rfo-llc-hit-hitm-other-core,118615
ft,A,4,offcore-response-demand-rfo-llc-miss-remote-hitm,2696
ft,A,4,offcore-response-all-reads-llc-hit-any-response,324800021
ft,A,4,offcore-response-all-reads-llc-miss-any-response,98648428
ft,A,8,cycles,16805443223
ft,A,8,L1-dcache-loads,4854025261
ft,A,8,L1-dcache-load-misses,1105499267
ft,A,8,L1-dcache-stores,4562508436
ft,A,8,LLC-loads,95690838
ft,A,8,LLC-load-misses,35517959
ft,A,8,LLC-stores,103641683
ft,A,8,offcore-requests-demand-rfo,89866798
ft,A,8,l2-rqsts-all-rfo,536639298
ft,A,8,l2-rqsts-rfo-miss,79137539
ft,A,8,l2-store-lock-rqsts-all,536379228
ft,A,8,l2-store-lock-rqsts-miss,79045005
ft,A,8,l2-trans-rfo,591409251
ft,A,8,offcore-requests-outstanding-demand-rfo,9821716885
ft,A,8,offcore-response-demand-rfo-llc-hit-hitm-other-core,131355
ft,A,8,offcore-response-demand-rfo-llc-miss-remote-hitm,2203
ft,A,8,offcore-response-all-reads-llc-hit-any-response,325648246
ft,A,8,offcore-response-all-reads-llc-miss-any-response,99419931
