ft,A,1,cycles,12902096345
ft,A,1,L1-dcache-loads,4843714841
ft,A,1,L1-dcache-load-misses,1104820454
ft,A,1,L1-dcache-stores,4561669954
ft,A,1,LLC-loads,89620092
ft,A,1,LLC-load-misses,29306478
ft,A,1,LLC-stores,97719266
ft,A,1,offcore-requests-demand-rfo,86618105
ft,A,1,l2-rqsts-all-rfo,537728606
ft,A,1,l2-rqsts-rfo-miss,77660488
ft,A,1,l2-store-lock-rqsts-all,537874350
ft,A,1,l2-store-lock-rqsts-miss,77792363
ft,A,1,l2-trans-rfo,550715700
ft,A,1,offcore-requests-outstanding-demand-rfo,6356607627
ft,A,1,offcore-response-demand-rfo-llc-hit-hitm-other-core,70
ft,A,1,offcore-response-demand-rfo-llc-miss-remote-hitm,266
ft,A,1,offcore-response-all-reads-llc-hit-any-response,297859329
ft,A,1,offcore-response-all-reads-llc-miss-any-response,98263322
ft,A,2,cycles,13229806891
ft,A,2,L1-dcache-loads,4848188556
ft,A,2,L1-dcache-load-misses,1105021526
ft,A,2,L1-dcache-stores,4562008103
ft,A,2,LLC-loads,88743568
ft,A,2,LLC-load-misses,31636920
ft,A,2,LLC-stores,100671468
ft,A,2,offcore-requests-demand-rfo,89438939
ft,A,2,l2-rqsts-all-rfo,537171295
ft,A,2,l2-rqsts-rfo-miss,78844890
ft,A,2,l2-store-lock-rqsts-all,537174869
ft,A,2,l2-store-lock-rqsts-miss,79012770
ft,A,2,l2-trans-rfo,550865583
ft,A,2,offcore-requests-outstanding-demand-rfo,6321620850
ft,A,2,offcore-response-demand-rfo-llc-hit-hitm-other-core,101366
ft,A,2,offcore-response-demand-rfo-llc-miss-remote-hitm,2897
ft,A,2,offcore-response-all-reads-llc-hit-any-response,325136129
ft,A,2,offcore-response-all-reads-llc-miss-any-response,98372259
ft,A,4,cycles,14247264816
ft,A,4,L1-dcache-loads,4847684601
ft,A,4,L1-dcache-load-misses,1105336296
ft,A,4,L1-dcache-stores,4561955852
ft,A,4,LLC-loads,93255935
ft,A,4,LLC-load-misses,33756304
ft,A,4,LLC-stores,103714103
ft,A,4,offcore-requests-demand-rfo,89683408
ft,A,4,l2-rqsts-all-rfo,536426070
ft,A,4,l2-rqsts-rfo-miss,79637862
ft,A,4,l2-store-lock-rqsts-all,536306160
ft,A,4,l2-store-lock-rqsts-miss,78919494
ft,A,4,l2-trans-rfo,560156639
ft,A,4,offcore-requests-outstanding-demand-rfo,7296674703
ft,A,4,offcore-response-demand-rfo-llc-hit-hitm-other-core,115520
ft,A,4,offcore-response-demand-rfo-llc-miss-remote-hitm,2512
ft,A,4,offcore-response-all-reads-llc-hit-any-response,323263947
ft,A,4,offcore-response-all-reads-llc-miss-any-response,98619407
ft,A,8,cycles,16796835591
ft,A,8,L1-dcache-loads,4853922628
ft,A,8,L1-dcache-load-misses,1105889100
ft,A,8,L1-dcache-stores,4562517878
ft,A,8,LLC-loads,95914554
ft,A,8,LLC-load-misses,35444596
ft,A,8,LLC-stores,102761261
ft,A,8,offcore-requests-demand-rfo,89013527
ft,A,8,l2-rqsts-all-rfo,536470357
ft,A,8,l2-rqsts-rfo-miss,78830140
ft,A,8,l2-store-lock-rqsts-all,536322644
ft,A,8,l2-store-lock-rqsts-miss,78855336
ft,A,8,l2-trans-rfo,591520998
ft,A,8,offcore-requests-outstanding-demand-rfo,9332447919
ft,A,8,offcore-response-demand-rfo-llc-hit-hitm-other-core,127627
ft,A,8,offcore-response-demand-rfo-llc-miss-remote-hitm,2158
ft,A,8,offcore-response-all-reads-llc-hit-any-response,330184199
ft,A,8,offcore-response-all-reads-llc-miss-any-response,99417937
