ft,A,1,cycles,12861051802
ft,A,1,L1-dcache-loads,4843789792
ft,A,1,L1-dcache-load-misses,1104416597
ft,A,1,L1-dcache-stores,4561661134
ft,A,1,LLC-loads,87677681
ft,A,1,LLC-load-misses,29188642
ft,A,1,LLC-stores,96577903
ft,A,1,offcore-requests-demand-rfo,87490798
ft,A,1,l2-rqsts-all-rfo,537889428
ft,A,1,l2-rqsts-rfo-miss,78465290
ft,A,1,l2-store-lock-rqsts-all,537984816
ft,A,1,l2-store-lock-rqsts-miss,78704830
ft,A,1,l2-trans-rfo,550521371
ft,A,1,offcore-requests-outstanding-demand-rfo,5875195468
ft,A,1,offcore-response-demand-rfo-llc-hit-hitm-other-core,49
ft,A,1,offcore-response-demand-rfo-llc-miss-remote-hitm,278
ft,A,1,offcore-response-all-reads-llc-hit-any-response,296173160
ft,A,1,offcore-response-all-reads-llc-miss-any-response,98267473
ft,A,2,cycles,13231901866
ft,A,2,L1-dcache-loads,4849254512
ft,A,2,L1-dcache-load-misses,1105695093
ft,A,2,L1-dcache-stores,4561732398
ft,A,2,LLC-loads,87786938
ft,A,2,LLC-load-misses,31868540
ft,A,2,LLC-stores,100758051
ft,A,2,offcore-requests-demand-rfo,88940806
ft,A,2,l2-rqsts-all-rfo,537396449
ft,A,2,l2-rqsts-rfo-miss,79150760
ft,A,2,l2-store-lock-rqsts-all,537218306
ft,A,2,l2-store-lock-rqsts-miss,79353598
ft,A,2,l2-trans-rfo,550953680
ft,A,2,offcore-requests-outstanding-demand-rfo,5932561438
ft,A,2,offcore-response-demand-rfo-llc-hit-hitm-other-core,100982
ft,A,2,offcore-response-demand-rfo-llc-miss-remote-hitm,2552
ft,A,2,offcore-response-all-reads-llc-hit-any-response,321228870
ft,A,2,offcore-response-all-reads-llc-miss-any-response,98379281
ft,A,4,cycles,14209852068
ft,A,4,L1-dcache-loads,4847266316
ft,A,4,L1-dcache-load-misses,1105557454
ft,A,4,L1-dcache-stores,4561995879
ft,A,4,LLC-loads,93246451
ft,A,4,LLC-load-misses,33767386
ft,A,4,LLC-stores,103827279
ft,A,4,offcore-requests-demand-rfo,89537301
ft,A,4,l2-rqsts-all-rfo,536633569
ft,A,4,l2-rqsts-rfo-miss,79960548
ft,A,4,l2-store-lock-rqsts-all,536411891
ft,A,4,l2-store-lock-rqsts-miss,79018245
ft,A,4,l2-trans-rfo,559536651
ft,A,4,offcore-requests-outstanding-demand-rfo,7039292611
ft,A,4,offcore-response-demand-rfo-llc-hit-hitm-other-core,115023
ft,A,4,offcore-response-demand-rfo-llc-miss-remote-hitm,2229
ft,A,4,offcore-response-all-reads-llc-hit-any-response,332721637
ft,A,4,offcore-response-all-reads-llc-miss-any-response,98626493
ft,A,8,cycles,16804848620
ft,A,8,L1-dcache-loads,4854030285
ft,A,8,L1-dcache-load-misses,1105723698
ft,A,8,L1-dcache-stores,4562533470
ft,A,8,LLC-loads,96559374
ft,A,8,LLC-load-misses,35370650
ft,A,8,LLC-stores,103298218
ft,A,8,offcore-requests-demand-rfo,88798014
ft,A,8,l2-rqsts-all-rfo,536492601
ft,A,8,l2-rqsts-rfo-miss,78473713
ft,A,8,l2-store-lock-rqsts-all,536358486
ft,A,8,l2-store-lock-rqsts-miss,79067560
ft,A,8,l2-trans-rfo,591678450
ft,A,8,offcore-requests-outstanding-demand-rfo,9719878767
ft,A,8,offcore-response-demand-rfo-llc-hit-hitm-other-core,129027
ft,A,8,offcore-response-demand-rfo-llc-miss-remote-hitm,1804
ft,A,8,offcore-response-all-reads-llc-hit-any-response,333945488
ft,A,8,offcore-response-all-reads-llc-miss-any-response,99411567
