ft,A,1,cycles,12897390864
ft,A,1,L1-dcache-loads,4843778802
ft,A,1,L1-dcache-load-misses,1105291979
ft,A,1,L1-dcache-stores,4561664411
ft,A,1,LLC-loads,84805197
ft,A,1,LLC-load-misses,29042200
ft,A,1,LLC-stores,97112797
ft,A,1,offcore-requests-demand-rfo,87820090
ft,A,1,l2-rqsts-all-rfo,537590024
ft,A,1,l2-rqsts-rfo-miss,77622744
ft,A,1,l2-store-lock-rqsts-all,537778323
ft,A,1,l2-store-lock-rqsts-miss,77640860
ft,A,1,l2-trans-rfo,550286570
ft,A,1,offcore-requests-outstanding-demand-rfo,6469530216
ft,A,1,offcore-response-demand-rfo-llc-hit-hitm-other-core,33
ft,A,1,offcore-response-demand-rfo-llc-miss-remote-hitm,380
ft,A,1,offcore-response-all-reads-llc-hit-any-response,297458474
ft,A,1,offcore-response-all-reads-llc-miss-any-response,98241443
ft,A,2,cycles,13251116123
ft,A,2,L1-dcache-loads,4847116523
ft,A,2,L1-dcache-load-misses,1105625325
ft,A,2,L1-dcache-stores,4561708189
ft,A,2,LLC-loads,91179700
ft,A,2,LLC-load-misses,31767692
ft,A,2,LLC-stores,100996572
ft,A,2,offcore-requests-demand-rfo,87875605
ft,A,2,l2-rqsts-all-rfo,537287849
ft,A,2,l2-rqsts-rfo-miss,79136746
ft,A,2,l2-store-lock-rqsts-all,537394096
ft,A,2,l2-store-lock-rqsts-miss,78580570
ft,A,2,l2-trans-rfo,550924402
ft,A,2,offcore-requests-outstanding-demand-rfo,6044609388
ft,A,2,offcore-response-demand-rfo-llc-hit-hitm-other-core,99694
ft,A,2,offcore-response-demand-rfo-llc-miss-remote-hitm,2681
ft,A,2,offcore-response-all-reads-llc-hit-any-response,327319078
ft,A,2,offcore-response-all-reads-llc-miss-any-response,98360659
ft,A,4,cycles,14235822796
ft,A,4,L1-dcache-loads,4847564700
ft,A,4,L1-dcache-load-misses,1105558228
ft,A,4,L1-dcache-stores,4561996486
ft,A,4,LLC-loads,93062673
ft,A,4,LLC-load-misses,34097575
ft,A,4,LLC-stores,103249295
ft,A,4,offcore-requests-demand-rfo,89411852
ft,A,4,l2-rqsts-all-rfo,536347199
ft,A,4,l2-rqsts-rfo-miss,79055365
ft,A,4,l2-store-lock-rqsts-all,536262761
ft,A,4,l2-store-lock-rqsts-miss,78831613
ft,A,4,l2-trans-rfo,560372889
ft,A,4,offcore-requests-outstanding-demand-rfo,7386284734
ft,A,4,offcore-response-demand-rfo-llc-hit-hitm-other-core,113428
ft,A,4,offcore-response-demand-rfo-llc-miss-remote-hitm,2179
ft,A,4,offcore-response-all-reads-llc-hit-any-response,331412322
ft,A,4,offcore-response-all-reads-llc-miss-any-response,98597226
ft,A,8,cycles,16824337233
ft,A,8,L1-dcache-loads,4853107143
ft,A,8,L1-dcache-load-misses,1105939167
ft,A,8,L1-dcache-stores,4562542148
ft,A,8,LLC-loads,96075124
ft,A,8,LLC-load-misses,35624809
ft,A,8,LLC-stores,103257486
ft,A,8,offcore-requests-demand-rfo,88371805
ft,A,8,l2-rqsts-all-rfo,536524468
ft,A,8,l2-rqsts-rfo-miss,79260266
ft,A,8,l2-store-lock-rqsts-all,536331330
ft,A,8,l2-store-lock-rqsts-miss,79266013
ft,A,8,l2-trans-rfo,592766501
ft,A,8,offcore-requests-outstanding-demand-rfo,9393363133
ft,A,8,offcore-response-demand-rfo-llc-hit-hitm-other-core,127928
ft,A,8,offcore-response-demand-rfo-llc-miss-remote-hitm,2242
ft,A,8,offcore-response-all-reads-llc-hit-any-response,328742059
ft,A,8,offcore-response-all-reads-llc-miss-any-response,99370907
