ft,A,1,cycles,12874925150
ft,A,1,L1-dcache-loads,4844864103
ft,A,1,L1-dcache-load-misses,1105290820
ft,A,1,L1-dcache-stores,4561735011
ft,A,1,LLC-loads,84890841
ft,A,1,LLC-load-misses,29302307
ft,A,1,LLC-stores,97090006
ft,A,1,offcore-requests-demand-rfo,85797505
ft,A,1,l2-rqsts-all-rfo,537611878
ft,A,1,l2-rqsts-rfo-miss,81398047
ft,A,1,l2-store-lock-rqsts-all,537686942
ft,A,1,l2-store-lock-rqsts-miss,77932110
ft,A,1,l2-trans-rfo,551077587
ft,A,1,offcore-requests-outstanding-demand-rfo,5551697991
ft,A,1,offcore-response-demand-rfo-llc-hit-hitm-other-core,84
ft,A,1,offcore-response-demand-rfo-llc-miss-remote-hitm,260
ft,A,1,offcore-response-all-reads-llc-hit-any-response,296400396
ft,A,1,offcore-response-all-reads-llc-miss-any-response,98236886
ft,A,2,cycles,13230005458
ft,A,2,L1-dcache-loads,4847353024
ft,A,2,L1-dcache-load-misses,1105570969
ft,A,2,L1-dcache-stores,4561826705
ft,A,2,LLC-loads,91320001
ft,A,2,LLC-load-misses,31673828
ft,A,2,LLC-stores,99653220
ft,A,2,offcore-requests-demand-rfo,88356052
ft,A,2,l2-rqsts-all-rfo,537354135
ft,A,2,l2-rqsts-rfo-miss,79028866
ft,A,2,l2-store-lock-rqsts-all,537155233
ft,A,2,l2-store-lock-rqsts-miss,78757747
ft,A,2,l2-trans-rfo,550954645
ft,A,2,offcore-requests-outstanding-demand-rfo,5902908926
ft,A,2,offcore-response-demand-rfo-llc-hit-hitm-other-core,100438
ft,A,2,offcore-response-demand-rfo-llc-miss-remote-hitm,2907
ft,A,2,offcore-response-all-reads-llc-hit-any-response,315294631
ft,A,2,offcore-response-all-reads-llc-miss-any-response,98342679
ft,A,4,cycles,14248834610
ft,A,4,L1-dcache-loads,4847774373
ft,A,4,L1-dcache-load-misses,1105809781
ft,A,4,L1-dcache-stores,4562051131
ft,A,4,LLC-loads,92395852
ft,A,4,LLC-load-misses,34383526
ft,A,4,LLC-stores,103399464
ft,A,4,offcore-requests-demand-rfo,90380197
ft,A,4,l2-rqsts-all-rfo,536491089
ft,A,4,l2-rqsts-rfo-miss,79315084
ft,A,4,l2-store-lock-rqsts-all,536376200
ft,A,4,l2-store-lock-rqsts-miss,79349935
ft,A,4,l2-trans-rfo,559540002
ft,A,4,offcore-requests-outstanding-demand-rfo,7427846366
ft,A,4,offcore-response-demand-rfo-llc-hit-hitm-other-core,112013
ft,A,4,offcore-response-demand-rfo-llc-miss-remote-hitm,2272
ft,A,4,offcore-response-all-reads-llc-hit-any-response,319007583
ft,A,4,offcore-response-all-reads-llc-miss-any-response,98607785
ft,A,8,cycles,16773273192
ft,A,8,L1-dcache-loads,4851306335
ft,A,8,L1-dcache-load-misses,1106623238
ft,A,8,L1-dcache-stores,4562599524
ft,A,8,LLC-loads,95960691
ft,A,8,LLC-load-misses,35501500
ft,A,8,LLC-stores,103145350
ft,A,8,offcore-requests-demand-rfo,89199165
ft,A,8,l2-rqsts-all-rfo,536580866
ft,A,8,l2-rqsts-rfo-miss,79174982
ft,A,8,l2-store-lock-rqsts-all,536494780
ft,A,8,l2-store-lock-rqsts-miss,78486303
ft,A,8,l2-trans-rfo,592615899
ft,A,8,offcore-requests-outstanding-demand-rfo,9643319877
ft,A,8,offcore-response-demand-rfo-llc-hit-hitm-other-core,126639
ft,A,8,offcore-response-demand-rfo-llc-miss-remote-hitm,1413
ft,A,8,offcore-response-all-reads-llc-hit-any-response,327014990
ft,A,8,offcore-response-all-reads-llc-miss-any-response,99355570
