ft,A,1,cycles,12812463605
ft,A,1,L1-dcache-loads,4843752398
ft,A,1,L1-dcache-load-misses,1104914132
ft,A,1,L1-dcache-stores,4561783756
ft,A,1,LLC-loads,84436369
ft,A,1,LLC-load-misses,29251893
ft,A,1,LLC-stores,96470037
ft,A,1,offcore-requests-demand-rfo,88553071
ft,A,1,l2-rqsts-all-rfo,537783838
ft,A,1,l2-rqsts-rfo-miss,81653886
ft,A,1,l2-store-lock-rqsts-all,537997550
ft,A,1,l2-store-lock-rqsts-miss,77439461
ft,A,1,l2-trans-rfo,550586251
ft,A,1,offcore-requests-outstanding-demand-rfo,5755609795
ft,A,1,offcore-response-demand-rfo-llc-hit-hitm-other-core,52
ft,A,1,offcore-response-demand-rfo-llc-miss-remote-hitm,180
ft,A,1,offcore-response-all-reads-llc-hit-any-response,342786599
ft,A,1,offcore-response-all-reads-llc-miss-any-response,98229796
ft,A,2,cycles,13172774607
ft,A,2,L1-dcache-loads,4844643905
ft,A,2,L1-dcache-load-misses,1105339854
ft,A,2,L1-dcache-stores,4561773306
ft,A,2,LLC-loads,88219153
ft,A,2,LLC-load-misses,32269330
ft,A,2,LLC-stores,100267008
ft,A,2,offcore-requests-demand-rfo,89551409
ft,A,2,l2-rqsts-all-rfo,537220045
ft,A,2,l2-rqsts-rfo-miss,79478081
ft,A,2,l2-store-lock-rqsts-all,537345312
ft,A,2,l2-store-lock-rqsts-miss,78925894
ft,A,2,l2-trans-rfo,550928193
ft,A,2,offcore-requests-outstanding-demand-rfo,6377671587
ft,A,2,offcore-response-demand-rfo-llc-hit-hitm-other-core,103572
ft,A,2,offcore-response-demand-rfo-llc-miss-remote-hitm,2442
ft,A,2,offcore-response-all-reads-llc-hit-any-response,330539352
ft,A,2,offcore-response-all-reads-llc-miss-any-response,98344670
ft,A,4,cycles,14192348688
ft,A,4,L1-dcache-loads,4847657632
ft,A,4,L1-dcache-load-misses,1105689602
ft,A,4,L1-dcache-stores,4562049168
ft,A,4,LLC-loads,93565732
ft,A,4,LLC-load-misses,33750315
ft,A,4,LLC-stores,103594925
ft,A,4,offcore-requests-demand-rfo,89655794
ft,A,4,l2-rqsts-all-rfo,536477308
ft,A,4,l2-rqsts-rfo-miss,79427583
ft,A,4,l2-store-lock-rqsts-all,536391177
ft,A,4,l2-store-lock-rqsts-miss,79547881
ft,A,4,l2-trans-rfo,559512693
ft,A,4,offcore-requests-outstanding-demand-rfo,7557760598
ft,A,4,offcore-response-demand-rfo-llc-hit-hitm-other-core,116770
ft,A,4,offcore-response-demand-rfo-llc-miss-remote-hitm,2389
ft,A,4,offcore-response-all-reads-llc-hit-any-response,338990735
ft,A,4,offcore-response-all-reads-llc-miss-any-response,98591722
ft,A,8,cycles,16884868561
ft,A,8,L1-dcache-loads,4851981745
ft,A,8,L1-dcache-load-misses,1105694718
ft,A,8,L1-dcache-stores,4562597866
ft,A,8,LLC-loads,96475670
ft,A,8,LLC-load-misses,35416411
ft,A,8,LLC-stores,103182743
ft,A,8,offcore-requests-demand-rfo,88994229
ft,A,8,l2-rqsts-all-rfo,536512331
ft,A,8,l2-rqsts-rfo-miss,78858905
ft,A,8,l2-store-lock-rqsts-all,536389088
ft,A,8,l2-store-lock-rqsts-miss,79462282
ft,A,8,l2-trans-rfo,592679881
ft,A,8,offcore-requests-outstanding-demand-rfo,9393653702
ft,A,8,offcore-response-demand-rfo-llc-hit-hitm-other-core,129566
ft,A,8,offcore-response-demand-rfo-llc-miss-remote-hitm,1893
ft,A,8,offcore-response-all-reads-llc-hit-any-response,346969002
ft,A,8,offcore-response-all-reads-llc-miss-any-response,99353365
