ft,A,1,cycles,12843576412
ft,A,1,L1-dcache-loads,4844091746
ft,A,1,L1-dcache-load-misses,1104919776
ft,A,1,L1-dcache-stores,4561641717
ft,A,1,LLC-loads,85163879
ft,A,1,LLC-load-misses,29457391
ft,A,1,LLC-stores,96470313
ft,A,1,offcore-requests-demand-rfo,87113819
ft,A,1,l2-rqsts-all-rfo,537656297
ft,A,1,l2-rqsts-rfo-miss,79021378
ft,A,1,l2-store-lock-rqsts-all,538141387
ft,A,1,l2-store-lock-rqsts-miss,77980023
ft,A,1,l2-trans-rfo,550610336
ft,A,1,offcore-requests-outstanding-demand-rfo,6645747713
ft,A,1,offcore-response-demand-rfo-llc-hit-hitm-other-core,55
ft,A,1,offcore-response-demand-rfo-llc-miss-remote-hitm,328
ft,A,1,offcore-response-all-reads-llc-hit-any-response,299091344
ft,A,1,offcore-response-all-reads-llc-miss-any-response,98255200
ft,A,2,cycles,13215034360
ft,A,2,L1-dcache-loads,4849051312
ft,A,2,L1-dcache-load-misses,1105650052
ft,A,2,L1-dcache-stores,4561670759
ft,A,2,LLC-loads,88839669
ft,A,2,LLC-load-misses,31650776
ft,A,2,LLC-stores,99542212
ft,A,2,offcore-requests-demand-rfo,88233551
ft,A,2,l2-rqsts-all-rfo,537381052
ft,A,2,l2-rqsts-rfo-miss,79538607
ft,A,2,l2-store-lock-rqsts-all,537191549
ft,A,2,l2-store-lock-rqsts-miss,77945421
ft,A,2,l2-trans-rfo,550876815
ft,A,2,offcore-requests-outstanding-demand-rfo,5987375898
ft,A,2,offcore-response-demand-rfo-llc-hit-hitm-other-core,99483
ft,A,2,offcore-response-demand-rfo-llc-miss-remote-hitm,2715
ft,A,2,offcore-response-all-reads-llc-hit-any-response,318919537
ft,A,2,offcore-response-all-reads-llc-miss-any-response,98379544
ft,A,4,cycles,14253139008
ft,A,4,L1-dcache-loads,4849176110
ft,A,4,L1-dcache-load-misses,1105411768
ft,A,4,L1-dcache-stores,4562308739
ft,A,4,LLC-loads,93096394
ft,A,4,LLC-load-misses,33954311
ft,A,4,LLC-stores,103575345
ft,A,4,offcore-requests-demand-rfo,89427079
ft,A,4,l2-rqsts-all-rfo,536492331
ft,A,4,l2-rqsts-rfo-miss,79034789
ft,A,4,l2-store-lock-rqsts-all,536214659
ft,A,4,l2-store-lock-rqsts-miss,79012764
ft,A,4,l2-trans-rfo,559714997
ft,A,4,offcore-requests-outstanding-demand-rfo,7483804322
ft,A,4,offcore-response-demand-rfo-llc-hit-hitm-other-core,114575
ft,A,4,offcore-response-demand-rfo-llc-miss-remote-hitm,2293
ft,A,4,offcore-response-all-reads-llc-hit-any-response,354073386
ft,A,4,offcore-response-all-reads-llc-miss-any-response,98643556
ft,A,8,cycles,16816343862
ft,A,8,L1-dcache-loads,4855044095
ft,A,8,L1-dcache-load-misses,1105765517
ft,A,8,L1-dcache-stores,4562468762
ft,A,8,LLC-loads,95996014
ft,A,8,LLC-load-misses,35653111
ft,A,8,LLC-stores,103433838
ft,A,8,offcore-requests-demand-rfo,89186391
ft,A,8,l2-rqsts-all-rfo,536372175
ft,A,8,l2-rqsts-rfo-miss,79916033
ft,A,8,l2-store-lock-rqsts-all,536375825
ft,A,8,l2-store-lock-rqsts-miss,79087817
ft,A,8,l2-trans-rfo,592276706
ft,A,8,offcore-requests-outstanding-demand-rfo,9384756481
ft,A,8,offcore-response-demand-rfo-llc-hit-hitm-other-core,128634
ft,A,8,offcore-response-demand-rfo-llc-miss-remote-hitm,1604
ft,A,8,offcore-response-all-reads-llc-hit-any-response,335346431
ft,A,8,offcore-response-all-reads-llc-miss-any-response,99439227
