ft,A,1,cycles,12907732724
ft,A,1,L1-dcache-loads,4843727610
ft,A,1,L1-dcache-load-misses,1105551451
ft,A,1,L1-dcache-stores,4561704655
ft,A,1,LLC-loads,84938491
ft,A,1,LLC-load-misses,29187107
ft,A,1,LLC-stores,97769559
ft,A,1,offcore-requests-demand-rfo,87223259
ft,A,1,l2-rqsts-all-rfo,537666289
ft,A,1,l2-rqsts-rfo-miss,77908319
ft,A,1,l2-store-lock-rqsts-all,537764844
ft,A,1,l2-store-lock-rqsts-miss,78273307
ft,A,1,l2-trans-rfo,551438332
ft,A,1,offcore-requests-outstanding-demand-rfo,5913008077
ft,A,1,offcore-response-demand-rfo-llc-hit-hitm-other-core,49
ft,A,1,offcore-response-demand-rfo-llc-miss-remote-hitm,179
ft,A,1,offcore-response-all-reads-llc-hit-any-response,353945038
ft,A,1,offcore-response-all-reads-llc-miss-any-response,98266784
ft,A,2,cycles,13200990059
ft,A,2,L1-dcache-loads,4846367170
ft,A,2,L1-dcache-load-misses,1105578146
ft,A,2,L1-dcache-stores,4561725948
ft,A,2,LLC-loads,95475375
ft,A,2,LLC-load-misses,31692214
ft,A,2,LLC-stores,99952014
ft,A,2,offcore-requests-demand-rfo,89081401
ft,A,2,l2-rqsts-all-rfo,537299050
ft,A,2,l2-rqsts-rfo-miss,79244663
ft,A,2,l2-store-lock-rqsts-all,537125333
ft,A,2,l2-store-lock-rqsts-miss,78555027
ft,A,2,l2-trans-rfo,550908060
ft,A,2,offcore-requests-outstanding-demand-rfo,6085283425
ft,A,2,offcore-response-demand-rfo-llc-hit-hitm-other-core,99071
ft,A,2,offcore-response-demand-rfo-llc-miss-remote-hitm,2580
ft,A,2,offcore-response-all-reads-llc-hit-any-response,314767120
ft,A,2,offcore-response-all-reads-llc-miss-any-response,98367647
ft,A,4,cycles,14246371556
ft,A,4,L1-dcache-loads,4846953118
ft,A,4,L1-dcache-load-misses,1105539168
ft,A,4,L1-dcache-stores,4561995463
ft,A,4,LLC-loads,92627278
ft,A,4,LLC-load-misses,33734352
ft,A,4,LLC-stores,104233205
ft,A,4,offcore-requests-demand-rfo,89744489
ft,A,4,l2-rqsts-all-rfo,536494867
ft,A,4,l2-rqsts-rfo-miss,79633096
ft,A,4,l2-store-lock-rqsts-all,536396880
ft,A,4,l2-store-lock-rqsts-miss,79029866
ft,A,4,l2-trans-rfo,560015648
ft,A,4,offcore-requests-outstanding-demand-rfo,7659769347
ft,A,4,offcore-response-demand-rfo-llc-hit-hitm-other-core,114413
ft,A,4,offcore-response-demand-rfo-llc-miss-remote-hitm,2229
ft,A,4,offcore-response-all-reads-llc-hit-any-response,325939708
ft,A,4,offcore-response-all-reads-llc-miss-any-response,98624557
ft,A,8,cycles,16757387387
ft,A,8,L1-dcache-loads,4851432412
ft,A,8,L1-dcache-load-misses,1105655864
ft,A,8,L1-dcache-stores,4562549598
ft,A,8,LLC-loads,96216226
ft,A,8,LLC-load-misses,35435495
ft,A,8,LLC-stores,103527193
ft,A,8,offcore-requests-demand-rfo,89317273
ft,A,8,l2-rqsts-all-rfo,536464916
ft,A,8,l2-rqsts-rfo-miss,79025767
ft,A,8,l2-store-lock-rqsts-all,536373963
ft,A,8,l2-store-lock-rqsts-miss,78134860
ft,A,8,l2-trans-rfo,591885160
ft,A,8,offcore-requests-outstanding-demand-rfo,9679219687
ft,A,8,offcore-response-demand-rfo-llc-hit-hitm-other-core,125781
ft,A,8,offcore-response-demand-rfo-llc-miss-remote-hitm,1639
ft,A,8,offcore-response-all-reads-llc-hit-any-response,324530121
ft,A,8,offcore-response-all-reads-llc-miss-any-response,99422293
