is,A,1,cycles,6003218302
is,A,1,L1-dcache-loads,1118282209
is,A,1,L1-dcache-load-misses,93262840
is,A,1,L1-dcache-stores,521409821
is,A,1,LLC-loads,3320115
is,A,1,LLC-load-misses,2422412
is,A,1,LLC-stores,7971190
is,A,1,offcore-requests-demand-rfo,7896051
is,A,1,l2-rqsts-all-rfo,51579411
is,A,1,l2-rqsts-rfo-miss,7779684
is,A,1,l2-store-lock-rqsts-all,51577470
is,A,1,l2-store-lock-rqsts-miss,7814469
is,A,1,l2-trans-rfo,51678705
is,A,1,offcore-requests-outstanding-demand-rfo,3944795238
is,A,1,offcore-response-demand-rfo-llc-hit-hitm-other-core,31
is,A,1,offcore-response-demand-rfo-llc-miss-remote-hitm,187
is,A,1,offcore-response-all-reads-llc-hit-any-response,2968291
is,A,1,offcore-response-all-reads-llc-miss-any-response,25394920
is,A,2,cycles,6181261521
is,A,2,L1-dcache-loads,1118375011
is,A,2,L1-dcache-load-misses,96108408
is,A,2,L1-dcache-stores,521930211
is,A,2,LLC-loads,4468328
is,A,2,LLC-load-misses,2440456
is,A,2,LLC-stores,9602691
is,A,2,offcore-requests-demand-rfo,9442094
is,A,2,l2-rqsts-all-rfo,53143581
is,A,2,l2-rqsts-rfo-miss,9294577
is,A,2,l2-store-lock-rqsts-all,53122804
is,A,2,l2-store-lock-rqsts-miss,8482029
is,A,2,l2-trans-rfo,53572096
is,A,2,offcore-requests-outstanding-demand-rfo,2517507617
is,A,2,offcore-response-demand-rfo-llc-hit-hitm-other-core,319619
is,A,2,offcore-response-demand-rfo-llc-miss-remote-hitm,1180
is,A,2,offcore-response-all-reads-llc-hit-any-response,7579039
is,A,2,offcore-response-all-reads-llc-miss-any-response,25405206
is,A,4,cycles,6344819386
is,A,4,L1-dcache-loads,1119193006
is,A,4,L1-dcache-load-misses,100317472
is,A,4,L1-dcache-stores,521921196
is,A,4,LLC-loads,6046142
is,A,4,LLC-load-misses,2500353
is,A,4,LLC-stores,11404680
is,A,4,offcore-requests-demand-rfo,11297459
is,A,4,l2-rqsts-all-rfo,55188369
is,A,4,l2-rqsts-rfo-miss,11023525
is,A,4,l2-store-lock-rqsts-all,55143482
is,A,4,l2-store-lock-rqsts-miss,9207656
is,A,4,l2-trans-rfo,56104457
is,A,4,offcore-requests-outstanding-demand-rfo,2591649523
is,A,4,offcore-response-demand-rfo-llc-hit-hitm-other-core,380813
is,A,4,offcore-response-demand-rfo-llc-miss-remote-hitm,1052
is,A,4,offcore-response-all-reads-llc-hit-any-response,15172003
is,A,4,offcore-response-all-reads-llc-miss-any-response,25371618
is,A,8,cycles,6619258441
is,A,8,L1-dcache-loads,1121671268
is,A,8,L1-dcache-load-misses,102966056
is,A,8,L1-dcache-stores,522942726
is,A,8,LLC-loads,7689367
is,A,8,LLC-load-misses,2933230
is,A,8,LLC-stores,12700376
is,A,8,offcore-requests-demand-rfo,12577933
is,A,8,l2-rqsts-all-rfo,56455178
is,A,8,l2-rqsts-rfo-miss,12214103
is,A,8,l2-store-lock-rqsts-all,56434111
is,A,8,l2-store-lock-rqsts-miss,9747416
is,A,8,l2-trans-rfo,57710690
is,A,8,offcore-requests-outstanding-demand-rfo,2727914119
is,A,8,offcore-response-demand-rfo-llc-hit-hitm-other-core,474477
is,A,8,offcore-response-demand-rfo-llc-miss-remote-hitm,1166
is,A,8,offcore-response-all-reads-llc-hit-any-response,19993424
is,A,8,offcore-response-all-reads-llc-miss-any-response,25387128
