is,A,1,cycles,5986749308
is,A,1,L1-dcache-loads,1117939146
is,A,1,L1-dcache-load-misses,93247548
is,A,1,L1-dcache-stores,521463310
is,A,1,LLC-loads,3270829
is,A,1,LLC-load-misses,2409932
is,A,1,LLC-stores,7957631
is,A,1,offcore-requests-demand-rfo,7871724
is,A,1,l2-rqsts-all-rfo,51571921
is,A,1,l2-rqsts-rfo-miss,7794201
is,A,1,l2-store-lock-rqsts-all,51564066
is,A,1,l2-store-lock-rqsts-miss,7795680
is,A,1,l2-trans-rfo,51667336
is,A,1,offcore-requests-outstanding-demand-rfo,1822607377
is,A,1,offcore-response-demand-rfo-llc-hit-hitm-other-core,33
is,A,1,offcore-response-demand-rfo-llc-miss-remote-hitm,37
is,A,1,offcore-response-all-reads-llc-hit-any-response,2749488
is,A,1,offcore-response-all-reads-llc-miss-any-response,25408851
is,A,2,cycles,6178954984
is,A,2,L1-dcache-loads,1118344852
is,A,2,L1-dcache-load-misses,96106688
is,A,2,L1-dcache-stores,521798076
is,A,2,LLC-loads,4465024
is,A,2,LLC-load-misses,2428692
is,A,2,LLC-stores,9622887
is,A,2,offcore-requests-demand-rfo,9492046
is,A,2,l2-rqsts-all-rfo,53158445
is,A,2,l2-rqsts-rfo-miss,9262264
is,A,2,l2-store-lock-rqsts-all,53116599
is,A,2,l2-store-lock-rqsts-miss,8497683
is,A,2,l2-trans-rfo,53544198
is,A,2,offcore-requests-outstanding-demand-rfo,3409272749
is,A,2,offcore-response-demand-rfo-llc-hit-hitm-other-core,320446
is,A,2,offcore-response-demand-rfo-llc-miss-remote-hitm,1362
is,A,2,offcore-response-all-reads-llc-hit-any-response,7408742
is,A,2,offcore-response-all-reads-llc-miss-any-response,25407043
is,A,4,cycles,6351735836
is,A,4,L1-dcache-loads,1119084474
is,A,4,L1-dcache-load-misses,100360291
is,A,4,L1-dcache-stores,521982839
is,A,4,LLC-loads,6003607
is,A,4,LLC-load-misses,2496000
is,A,4,LLC-stores,11446422
is,A,4,offcore-requests-demand-rfo,11263207
is,A,4,l2-rqsts-all-rfo,55169926
is,A,4,l2-rqsts-rfo-miss,10995575
is,A,4,l2-store-lock-rqsts-all,55172354
is,A,4,l2-store-lock-rqsts-miss,9201137
is,A,4,l2-trans-rfo,56077546
is,A,4,offcore-requests-outstanding-demand-rfo,4510417074
is,A,4,offcore-response-demand-rfo-llc-hit-hitm-other-core,381215
is,A,4,offcore-response-demand-rfo-llc-miss-remote-hitm,1218
is,A,4,offcore-response-all-reads-llc-hit-any-response,14877138
is,A,4,offcore-response-all-reads-llc-miss-any-response,25352641
is,A,8,cycles,6588155621
is,A,8,L1-dcache-loads,1121967714
is,A,8,L1-dcache-load-misses,102936293
is,A,8,L1-dcache-stores,522982866
is,A,8,LLC-loads,7570728
is,A,8,LLC-load-misses,2995030
is,A,8,LLC-stores,12734127
is,A,8,offcore-requests-demand-rfo,12549595
is,A,8,l2-rqsts-all-rfo,56467807
is,A,8,l2-rqsts-rfo-miss,12180210
is,A,8,l2-store-lock-rqsts-all,56436550
is,A,8,l2-store-lock-rqsts-miss,9771534
is,A,8,l2-trans-rfo,57684867
is,A,8,offcore-requests-outstanding-demand-rfo,2774720485
is,A,8,offcore-response-demand-rfo-llc-hit-hitm-other-core,470782
is,A,8,offcore-response-demand-rfo-llc-miss-remote-hitm,937
is,A,8,offcore-response-all-reads-llc-hit-any-response,19593516
is,A,8,offcore-response-all-reads-llc-miss-any-response,25373140
