is,A,1,cycles,6051595614
is,A,1,L1-dcache-loads,1117964141
is,A,1,L1-dcache-load-misses,93213692
is,A,1,L1-dcache-stores,521471916
is,A,1,LLC-loads,3437188
is,A,1,LLC-load-misses,2407702
is,A,1,LLC-stores,7962220
is,A,1,offcore-requests-demand-rfo,7898417
is,A,1,l2-rqsts-all-rfo,51570895
is,A,1,l2-rqsts-rfo-miss,7787518
is,A,1,l2-store-lock-rqsts-all,51573452
is,A,1,l2-store-lock-rqsts-miss,7866585
is,A,1,l2-trans-rfo,51663769
is,A,1,offcore-requests-outstanding-demand-rfo,3750645642
is,A,1,offcore-response-demand-rfo-llc-hit-hitm-other-core,34
is,A,1,offcore-response-demand-rfo-llc-miss-remote-hitm,102
is,A,1,offcore-response-all-reads-llc-hit-any-response,2634836
is,A,1,offcore-response-all-reads-llc-miss-any-response,25402511
is,A,2,cycles,6178965249
is,A,2,L1-dcache-loads,1118968985
is,A,2,L1-dcache-load-misses,96145285
is,A,2,L1-dcache-stores,522217585
is,A,2,LLC-loads,4371560
is,A,2,LLC-load-misses,2432107
is,A,2,LLC-stores,9617237
is,A,2,offcore-requests-demand-rfo,9449066
is,A,2,l2-rqsts-all-rfo,53112634
is,A,2,l2-rqsts-rfo-miss,9264013
is,A,2,l2-store-lock-rqsts-all,53107197
is,A,2,l2-store-lock-rqsts-miss,8499246
is,A,2,l2-trans-rfo,53554081
is,A,2,offcore-requests-outstanding-demand-rfo,2266795475
is,A,2,offcore-response-demand-rfo-llc-hit-hitm-other-core,320632
is,A,2,offcore-response-demand-rfo-llc-miss-remote-hitm,1313
is,A,2,offcore-response-all-reads-llc-hit-any-response,7292863
is,A,2,offcore-response-all-reads-llc-miss-any-response,25400745
is,A,4,cycles,6343922227
is,A,4,L1-dcache-loads,1120845793
is,A,4,L1-dcache-load-misses,100263410
is,A,4,L1-dcache-stores,521993045
is,A,4,LLC-loads,5977898
is,A,4,LLC-load-misses,2482497
is,A,4,LLC-stores,11445235
is,A,4,offcore-requests-demand-rfo,11273417
is,A,4,l2-rqsts-all-rfo,55180655
is,A,4,l2-rqsts-rfo-miss,11001149
is,A,4,l2-store-lock-rqsts-all,55167284
is,A,4,l2-store-lock-rqsts-miss,9208951
is,A,4,l2-trans-rfo,56087132
is,A,4,offcore-requests-outstanding-demand-rfo,2802377088
is,A,4,offcore-response-demand-rfo-llc-hit-hitm-other-core,383399
is,A,4,offcore-response-demand-rfo-llc-miss-remote-hitm,1173
is,A,4,offcore-response-all-reads-llc-hit-any-response,15353949
is,A,4,offcore-response-all-reads-llc-miss-any-response,25377005
is,A,8,cycles,6581739859
is,A,8,L1-dcache-loads,1122017285
is,A,8,L1-dcache-load-misses,102952171
is,A,8,L1-dcache-stores,523002400
is,A,8,LLC-loads,7706655
is,A,8,LLC-load-misses,2908255
is,A,8,LLC-stores,12679114
is,A,8,offcore-requests-demand-rfo,12559711
is,A,8,l2-rqsts-all-rfo,56463818
is,A,8,l2-rqsts-rfo-miss,12242363
is,A,8,l2-store-lock-rqsts-all,56446153
is,A,8,l2-store-lock-rqsts-miss,9757103
is,A,8,l2-trans-rfo,57731901
is,A,8,offcore-requests-outstanding-demand-rfo,3942842017
is,A,8,offcore-response-demand-rfo-llc-hit-hitm-other-core,472397
is,A,8,offcore-response-demand-rfo-llc-miss-remote-hitm,929
is,A,8,offcore-response-all-reads-llc-hit-any-response,19855272
is,A,8,offcore-response-all-reads-llc-miss-any-response,25392860
