is,A,1,cycles,6049408139
is,A,1,L1-dcache-loads,1117860769
is,A,1,L1-dcache-load-misses,93413949
is,A,1,L1-dcache-stores,521372600
is,A,1,LLC-loads,3497762
is,A,1,LLC-load-misses,2464246
is,A,1,LLC-stores,7994192
is,A,1,offcore-requests-demand-rfo,7876083
is,A,1,l2-rqsts-all-rfo,51603870
is,A,1,l2-rqsts-rfo-miss,7795891
is,A,1,l2-store-lock-rqsts-all,51596609
is,A,1,l2-store-lock-rqsts-miss,7844253
is,A,1,l2-trans-rfo,51687835
is,A,1,offcore-requests-outstanding-demand-rfo,2803976792
is,A,1,offcore-response-demand-rfo-llc-hit-hitm-other-core,33
is,A,1,offcore-response-demand-rfo-llc-miss-remote-hitm,131
is,A,1,offcore-response-all-reads-llc-hit-any-response,2714141
is,A,1,offcore-response-all-reads-llc-miss-any-response,25396902
is,A,2,cycles,6184635818
is,A,2,L1-dcache-loads,1119352137
is,A,2,L1-dcache-load-misses,96316244
is,A,2,L1-dcache-stores,521731635
is,A,2,LLC-loads,4609521
is,A,2,LLC-load-misses,2443311
is,A,2,LLC-stores,9603749
is,A,2,offcore-requests-demand-rfo,9429203
is,A,2,l2-rqsts-all-rfo,53157429
is,A,2,l2-rqsts-rfo-miss,9296836
is,A,2,l2-store-lock-rqsts-all,53137041
is,A,2,l2-store-lock-rqsts-miss,8470582
is,A,2,l2-trans-rfo,53599186
is,A,2,offcore-requests-outstanding-demand-rfo,3051817278
is,A,2,offcore-response-demand-rfo-llc-hit-hitm-other-core,320266
is,A,2,offcore-response-demand-rfo-llc-miss-remote-hitm,1334
is,A,2,offcore-response-all-reads-llc-hit-any-response,7492459
is,A,2,offcore-response-all-reads-llc-miss-any-response,25428706
is,A,4,cycles,6346904341
is,A,4,L1-dcache-loads,1120646376
is,A,4,L1-dcache-load-misses,100399736
is,A,4,L1-dcache-stores,521887880
is,A,4,LLC-loads,6109345
is,A,4,LLC-load-misses,2503651
is,A,4,LLC-stores,11438231
is,A,4,offcore-requests-demand-rfo,11264737
is,A,4,l2-rqsts-all-rfo,55184853
is,A,4,l2-rqsts-rfo-miss,11008263
is,A,4,l2-store-lock-rqsts-all,55210064
is,A,4,l2-store-lock-rqsts-miss,9208757
is,A,4,l2-trans-rfo,56061211
is,A,4,offcore-requests-outstanding-demand-rfo,2804366636
is,A,4,offcore-response-demand-rfo-llc-hit-hitm-other-core,382073
is,A,4,offcore-response-demand-rfo-llc-miss-remote-hitm,1130
is,A,4,offcore-response-all-reads-llc-hit-any-response,15022795
is,A,4,offcore-response-all-reads-llc-miss-any-response,25377417
is,A,8,cycles,6588247224
is,A,8,L1-dcache-loads,1121789973
is,A,8,L1-dcache-load-misses,103215597
is,A,8,L1-dcache-stores,522898777
is,A,8,LLC-loads,7537993
is,A,8,LLC-load-misses,2950239
is,A,8,LLC-stores,12726340
is,A,8,offcore-requests-demand-rfo,12572247
is,A,8,l2-rqsts-all-rfo,56493233
is,A,8,l2-rqsts-rfo-miss,12199574
is,A,8,l2-store-lock-rqsts-all,56483966
is,A,8,l2-store-lock-rqsts-miss,9807811
is,A,8,l2-trans-rfo,57689455
is,A,8,offcore-requests-outstanding-demand-rfo,3365935114
is,A,8,offcore-response-demand-rfo-llc-hit-hitm-other-core,471682
is,A,8,offcore-response-demand-rfo-llc-miss-remote-hitm,999
is,A,8,offcore-response-all-reads-llc-hit-any-response,19806722
is,A,8,offcore-response-all-reads-llc-miss-any-response,25390965
