is,A,1,cycles,6043653412
is,A,1,L1-dcache-loads,1117903549
is,A,1,L1-dcache-load-misses,93294920
is,A,1,L1-dcache-stores,521467226
is,A,1,LLC-loads,3586234
is,A,1,LLC-load-misses,2416220
is,A,1,LLC-stores,7959720
is,A,1,offcore-requests-demand-rfo,7867934
is,A,1,l2-rqsts-all-rfo,51572858
is,A,1,l2-rqsts-rfo-miss,7796757
is,A,1,l2-store-lock-rqsts-all,51563776
is,A,1,l2-store-lock-rqsts-miss,7869061
is,A,1,l2-trans-rfo,51676120
is,A,1,offcore-requests-outstanding-demand-rfo,2301818897
is,A,1,offcore-response-demand-rfo-llc-hit-hitm-other-core,26
is,A,1,offcore-response-demand-rfo-llc-miss-remote-hitm,305
is,A,1,offcore-response-all-reads-llc-hit-any-response,3007795
is,A,1,offcore-response-all-reads-llc-miss-any-response,25395634
is,A,2,cycles,6181724013
is,A,2,L1-dcache-loads,1118356138
is,A,2,L1-dcache-load-misses,96075165
is,A,2,L1-dcache-stores,521812323
is,A,2,LLC-loads,4437109
is,A,2,LLC-load-misses,2429455
is,A,2,LLC-stores,9588812
is,A,2,offcore-requests-demand-rfo,9437043
is,A,2,l2-rqsts-all-rfo,53147939
is,A,2,l2-rqsts-rfo-miss,9267167
is,A,2,l2-store-lock-rqsts-all,53098772
is,A,2,l2-store-lock-rqsts-miss,8469007
is,A,2,l2-trans-rfo,53574535
is,A,2,offcore-requests-outstanding-demand-rfo,2112260542
is,A,2,offcore-response-demand-rfo-llc-hit-hitm-other-core,323600
is,A,2,offcore-response-demand-rfo-llc-miss-remote-hitm,1519
is,A,2,offcore-response-all-reads-llc-hit-any-response,7395950
is,A,2,offcore-response-all-reads-llc-miss-any-response,25397710
is,A,4,cycles,6347263970
is,A,4,L1-dcache-loads,1120749617
is,A,4,L1-dcache-load-misses,100218675
is,A,4,L1-dcache-stores,521988270
is,A,4,LLC-loads,5888463
is,A,4,LLC-load-misses,2495317
is,A,4,LLC-stores,11445569
is,A,4,offcore-requests-demand-rfo,11282744
is,A,4,l2-rqsts-all-rfo,55133771
is,A,4,l2-rqsts-rfo-miss,11016091
is,A,4,l2-store-lock-rqsts-all,55120779
is,A,4,l2-store-lock-rqsts-miss,9226909
is,A,4,l2-trans-rfo,56070761
is,A,4,offcore-requests-outstanding-demand-rfo,3370201472
is,A,4,offcore-response-demand-rfo-llc-hit-hitm-other-core,382411
is,A,4,offcore-response-demand-rfo-llc-miss-remote-hitm,1139
is,A,4,offcore-response-all-reads-llc-hit-any-response,14800702
is,A,4,offcore-response-all-reads-llc-miss-any-response,25367364
is,A,8,cycles,6577212595
is,A,8,L1-dcache-loads,1122956091
is,A,8,L1-dcache-load-misses,102901391
is,A,8,L1-dcache-stores,522991418
is,A,8,LLC-loads,7532546
is,A,8,LLC-load-misses,2942370
is,A,8,LLC-stores,12725819
is,A,8,offcore-requests-demand-rfo,12538665
is,A,8,l2-rqsts-all-rfo,56477416
is,A,8,l2-rqsts-rfo-miss,12216032
is,A,8,l2-store-lock-rqsts-all,56479962
is,A,8,l2-store-lock-rqsts-miss,9759429
is,A,8,l2-trans-rfo,57663669
is,A,8,offcore-requests-outstanding-demand-rfo,2737680454
is,A,8,offcore-response-demand-rfo-llc-hit-hitm-other-core,470693
is,A,8,offcore-response-demand-rfo-llc-miss-remote-hitm,1034
is,A,8,offcore-response-all-reads-llc-hit-any-response,19856101
is,A,8,offcore-response-all-reads-llc-miss-any-response,25375485
