is,A,1,cycles,6049168378
is,A,1,L1-dcache-loads,1117935628
is,A,1,L1-dcache-load-misses,93275444
is,A,1,L1-dcache-stores,521437873
is,A,1,LLC-loads,3292542
is,A,1,LLC-load-misses,2411023
is,A,1,LLC-stores,8013697
is,A,1,offcore-requests-demand-rfo,7900151
is,A,1,l2-rqsts-all-rfo,51575018
is,A,1,l2-rqsts-rfo-miss,7795739
is,A,1,l2-store-lock-rqsts-all,51576306
is,A,1,l2-store-lock-rqsts-miss,7816801
is,A,1,l2-trans-rfo,51676197
is,A,1,offcore-requests-outstanding-demand-rfo,3600697522
is,A,1,offcore-response-demand-rfo-llc-hit-hitm-other-core,30
is,A,1,offcore-response-demand-rfo-llc-miss-remote-hitm,362
is,A,1,offcore-response-all-reads-llc-hit-any-response,2638173
is,A,1,offcore-response-all-reads-llc-miss-any-response,25406274
is,A,2,cycles,6178837128
is,A,2,L1-dcache-loads,1118320545
is,A,2,L1-dcache-load-misses,96222105
is,A,2,L1-dcache-stores,521782226
is,A,2,LLC-loads,4341014
is,A,2,LLC-load-misses,2427825
is,A,2,LLC-stores,9616793
is,A,2,offcore-requests-demand-rfo,9465485
is,A,2,l2-rqsts-all-rfo,53129023
is,A,2,l2-rqsts-rfo-miss,9267488
is,A,2,l2-store-lock-rqsts-all,53117105
is,A,2,l2-store-lock-rqsts-miss,8486750
is,A,2,l2-trans-rfo,53534144
is,A,2,offcore-requests-outstanding-demand-rfo,2784613624
is,A,2,offcore-response-demand-rfo-llc-hit-hitm-other-core,320072
is,A,2,offcore-response-demand-rfo-llc-miss-remote-hitm,1168
is,A,2,offcore-response-all-reads-llc-hit-any-response,7345246
is,A,2,offcore-response-all-reads-llc-miss-any-response,25409071
is,A,4,cycles,6348035151
is,A,4,L1-dcache-loads,1119164901
is,A,4,L1-dcache-load-misses,100329045
is,A,4,L1-dcache-stores,521977134
is,A,4,LLC-loads,6139947
is,A,4,LLC-load-misses,2480372
is,A,4,LLC-stores,11415853
is,A,4,offcore-requests-demand-rfo,11255685
is,A,4,l2-rqsts-all-rfo,55140866
is,A,4,l2-rqsts-rfo-miss,10990155
is,A,4,l2-store-lock-rqsts-all,55135089
is,A,4,l2-store-lock-rqsts-miss,9195802
is,A,4,l2-trans-rfo,56030271
is,A,4,offcore-requests-outstanding-demand-rfo,2306788939
is,A,4,offcore-response-demand-rfo-llc-hit-hitm-other-core,382629
is,A,4,offcore-response-demand-rfo-llc-miss-remote-hitm,1013
is,A,4,offcore-response-all-reads-llc-hit-any-response,14929019
is,A,4,offcore-response-all-reads-llc-miss-any-response,25383118
is,A,8,cycles,6587777616
is,A,8,L1-dcache-loads,1121972268
is,A,8,L1-dcache-load-misses,102905549
is,A,8,L1-dcache-stores,522968259
is,A,8,LLC-loads,7584240
is,A,8,LLC-load-misses,2935809
is,A,8,LLC-stores,12747235
is,A,8,offcore-requests-demand-rfo,12570390
is,A,8,l2-rqsts-all-rfo,56472507
is,A,8,l2-rqsts-rfo-miss,12244897
is,A,8,l2-store-lock-rqsts-all,56468159
is,A,8,l2-store-lock-rqsts-miss,9758099
is,A,8,l2-trans-rfo,57692629
is,A,8,offcore-requests-outstanding-demand-rfo,2437858451
is,A,8,offcore-response-demand-rfo-llc-hit-hitm-other-core,471742
is,A,8,offcore-response-demand-rfo-llc-miss-remote-hitm,1343
is,A,8,offcore-response-all-reads-llc-hit-any-response,19541112
is,A,8,offcore-response-all-reads-llc-miss-any-response,25381437
