is,A,1,cycles,6041457559
is,A,1,L1-dcache-loads,1118055453
is,A,1,L1-dcache-load-misses,93419987
is,A,1,L1-dcache-stores,521390278
is,A,1,LLC-loads,3446774
is,A,1,LLC-load-misses,2438455
is,A,1,LLC-stores,8010958
is,A,1,offcore-requests-demand-rfo,7893461
is,A,1,l2-rqsts-all-rfo,51580327
is,A,1,l2-rqsts-rfo-miss,7786201
is,A,1,l2-store-lock-rqsts-all,51581358
is,A,1,l2-store-lock-rqsts-miss,7916922
is,A,1,l2-trans-rfo,51689336
is,A,1,offcore-requests-outstanding-demand-rfo,2507339914
is,A,1,offcore-response-demand-rfo-llc-hit-hitm-other-core,34
is,A,1,offcore-response-demand-rfo-llc-miss-remote-hitm,268
is,A,1,offcore-response-all-reads-llc-hit-any-response,2716313
is,A,1,offcore-response-all-reads-llc-miss-any-response,25394068
is,A,2,cycles,6182468550
is,A,2,L1-dcache-loads,1118440988
is,A,2,L1-dcache-load-misses,96265855
is,A,2,L1-dcache-stores,521737474
is,A,2,LLC-loads,4549196
is,A,2,LLC-load-misses,2458851
is,A,2,LLC-stores,9608841
is,A,2,offcore-requests-demand-rfo,9441746
is,A,2,l2-rqsts-all-rfo,53144365
is,A,2,l2-rqsts-rfo-miss,9293961
is,A,2,l2-store-lock-rqsts-all,53121963
is,A,2,l2-store-lock-rqsts-miss,8489229
is,A,2,l2-trans-rfo,53554168
is,A,2,offcore-requests-outstanding-demand-rfo,2821850037
is,A,2,offcore-response-demand-rfo-llc-hit-hitm-other-core,320944
is,A,2,offcore-response-demand-rfo-llc-miss-remote-hitm,1164
is,A,2,offcore-response-all-reads-llc-hit-any-response,7449395
is,A,2,offcore-response-all-reads-llc-miss-any-response,25396140
is,A,4,cycles,6347108595
is,A,4,L1-dcache-loads,1119138915
is,A,4,L1-dcache-load-misses,100329123
is,A,4,L1-dcache-stores,521919107
is,A,4,LLC-loads,5968922
is,A,4,LLC-load-misses,2501990
is,A,4,LLC-stores,11454639
is,A,4,offcore-requests-demand-rfo,11317564
is,A,4,l2-rqsts-all-rfo,55189702
is,A,4,l2-rqsts-rfo-miss,11033412
is,A,4,l2-store-lock-rqsts-all,55116861
is,A,4,l2-store-lock-rqsts-miss,9255716
is,A,4,l2-trans-rfo,56093439
is,A,4,offcore-requests-outstanding-demand-rfo,2511969292
is,A,4,offcore-response-demand-rfo-llc-hit-hitm-other-core,383082
is,A,4,offcore-response-demand-rfo-llc-miss-remote-hitm,1122
is,A,4,offcore-response-all-reads-llc-hit-any-response,14893420
is,A,4,offcore-response-all-reads-llc-miss-any-response,25363710
is,A,8,cycles,6582015306
is,A,8,L1-dcache-loads,1122063197
is,A,8,L1-dcache-load-misses,102976299
is,A,8,L1-dcache-stores,522916311
is,A,8,LLC-loads,7975465
is,A,8,LLC-load-misses,2949205
is,A,8,LLC-stores,12701170
is,A,8,offcore-requests-demand-rfo,12585044
is,A,8,l2-rqsts-all-rfo,56490569
is,A,8,l2-rqsts-rfo-miss,12192006
is,A,8,l2-store-lock-rqsts-all,56465098
is,A,8,l2-store-lock-rqsts-miss,9767110
is,A,8,l2-trans-rfo,57654813
is,A,8,offcore-requests-outstanding-demand-rfo,2786262346
is,A,8,offcore-response-demand-rfo-llc-hit-hitm-other-core,473883
is,A,8,offcore-response-demand-rfo-llc-miss-remote-hitm,736
is,A,8,offcore-response-all-reads-llc-hit-any-response,19678421
is,A,8,offcore-response-all-reads-llc-miss-any-response,25375269
