lu,A,1,cycles,119787519706
lu,A,1,L1-dcache-loads,59618021516
lu,A,1,L1-dcache-load-misses,4916219093
lu,A,1,L1-dcache-stores,26795198708
lu,A,1,LLC-loads,648770067
lu,A,1,LLC-load-misses,216516858
lu,A,1,LLC-stores,221660864
lu,A,1,offcore-requests-demand-rfo,178122421
lu,A,1,l2-rqsts-all-rfo,1634000009
lu,A,1,l2-rqsts-rfo-miss,171711169
lu,A,1,l2-store-lock-rqsts-all,1635471395
lu,A,1,l2-store-lock-rqsts-miss,171465584
lu,A,1,l2-trans-rfo,1650094108
lu,A,1,offcore-requests-outstanding-demand-rfo,6114798589
lu,A,1,offcore-response-demand-rfo-llc-hit-hitm-other-core,116
lu,A,1,offcore-response-demand-rfo-llc-miss-remote-hitm,1564
lu,A,1,offcore-response-all-reads-llc-hit-any-response,4158186804
lu,A,1,offcore-response-all-reads-llc-miss-any-response,496226013
lu,A,2,cycles,122069932661
lu,A,2,L1-dcache-loads,59700085451
lu,A,2,L1-dcache-load-misses,4916058214
lu,A,2,L1-dcache-stores,26798323729
lu,A,2,LLC-loads,722240926
lu,A,2,LLC-load-misses,226176835
lu,A,2,LLC-stores,246475878
lu,A,2,offcore-requests-demand-rfo,188168303
lu,A,2,l2-rqsts-all-rfo,1641417347
lu,A,2,l2-rqsts-rfo-miss,180694257
lu,A,2,l2-store-lock-rqsts-all,1642142959
lu,A,2,l2-store-lock-rqsts-miss,173677816
lu,A,2,l2-trans-rfo,1656450865
lu,A,2,offcore-requests-outstanding-demand-rfo,8158589940
lu,A,2,offcore-response-demand-rfo-llc-hit-hitm-other-core,16051
lu,A,2,offcore-response-demand-rfo-llc-miss-remote-hitm,23151
lu,A,2,offcore-response-all-reads-llc-hit-any-response,4223561967
lu,A,2,offcore-response-all-reads-llc-miss-any-response,502022008
lu,A,4,cycles,130415263046
lu,A,4,L1-dcache-loads,60011787066
lu,A,4,L1-dcache-load-misses,4920773818
lu,A,4,L1-dcache-stores,26805913056
lu,A,4,LLC-loads,775225892
lu,A,4,LLC-load-misses,228804569
lu,A,4,LLC-stores,252619828
lu,A,4,offcore-requests-demand-rfo,188737196
lu,A,4,l2-rqsts-all-rfo,1643414667
lu,A,4,l2-rqsts-rfo-miss,180608818
lu,A,4,l2-store-lock-rqsts-all,1643074580
lu,A,4,l2-store-lock-rqsts-miss,171455155
lu,A,4,l2-trans-rfo,1659274413
lu,A,4,offcore-requests-outstanding-demand-rfo,10601254542
lu,A,4,offcore-response-demand-rfo-llc-hit-hitm-other-core,29954
lu,A,4,offcore-response-demand-rfo-llc-miss-remote-hitm,20357
lu,A,4,offcore-response-all-reads-llc-hit-any-response,4249812401
lu,A,4,offcore-response-all-reads-llc-miss-any-response,501376332
lu,A,8,cycles,143465324764
lu,A,8,L1-dcache-loads,60297150153
lu,A,8,L1-dcache-load-misses,4931297241
lu,A,8,L1-dcache-stores,26820152899
lu,A,8,LLC-loads,721567038
lu,A,8,LLC-load-misses,215495493
lu,A,8,LLC-stores,247329827
lu,A,8,offcore-requests-demand-rfo,181642765
lu,A,8,l2-rqsts-all-rfo,1645447646
lu,A,8,l2-rqsts-rfo-miss,172290773
lu,A,8,l2-store-lock-rqsts-all,1646091752
lu,A,8,l2-store-lock-rqsts-miss,160913349
lu,A,8,l2-trans-rfo,1675517912
lu,A,8,offcore-requests-outstanding-demand-rfo,15486644998
lu,A,8,offcore-response-demand-rfo-llc-hit-hitm-other-core,55589
lu,A,8,offcore-response-demand-rfo-llc-miss-remote-hitm,19736
lu,A,8,offcore-response-all-reads-llc-hit-any-response,3925050068
lu,A,8,offcore-response-all-reads-llc-miss-any-response,486509005
