mg,A,1,cycles,6373476230
mg,A,1,L1-dcache-loads,5177228799
mg,A,1,L1-dcache-load-misses,335301903
mg,A,1,L1-dcache-stores,1369108239
mg,A,1,LLC-loads,80409886
mg,A,1,LLC-load-misses,31296699
mg,A,1,LLC-stores,35846335
mg,A,1,offcore-requests-demand-rfo,25473395
mg,A,1,l2-rqsts-all-rfo,45812012
mg,A,1,l2-rqsts-rfo-miss,18782921
mg,A,1,l2-store-lock-rqsts-all,45637120
mg,A,1,l2-store-lock-rqsts-miss,18653050
mg,A,1,l2-trans-rfo,54443324
mg,A,1,offcore-requests-outstanding-demand-rfo,4082740313
mg,A,1,offcore-response-demand-rfo-llc-hit-hitm-other-core,43
mg,A,1,offcore-response-demand-rfo-llc-miss-remote-hitm,289
mg,A,1,offcore-response-all-reads-llc-hit-any-response,145219147
mg,A,1,offcore-response-all-reads-llc-miss-any-response,163840327
mg,A,2,cycles,6698486443
mg,A,2,L1-dcache-loads,5178356837
mg,A,2,L1-dcache-load-misses,335481029
mg,A,2,L1-dcache-stores,1369203958
mg,A,2,LLC-loads,87318643
mg,A,2,LLC-load-misses,33879843
mg,A,2,LLC-stores,38171276
mg,A,2,offcore-requests-demand-rfo,26930351
mg,A,2,l2-rqsts-all-rfo,46213293
mg,A,2,l2-rqsts-rfo-miss,19685409
mg,A,2,l2-store-lock-rqsts-all,46313703
mg,A,2,l2-store-lock-rqsts-miss,19652509
mg,A,2,l2-trans-rfo,54777564
mg,A,2,offcore-requests-outstanding-demand-rfo,4741708435
mg,A,2,offcore-response-demand-rfo-llc-hit-hitm-other-core,121772
mg,A,2,offcore-response-demand-rfo-llc-miss-remote-hitm,1329
mg,A,2,offcore-response-all-reads-llc-hit-any-response,151238841
mg,A,2,offcore-response-all-reads-llc-miss-any-response,164500682
mg,A,4,cycles,7867835980
mg,A,4,L1-dcache-loads,5181699349
mg,A,4,L1-dcache-load-misses,333133440
mg,A,4,L1-dcache-stores,1369458386
mg,A,4,LLC-loads,126510340
mg,A,4,LLC-load-misses,48569247
mg,A,4,LLC-stores,45209438
mg,A,4,offcore-requests-demand-rfo,29222354
mg,A,4,l2-rqsts-all-rfo,46108773
mg,A,4,l2-rqsts-rfo-miss,21390360
mg,A,4,l2-store-lock-rqsts-all,46102916
mg,A,4,l2-store-lock-rqsts-miss,21165844
mg,A,4,l2-trans-rfo,66205752
mg,A,4,offcore-requests-outstanding-demand-rfo,6382449075
mg,A,4,offcore-response-demand-rfo-llc-hit-hitm-other-core,149410
mg,A,4,offcore-response-demand-rfo-llc-miss-remote-hitm,892
mg,A,4,offcore-response-all-reads-llc-hit-any-response,167853469
mg,A,4,offcore-response-all-reads-llc-miss-any-response,171659314
mg,A,8,cycles,15046553328
mg,A,8,L1-dcache-loads,5187966923
mg,A,8,L1-dcache-load-misses,331842043
mg,A,8,L1-dcache-stores,1370452664
mg,A,8,LLC-loads,200694804
mg,A,8,LLC-load-misses,93528616
mg,A,8,LLC-stores,50932359
mg,A,8,offcore-requests-demand-rfo,31349468
mg,A,8,l2-rqsts-all-rfo,47035449
mg,A,8,l2-rqsts-rfo-miss,23574933
mg,A,8,l2-store-lock-rqsts-all,46873630
mg,A,8,l2-store-lock-rqsts-miss,23194161
mg,A,8,l2-trans-rfo,130838336
mg,A,8,offcore-requests-outstanding-demand-rfo,11317582364
mg,A,8,offcore-response-demand-rfo-llc-hit-hitm-other-core,172092
mg,A,8,offcore-response-demand-rfo-llc-miss-remote-hitm,1483
mg,A,8,offcore-response-all-reads-llc-hit-any-response,176699584
mg,A,8,offcore-response-all-reads-llc-miss-any-response,206340102
