mg,A,1,cycles,6437553552
mg,A,1,L1-dcache-loads,5177211067
mg,A,1,L1-dcache-load-misses,334990598
mg,A,1,L1-dcache-stores,1369208366
mg,A,1,LLC-loads,83589435
mg,A,1,LLC-load-misses,31525314
mg,A,1,LLC-stores,35434417
mg,A,1,offcore-requests-demand-rfo,25879835
mg,A,1,l2-rqsts-all-rfo,45470603
mg,A,1,l2-rqsts-rfo-miss,18874542
mg,A,1,l2-store-lock-rqsts-all,45988692
mg,A,1,l2-store-lock-rqsts-miss,18773320
mg,A,1,l2-trans-rfo,54445326
mg,A,1,offcore-requests-outstanding-demand-rfo,3669210396
mg,A,1,offcore-response-demand-rfo-llc-hit-hitm-other-core,42
mg,A,1,offcore-response-demand-rfo-llc-miss-remote-hitm,56
mg,A,1,offcore-response-all-reads-llc-hit-any-response,144660671
mg,A,1,offcore-response-all-reads-llc-miss-any-response,163817359
mg,A,2,cycles,6685625567
mg,A,2,L1-dcache-loads,5177794270
mg,A,2,L1-dcache-load-misses,335114577
mg,A,2,L1-dcache-stores,1369303959
mg,A,2,LLC-loads,89611812
mg,A,2,LLC-load-misses,33852127
mg,A,2,LLC-stores,38164455
mg,A,2,offcore-requests-demand-rfo,26802234
mg,A,2,l2-rqsts-all-rfo,46125387
mg,A,2,l2-rqsts-rfo-miss,19810853
mg,A,2,l2-store-lock-rqsts-all,46091678
mg,A,2,l2-store-lock-rqsts-miss,19503632
mg,A,2,l2-trans-rfo,54733632
mg,A,2,offcore-requests-outstanding-demand-rfo,4983819072
mg,A,2,offcore-response-demand-rfo-llc-hit-hitm-other-core,121036
mg,A,2,offcore-response-demand-rfo-llc-miss-remote-hitm,1365
mg,A,2,offcore-response-all-reads-llc-hit-any-response,151092544
mg,A,2,offcore-response-all-reads-llc-miss-any-response,164346770
mg,A,4,cycles,7801990558
mg,A,4,L1-dcache-loads,5180441177
mg,A,4,L1-dcache-load-misses,334285545
mg,A,4,L1-dcache-stores,1369549531
mg,A,4,LLC-loads,127171862
mg,A,4,LLC-load-misses,47292700
mg,A,4,LLC-stores,45352053
mg,A,4,offcore-requests-demand-rfo,28929991
mg,A,4,l2-rqsts-all-rfo,46125850
mg,A,4,l2-rqsts-rfo-miss,21483522
mg,A,4,l2-store-lock-rqsts-all,46128959
mg,A,4,l2-store-lock-rqsts-miss,21362979
mg,A,4,l2-trans-rfo,66661520
mg,A,4,offcore-requests-outstanding-demand-rfo,6876887298
mg,A,4,offcore-response-demand-rfo-llc-hit-hitm-other-core,148148
mg,A,4,offcore-response-demand-rfo-llc-miss-remote-hitm,1226
mg,A,4,offcore-response-all-reads-llc-hit-any-response,168960162
mg,A,4,offcore-response-all-reads-llc-miss-any-response,171026486
mg,A,8,cycles,14992637402
mg,A,8,L1-dcache-loads,5189294934
mg,A,8,L1-dcache-load-misses,331350074
mg,A,8,L1-dcache-stores,1370542209
mg,A,8,LLC-loads,198225031
mg,A,8,LLC-load-misses,92790732
mg,A,8,LLC-stores,50574022
mg,A,8,offcore-requests-demand-rfo,31227593
mg,A,8,l2-rqsts-all-rfo,47071728
mg,A,8,l2-rqsts-rfo-miss,23436835
mg,A,8,l2-store-lock-rqsts-all,47015667
mg,A,8,l2-store-lock-rqsts-miss,23092979
mg,A,8,l2-trans-rfo,130220736
mg,A,8,offcore-requests-outstanding-demand-rfo,10992041892
mg,A,8,offcore-response-demand-rfo-llc-hit-hitm-other-core,170953
mg,A,8,offcore-response-demand-rfo-llc-miss-remote-hitm,1349
mg,A,8,offcore-response-all-reads-llc-hit-any-response,177391789
mg,A,8,offcore-response-all-reads-llc-miss-any-response,205654613
