sp,A,1,cycles,104493239884
sp,A,1,L1-dcache-loads,60225681554
sp,A,1,L1-dcache-load-misses,5353261547
sp,A,1,L1-dcache-stores,25795985872
sp,A,1,LLC-loads,1683311294
sp,A,1,LLC-load-misses,436409235
sp,A,1,LLC-stores,254301190
sp,A,1,offcore-requests-demand-rfo,199845448
sp,A,1,l2-rqsts-all-rfo,714141446
sp,A,1,l2-rqsts-rfo-miss,176547326
sp,A,1,l2-store-lock-rqsts-all,714125531
sp,A,1,l2-store-lock-rqsts-miss,178631566
sp,A,1,l2-trans-rfo,736183229
sp,A,1,offcore-requests-outstanding-demand-rfo,13722583942
sp,A,1,offcore-response-demand-rfo-llc-hit-hitm-other-core,173
sp,A,1,offcore-response-demand-rfo-llc-miss-remote-hitm,745
sp,A,1,offcore-response-all-reads-llc-hit-any-response,4581178763
sp,A,1,offcore-response-all-reads-llc-miss-any-response,1366608737
sp,A,2,cycles,107648131815
sp,A,2,L1-dcache-loads,60280516711
sp,A,2,L1-dcache-load-misses,5356130280
sp,A,2,L1-dcache-stores,25796680917
sp,A,2,LLC-loads,1720342118
sp,A,2,LLC-load-misses,445671481
sp,A,2,LLC-stores,275823554
sp,A,2,offcore-requests-demand-rfo,200849468
sp,A,2,l2-rqsts-all-rfo,717248024
sp,A,2,l2-rqsts-rfo-miss,180697644
sp,A,2,l2-store-lock-rqsts-all,717383298
sp,A,2,l2-store-lock-rqsts-miss,179351777
sp,A,2,l2-trans-rfo,740542502
sp,A,2,offcore-requests-outstanding-demand-rfo,17518470479
sp,A,2,offcore-response-demand-rfo-llc-hit-hitm-other-core,26927
sp,A,2,offcore-response-demand-rfo-llc-miss-remote-hitm,20183
sp,A,2,offcore-response-all-reads-llc-hit-any-response,4589844483
sp,A,2,offcore-response-all-reads-llc-miss-any-response,1390324400
sp,A,4,cycles,123298562758
sp,A,4,L1-dcache-loads,60487012732
sp,A,4,L1-dcache-load-misses,5357449706
sp,A,4,L1-dcache-stores,25799020360
sp,A,4,LLC-loads,1974491262
sp,A,4,LLC-load-misses,558214944
sp,A,4,LLC-stores,304530873
sp,A,4,offcore-requests-demand-rfo,208929611
sp,A,4,l2-rqsts-all-rfo,720248935
sp,A,4,l2-rqsts-rfo-miss,191432664
sp,A,4,l2-store-lock-rqsts-all,719948930
sp,A,4,l2-store-lock-rqsts-miss,187107338
sp,A,4,l2-trans-rfo,757552197
sp,A,4,offcore-requests-outstanding-demand-rfo,25777143233
sp,A,4,offcore-response-demand-rfo-llc-hit-hitm-other-core,43545
sp,A,4,offcore-response-demand-rfo-llc-miss-remote-hitm,19798
sp,A,4,offcore-response-all-reads-llc-hit-any-response,4646101060
sp,A,4,offcore-response-all-reads-llc-miss-any-response,1413521547
sp,A,8,cycles,167995517544
sp,A,8,L1-dcache-loads,60656781563
sp,A,8,L1-dcache-load-misses,5363117285
sp,A,8,L1-dcache-stores,25804887052
sp,A,8,LLC-loads,2314708076
sp,A,8,LLC-load-misses,690792743
sp,A,8,LLC-stores,319565147
sp,A,8,offcore-requests-demand-rfo,218551271
sp,A,8,l2-rqsts-all-rfo,723766539
sp,A,8,l2-rqsts-rfo-miss,201795006
sp,A,8,l2-store-lock-rqsts-all,723551739
sp,A,8,l2-store-lock-rqsts-miss,197385175
sp,A,8,l2-trans-rfo,861060594
sp,A,8,offcore-requests-outstanding-demand-rfo,46505631266
sp,A,8,offcore-response-demand-rfo-llc-hit-hitm-other-core,71052
sp,A,8,offcore-response-demand-rfo-llc-miss-remote-hitm,18010
sp,A,8,offcore-response-all-reads-llc-hit-any-response,4729540092
sp,A,8,offcore-response-all-reads-llc-miss-any-response,1474017622
