sp,A,1,cycles,104520919271
sp,A,1,L1-dcache-loads,60225604552
sp,A,1,L1-dcache-load-misses,5351554324
sp,A,1,L1-dcache-stores,25795911268
sp,A,1,LLC-loads,1647850809
sp,A,1,LLC-load-misses,419509547
sp,A,1,LLC-stores,251395605
sp,A,1,offcore-requests-demand-rfo,204330272
sp,A,1,l2-rqsts-all-rfo,714038405
sp,A,1,l2-rqsts-rfo-miss,187370605
sp,A,1,l2-store-lock-rqsts-all,714001450
sp,A,1,l2-store-lock-rqsts-miss,180922841
sp,A,1,l2-trans-rfo,736072799
sp,A,1,offcore-requests-outstanding-demand-rfo,11822796417
sp,A,1,offcore-response-demand-rfo-llc-hit-hitm-other-core,278
sp,A,1,offcore-response-demand-rfo-llc-miss-remote-hitm,1406
sp,A,1,offcore-response-all-reads-llc-hit-any-response,4512400268
sp,A,1,offcore-response-all-reads-llc-miss-any-response,1385109407
sp,A,2,cycles,107821291898
sp,A,2,L1-dcache-loads,60288214007
sp,A,2,L1-dcache-load-misses,5357841172
sp,A,2,L1-dcache-stores,25796645597
sp,A,2,LLC-loads,1788353924
sp,A,2,LLC-load-misses,453032820
sp,A,2,LLC-stores,279284025
sp,A,2,offcore-requests-demand-rfo,201527918
sp,A,2,l2-rqsts-all-rfo,716596939
sp,A,2,l2-rqsts-rfo-miss,182148538
sp,A,2,l2-store-lock-rqsts-all,716688897
sp,A,2,l2-store-lock-rqsts-miss,177151701
sp,A,2,l2-trans-rfo,739985197
sp,A,2,offcore-requests-outstanding-demand-rfo,18499270476
sp,A,2,offcore-response-demand-rfo-llc-hit-hitm-other-core,28232
sp,A,2,offcore-response-demand-rfo-llc-miss-remote-hitm,20109
sp,A,2,offcore-response-all-reads-llc-hit-any-response,4530602845
sp,A,2,offcore-response-all-reads-llc-miss-any-response,1400175048
sp,A,4,cycles,122020158191
sp,A,4,L1-dcache-loads,60421136444
sp,A,4,L1-dcache-load-misses,5358425226
sp,A,4,L1-dcache-stores,25798998263
sp,A,4,LLC-loads,1992227595
sp,A,4,LLC-load-misses,546949172
sp,A,4,LLC-stores,303230546
sp,A,4,offcore-requests-demand-rfo,211582714
sp,A,4,l2-rqsts-all-rfo,719942599
sp,A,4,l2-rqsts-rfo-miss,192838935
sp,A,4,l2-store-lock-rqsts-all,720049490
sp,A,4,l2-store-lock-rqsts-miss,187726695
sp,A,4,l2-trans-rfo,760462437
sp,A,4,offcore-requests-outstanding-demand-rfo,26425133398
sp,A,4,offcore-response-demand-rfo-llc-hit-hitm-other-core,42557
sp,A,4,offcore-response-demand-rfo-llc-miss-remote-hitm,18527
sp,A,4,offcore-response-all-reads-llc-hit-any-response,4677580282
sp,A,4,offcore-response-all-reads-llc-miss-any-response,1416869518
sp,A,8,cycles,168979867033
sp,A,8,L1-dcache-loads,60662093500
sp,A,8,L1-dcache-load-misses,5360412340
sp,A,8,L1-dcache-stores,25805263253
sp,A,8,LLC-loads,2317497729
sp,A,8,LLC-load-misses,679650240
sp,A,8,LLC-stores,319327699
sp,A,8,offcore-requests-demand-rfo,217334552
sp,A,8,l2-rqsts-all-rfo,723520436
sp,A,8,l2-rqsts-rfo-miss,202007001
sp,A,8,l2-store-lock-rqsts-all,723835277
sp,A,8,l2-store-lock-rqsts-miss,197521178
sp,A,8,l2-trans-rfo,866419031
sp,A,8,offcore-requests-outstanding-demand-rfo,47565963072
sp,A,8,offcore-response-demand-rfo-llc-hit-hitm-other-core,71600
sp,A,8,offcore-response-demand-rfo-llc-miss-remote-hitm,21525
sp,A,8,offcore-response-all-reads-llc-hit-any-response,4732019165
sp,A,8,offcore-response-all-reads-llc-miss-any-response,1477363556
