sp,A,1,cycles,104971677442
sp,A,1,L1-dcache-loads,60225652858
sp,A,1,L1-dcache-load-misses,5353063555
sp,A,1,L1-dcache-stores,25796118079
sp,A,1,LLC-loads,1664025087
sp,A,1,LLC-load-misses,413195842
sp,A,1,LLC-stores,253077902
sp,A,1,offcore-requests-demand-rfo,198461775
sp,A,1,l2-rqsts-all-rfo,713891113
sp,A,1,l2-rqsts-rfo-miss,180431885
sp,A,1,l2-store-lock-rqsts-all,714070882
sp,A,1,l2-store-lock-rqsts-miss,184371184
sp,A,1,l2-trans-rfo,736020668
sp,A,1,offcore-requests-outstanding-demand-rfo,13992534708
sp,A,1,offcore-response-demand-rfo-llc-hit-hitm-other-core,198
sp,A,1,offcore-response-demand-rfo-llc-miss-remote-hitm,1647
sp,A,1,offcore-response-all-reads-llc-hit-any-response,4559687100
sp,A,1,offcore-response-all-reads-llc-miss-any-response,1365719367
sp,A,2,cycles,107950333906
sp,A,2,L1-dcache-loads,60290266646
sp,A,2,L1-dcache-load-misses,5355705468
sp,A,2,L1-dcache-stores,25796536809
sp,A,2,LLC-loads,1762233814
sp,A,2,LLC-load-misses,437077275
sp,A,2,LLC-stores,276101254
sp,A,2,offcore-requests-demand-rfo,200764826
sp,A,2,l2-rqsts-all-rfo,716583852
sp,A,2,l2-rqsts-rfo-miss,183091183
sp,A,2,l2-store-lock-rqsts-all,716564598
sp,A,2,l2-store-lock-rqsts-miss,180145202
sp,A,2,l2-trans-rfo,740161348
sp,A,2,offcore-requests-outstanding-demand-rfo,19151273184
sp,A,2,offcore-response-demand-rfo-llc-hit-hitm-other-core,24581
sp,A,2,offcore-response-demand-rfo-llc-miss-remote-hitm,19687
sp,A,2,offcore-response-all-reads-llc-hit-any-response,4578087159
sp,A,2,offcore-response-all-reads-llc-miss-any-response,1382790071
sp,A,4,cycles,123446732419
sp,A,4,L1-dcache-loads,60522134655
sp,A,4,L1-dcache-load-misses,5357279217
sp,A,4,L1-dcache-stores,25798917225
sp,A,4,LLC-loads,2016767836
sp,A,4,LLC-load-misses,553952993
sp,A,4,LLC-stores,305553357
sp,A,4,offcore-requests-demand-rfo,210155540
sp,A,4,l2-rqsts-all-rfo,720028267
sp,A,4,l2-rqsts-rfo-miss,190855610
sp,A,4,l2-store-lock-rqsts-all,719616245
sp,A,4,l2-store-lock-rqsts-miss,190438937
sp,A,4,l2-trans-rfo,756944615
sp,A,4,offcore-requests-outstanding-demand-rfo,28266345956
sp,A,4,offcore-response-demand-rfo-llc-hit-hitm-other-core,39011
sp,A,4,offcore-response-demand-rfo-llc-miss-remote-hitm,17860
sp,A,4,offcore-response-all-reads-llc-hit-any-response,4675723110
sp,A,4,offcore-response-all-reads-llc-miss-any-response,1401547653
sp,A,8,cycles,167999590460
sp,A,8,L1-dcache-loads,60661798094
sp,A,8,L1-dcache-load-misses,5360483105
sp,A,8,L1-dcache-stores,25804755761
sp,A,8,LLC-loads,2300386018
sp,A,8,LLC-load-misses,679309700
sp,A,8,LLC-stores,320906598
sp,A,8,offcore-requests-demand-rfo,217619793
sp,A,8,l2-rqsts-all-rfo,723648041
sp,A,8,l2-rqsts-rfo-miss,202427609
sp,A,8,l2-store-lock-rqsts-all,723556757
sp,A,8,l2-store-lock-rqsts-miss,197472224
sp,A,8,l2-trans-rfo,863433621
sp,A,8,offcore-requests-outstanding-demand-rfo,46148597194
sp,A,8,offcore-response-demand-rfo-llc-hit-hitm-other-core,71191
sp,A,8,offcore-response-demand-rfo-llc-miss-remote-hitm,21750
sp,A,8,offcore-response-all-reads-llc-hit-any-response,4738537445
sp,A,8,offcore-response-all-reads-llc-miss-any-response,1471106312
