sp,A,1,cycles,103399708684
sp,A,1,L1-dcache-loads,60225759756
sp,A,1,L1-dcache-load-misses,5357253043
sp,A,1,L1-dcache-stores,25796235962
sp,A,1,LLC-loads,1684983813
sp,A,1,LLC-load-misses,417926736
sp,A,1,LLC-stores,260304670
sp,A,1,offcore-requests-demand-rfo,199100612
sp,A,1,l2-rqsts-all-rfo,714109075
sp,A,1,l2-rqsts-rfo-miss,177406544
sp,A,1,l2-store-lock-rqsts-all,713943620
sp,A,1,l2-store-lock-rqsts-miss,180712381
sp,A,1,l2-trans-rfo,736030206
sp,A,1,offcore-requests-outstanding-demand-rfo,18245658666
sp,A,1,offcore-response-demand-rfo-llc-hit-hitm-other-core,70
sp,A,1,offcore-response-demand-rfo-llc-miss-remote-hitm,1222
sp,A,1,offcore-response-all-reads-llc-hit-any-response,4547123065
sp,A,1,offcore-response-all-reads-llc-miss-any-response,1375696329
sp,A,2,cycles,108213423767
sp,A,2,L1-dcache-loads,60293897938
sp,A,2,L1-dcache-load-misses,5356795835
sp,A,2,L1-dcache-stores,25796634106
sp,A,2,LLC-loads,1813039521
sp,A,2,LLC-load-misses,449629956
sp,A,2,LLC-stores,277253849
sp,A,2,offcore-requests-demand-rfo,200700238
sp,A,2,l2-rqsts-all-rfo,717140966
sp,A,2,l2-rqsts-rfo-miss,181748658
sp,A,2,l2-store-lock-rqsts-all,717060621
sp,A,2,l2-store-lock-rqsts-miss,181825482
sp,A,2,l2-trans-rfo,740460967
sp,A,2,offcore-requests-outstanding-demand-rfo,17035755366
sp,A,2,offcore-response-demand-rfo-llc-hit-hitm-other-core,26359
sp,A,2,offcore-response-demand-rfo-llc-miss-remote-hitm,21234
sp,A,2,offcore-response-all-reads-llc-hit-any-response,4615543346
sp,A,2,offcore-response-all-reads-llc-miss-any-response,1380158705
sp,A,4,cycles,122306769845
sp,A,4,L1-dcache-loads,60554335138
sp,A,4,L1-dcache-load-misses,5359716226
sp,A,4,L1-dcache-stores,25799011350
sp,A,4,LLC-loads,1993405699
sp,A,4,LLC-load-misses,540455656
sp,A,4,LLC-stores,305673239
sp,A,4,offcore-requests-demand-rfo,209774523
sp,A,4,l2-rqsts-all-rfo,720255046
sp,A,4,l2-rqsts-rfo-miss,192555525
sp,A,4,l2-store-lock-rqsts-all,720283953
sp,A,4,l2-store-lock-rqsts-miss,187287825
sp,A,4,l2-trans-rfo,758446242
sp,A,4,offcore-requests-outstanding-demand-rfo,26883512004
sp,A,4,offcore-response-demand-rfo-llc-hit-hitm-other-core,41261
sp,A,4,offcore-response-demand-rfo-llc-miss-remote-hitm,19568
sp,A,4,offcore-response-all-reads-llc-hit-any-response,4683888912
sp,A,4,offcore-response-all-reads-llc-miss-any-response,1415206046
sp,A,8,cycles,167093735521
sp,A,8,L1-dcache-loads,60673846711
sp,A,8,L1-dcache-load-misses,5361157028
sp,A,8,L1-dcache-stores,25804918781
sp,A,8,LLC-loads,2304795100
sp,A,8,LLC-load-misses,683509769
sp,A,8,LLC-stores,319811941
sp,A,8,offcore-requests-demand-rfo,218352533
sp,A,8,l2-rqsts-all-rfo,723625849
sp,A,8,l2-rqsts-rfo-miss,202534291
sp,A,8,l2-store-lock-rqsts-all,723662408
sp,A,8,l2-store-lock-rqsts-miss,196224998
sp,A,8,l2-trans-rfo,869008174
sp,A,8,offcore-requests-outstanding-demand-rfo,46018863479
sp,A,8,offcore-response-demand-rfo-llc-hit-hitm-other-core,71269
sp,A,8,offcore-response-demand-rfo-llc-miss-remote-hitm,21323
sp,A,8,offcore-response-all-reads-llc-hit-any-response,4753068852
sp,A,8,offcore-response-all-reads-llc-miss-any-response,1476529430
