sp,A,1,cycles,104788452645
sp,A,1,L1-dcache-loads,60225651381
sp,A,1,L1-dcache-load-misses,5351708166
sp,A,1,L1-dcache-stores,25795925883
sp,A,1,LLC-loads,1674057144
sp,A,1,LLC-load-misses,417496268
sp,A,1,LLC-stores,255137188
sp,A,1,offcore-requests-demand-rfo,200167334
sp,A,1,l2-rqsts-all-rfo,714014015
sp,A,1,l2-rqsts-rfo-miss,181082556
sp,A,1,l2-store-lock-rqsts-all,714127011
sp,A,1,l2-store-lock-rqsts-miss,178169755
sp,A,1,l2-trans-rfo,736183499
sp,A,1,offcore-requests-outstanding-demand-rfo,11936119095
sp,A,1,offcore-response-demand-rfo-llc-hit-hitm-other-core,198
sp,A,1,offcore-response-demand-rfo-llc-miss-remote-hitm,1442
sp,A,1,offcore-response-all-reads-llc-hit-any-response,4571715171
sp,A,1,offcore-response-all-reads-llc-miss-any-response,1374420028
sp,A,2,cycles,106543469636
sp,A,2,L1-dcache-loads,60258028987
sp,A,2,L1-dcache-load-misses,5356830906
sp,A,2,L1-dcache-stores,25796442062
sp,A,2,LLC-loads,1787632385
sp,A,2,LLC-load-misses,454462873
sp,A,2,LLC-stores,281362013
sp,A,2,offcore-requests-demand-rfo,200013079
sp,A,2,l2-rqsts-all-rfo,716822400
sp,A,2,l2-rqsts-rfo-miss,185595592
sp,A,2,l2-store-lock-rqsts-all,716723261
sp,A,2,l2-store-lock-rqsts-miss,181736538
sp,A,2,l2-trans-rfo,739819679
sp,A,2,offcore-requests-outstanding-demand-rfo,19915113485
sp,A,2,offcore-response-demand-rfo-llc-hit-hitm-other-core,24890
sp,A,2,offcore-response-demand-rfo-llc-miss-remote-hitm,19814
sp,A,2,offcore-response-all-reads-llc-hit-any-response,4598488634
sp,A,2,offcore-response-all-reads-llc-miss-any-response,1386376877
sp,A,4,cycles,122891866945
sp,A,4,L1-dcache-loads,60503219349
sp,A,4,L1-dcache-load-misses,5358933630
sp,A,4,L1-dcache-stores,25798841049
sp,A,4,LLC-loads,2035593857
sp,A,4,LLC-load-misses,548216152
sp,A,4,LLC-stores,306058377
sp,A,4,offcore-requests-demand-rfo,210013617
sp,A,4,l2-rqsts-all-rfo,719803785
sp,A,4,l2-rqsts-rfo-miss,192734946
sp,A,4,l2-store-lock-rqsts-all,719765249
sp,A,4,l2-store-lock-rqsts-miss,188163062
sp,A,4,l2-trans-rfo,757418604
sp,A,4,offcore-requests-outstanding-demand-rfo,26535352912
sp,A,4,offcore-response-demand-rfo-llc-hit-hitm-other-core,39660
sp,A,4,offcore-response-demand-rfo-llc-miss-remote-hitm,18176
sp,A,4,offcore-response-all-reads-llc-hit-any-response,4697904774
sp,A,4,offcore-response-all-reads-llc-miss-any-response,1413642002
sp,A,8,cycles,167833092575
sp,A,8,L1-dcache-loads,60668203934
sp,A,8,L1-dcache-load-misses,5361010371
sp,A,8,L1-dcache-stores,25804753182
sp,A,8,LLC-loads,2319772736
sp,A,8,LLC-load-misses,691689190
sp,A,8,LLC-stores,321335078
sp,A,8,offcore-requests-demand-rfo,219165422
sp,A,8,l2-rqsts-all-rfo,723241505
sp,A,8,l2-rqsts-rfo-miss,202977006
sp,A,8,l2-store-lock-rqsts-all,723679421
sp,A,8,l2-store-lock-rqsts-miss,196845736
sp,A,8,l2-trans-rfo,864940311
sp,A,8,offcore-requests-outstanding-demand-rfo,46745432605
sp,A,8,offcore-response-demand-rfo-llc-hit-hitm-other-core,69995
sp,A,8,offcore-response-demand-rfo-llc-miss-remote-hitm,20576
sp,A,8,offcore-response-all-reads-llc-hit-any-response,4759126145
sp,A,8,offcore-response-all-reads-llc-miss-any-response,1483559547
