sp,A,1,cycles,104242617144
sp,A,1,L1-dcache-loads,60225505515
sp,A,1,L1-dcache-load-misses,5351645015
sp,A,1,L1-dcache-stores,25795830924
sp,A,1,LLC-loads,1751549973
sp,A,1,LLC-load-misses,434621488
sp,A,1,LLC-stores,254604331
sp,A,1,offcore-requests-demand-rfo,194587239
sp,A,1,l2-rqsts-all-rfo,714040779
sp,A,1,l2-rqsts-rfo-miss,182816439
sp,A,1,l2-store-lock-rqsts-all,714003638
sp,A,1,l2-store-lock-rqsts-miss,182931130
sp,A,1,l2-trans-rfo,736281974
sp,A,1,offcore-requests-outstanding-demand-rfo,15271959071
sp,A,1,offcore-response-demand-rfo-llc-hit-hitm-other-core,183
sp,A,1,offcore-response-demand-rfo-llc-miss-remote-hitm,838
sp,A,1,offcore-response-all-reads-llc-hit-any-response,4583971031
sp,A,1,offcore-response-all-reads-llc-miss-any-response,1373169072
sp,A,2,cycles,108092062669
sp,A,2,L1-dcache-loads,60288787107
sp,A,2,L1-dcache-load-misses,5355787076
sp,A,2,L1-dcache-stores,25796687834
sp,A,2,LLC-loads,1760858393
sp,A,2,LLC-load-misses,451583478
sp,A,2,LLC-stores,277658479
sp,A,2,offcore-requests-demand-rfo,202650082
sp,A,2,l2-rqsts-all-rfo,717161946
sp,A,2,l2-rqsts-rfo-miss,183252800
sp,A,2,l2-store-lock-rqsts-all,717168149
sp,A,2,l2-store-lock-rqsts-miss,180199107
sp,A,2,l2-trans-rfo,740629194
sp,A,2,offcore-requests-outstanding-demand-rfo,18468884524
sp,A,2,offcore-response-demand-rfo-llc-hit-hitm-other-core,24656
sp,A,2,offcore-response-demand-rfo-llc-miss-remote-hitm,20472
sp,A,2,offcore-response-all-reads-llc-hit-any-response,4581445214
sp,A,2,offcore-response-all-reads-llc-miss-any-response,1386338871
sp,A,4,cycles,123063595723
sp,A,4,L1-dcache-loads,60520157437
sp,A,4,L1-dcache-load-misses,5359111414
sp,A,4,L1-dcache-stores,25799002935
sp,A,4,LLC-loads,1989328972
sp,A,4,LLC-load-misses,539751262
sp,A,4,LLC-stores,306509756
sp,A,4,offcore-requests-demand-rfo,210323543
sp,A,4,l2-rqsts-all-rfo,719952815
sp,A,4,l2-rqsts-rfo-miss,191328583
sp,A,4,l2-store-lock-rqsts-all,719829198
sp,A,4,l2-store-lock-rqsts-miss,187042793
sp,A,4,l2-trans-rfo,759748948
sp,A,4,offcore-requests-outstanding-demand-rfo,25317319978
sp,A,4,offcore-response-demand-rfo-llc-hit-hitm-other-core,41175
sp,A,4,offcore-response-demand-rfo-llc-miss-remote-hitm,18490
sp,A,4,offcore-response-all-reads-llc-hit-any-response,4691671207
sp,A,4,offcore-response-all-reads-llc-miss-any-response,1399912447
sp,A,8,cycles,168641678038
sp,A,8,L1-dcache-loads,60653637944
sp,A,8,L1-dcache-load-misses,5361158612
sp,A,8,L1-dcache-stores,25804867835
sp,A,8,LLC-loads,2290474066
sp,A,8,LLC-load-misses,682907604
sp,A,8,LLC-stores,320424525
sp,A,8,offcore-requests-demand-rfo,217899976
sp,A,8,l2-rqsts-all-rfo,723665953
sp,A,8,l2-rqsts-rfo-miss,202438144
sp,A,8,l2-store-lock-rqsts-all,723653040
sp,A,8,l2-store-lock-rqsts-miss,196895512
sp,A,8,l2-trans-rfo,863592083
sp,A,8,offcore-requests-outstanding-demand-rfo,46356836798
sp,A,8,offcore-response-demand-rfo-llc-hit-hitm-other-core,81176
sp,A,8,offcore-response-demand-rfo-llc-miss-remote-hitm,20343
sp,A,8,offcore-response-all-reads-llc-hit-any-response,4763799990
sp,A,8,offcore-response-all-reads-llc-miss-any-response,1474670070
