ua,A,1,cycles,122588729883
ua,A,1,L1-dcache-loads,62375615822
ua,A,1,L1-dcache-load-misses,2277574943
ua,A,1,L1-dcache-stores,23242013200
ua,A,1,LLC-loads,894347233
ua,A,1,LLC-load-misses,146275573
ua,A,1,LLC-stores,201369564
ua,A,1,offcore-requests-demand-rfo,135779674
ua,A,1,l2-rqsts-all-rfo,282723014
ua,A,1,l2-rqsts-rfo-miss,112786693
ua,A,1,l2-store-lock-rqsts-all,282954537
ua,A,1,l2-store-lock-rqsts-miss,112202046
ua,A,1,l2-trans-rfo,320714161
ua,A,1,offcore-requests-outstanding-demand-rfo,23638948136
ua,A,1,offcore-response-demand-rfo-llc-hit-hitm-other-core,201
ua,A,1,offcore-response-demand-rfo-llc-miss-remote-hitm,1637
ua,A,1,offcore-response-all-reads-llc-hit-any-response,2518058714
ua,A,1,offcore-response-all-reads-llc-miss-any-response,373411891
ua,A,2,cycles,126201591004
ua,A,2,L1-dcache-loads,62545790639
ua,A,2,L1-dcache-load-misses,2290884637
ua,A,2,L1-dcache-stores,23247380219
ua,A,2,LLC-loads,905127403
ua,A,2,LLC-load-misses,148708051
ua,A,2,LLC-stores,217394441
ua,A,2,offcore-requests-demand-rfo,144150939
ua,A,2,l2-rqsts-all-rfo,288187074
ua,A,2,l2-rqsts-rfo-miss,119697907
ua,A,2,l2-store-lock-rqsts-all,288122165
ua,A,2,l2-store-lock-rqsts-miss,111314986
ua,A,2,l2-trans-rfo,329706621
ua,A,2,offcore-requests-outstanding-demand-rfo,26223896097
ua,A,2,offcore-response-demand-rfo-llc-hit-hitm-other-core,610139
ua,A,2,offcore-response-demand-rfo-llc-miss-remote-hitm,23583
ua,A,2,offcore-response-all-reads-llc-hit-any-response,2543249855
ua,A,2,offcore-response-all-reads-llc-miss-any-response,371327108
ua,A,4,cycles,134640140992
ua,A,4,L1-dcache-loads,62928847676
ua,A,4,L1-dcache-load-misses,2309681799
ua,A,4,L1-dcache-stores,23252767459
ua,A,4,LLC-loads,928297396
ua,A,4,LLC-load-misses,158535372
ua,A,4,LLC-stores,233732379
ua,A,4,offcore-requests-demand-rfo,155617409
ua,A,4,l2-rqsts-all-rfo,298905039
ua,A,4,l2-rqsts-rfo-miss,128529844
ua,A,4,l2-store-lock-rqsts-all,298497208
ua,A,4,l2-store-lock-rqsts-miss,113083541
ua,A,4,l2-trans-rfo,343159654
ua,A,4,offcore-requests-outstanding-demand-rfo,30434302495
ua,A,4,offcore-response-demand-rfo-llc-hit-hitm-other-core,1886481
ua,A,4,offcore-response-demand-rfo-llc-miss-remote-hitm,18919
ua,A,4,offcore-response-all-reads-llc-hit-any-response,2591965206
ua,A,4,offcore-response-all-reads-llc-miss-any-response,372097881
ua,A,8,cycles,150435253425
ua,A,8,L1-dcache-loads,63404871720
ua,A,8,L1-dcache-load-misses,2344239262
ua,A,8,L1-dcache-stores,23262982040
ua,A,8,LLC-loads,964875753
ua,A,8,LLC-load-misses,166479425
ua,A,8,LLC-stores,258467370
ua,A,8,offcore-requests-demand-rfo,172192095
ua,A,8,l2-rqsts-all-rfo,321179934
ua,A,8,l2-rqsts-rfo-miss,145920304
ua,A,8,l2-store-lock-rqsts-all,319251848
ua,A,8,l2-store-lock-rqsts-miss,116461201
ua,A,8,l2-trans-rfo,386153774
ua,A,8,offcore-requests-outstanding-demand-rfo,37351986012
ua,A,8,offcore-response-demand-rfo-llc-hit-hitm-other-core,5362138
ua,A,8,offcore-response-demand-rfo-llc-miss-remote-hitm,16325
ua,A,8,offcore-response-all-reads-llc-hit-any-response,2658201678
ua,A,8,offcore-response-all-reads-llc-miss-any-response,378564273
