ua,A,1,cycles,122678268815
ua,A,1,L1-dcache-loads,62375681675
ua,A,1,L1-dcache-load-misses,2275237691
ua,A,1,L1-dcache-stores,23242093392
ua,A,1,LLC-loads,902213083
ua,A,1,LLC-load-misses,144775280
ua,A,1,LLC-stores,200041486
ua,A,1,offcore-requests-demand-rfo,135437788
ua,A,1,l2-rqsts-all-rfo,282008980
ua,A,1,l2-rqsts-rfo-miss,111258766
ua,A,1,l2-store-lock-rqsts-all,282263246
ua,A,1,l2-store-lock-rqsts-miss,112321865
ua,A,1,l2-trans-rfo,319582613
ua,A,1,offcore-requests-outstanding-demand-rfo,23418955909
ua,A,1,offcore-response-demand-rfo-llc-hit-hitm-other-core,88
ua,A,1,offcore-response-demand-rfo-llc-miss-remote-hitm,1473
ua,A,1,offcore-response-all-reads-llc-hit-any-response,2499430902
ua,A,1,offcore-response-all-reads-llc-miss-any-response,377665708
ua,A,2,cycles,126192920673
ua,A,2,L1-dcache-loads,62544721292
ua,A,2,L1-dcache-load-misses,2289486732
ua,A,2,L1-dcache-stores,23247409403
ua,A,2,LLC-loads,916024715
ua,A,2,LLC-load-misses,143454066
ua,A,2,LLC-stores,216146660
ua,A,2,offcore-requests-demand-rfo,143994698
ua,A,2,l2-rqsts-all-rfo,288637860
ua,A,2,l2-rqsts-rfo-miss,119296863
ua,A,2,l2-store-lock-rqsts-all,288541622
ua,A,2,l2-store-lock-rqsts-miss,111382567
ua,A,2,l2-trans-rfo,329770982
ua,A,2,offcore-requests-outstanding-demand-rfo,27334587947
ua,A,2,offcore-response-demand-rfo-llc-hit-hitm-other-core,608289
ua,A,2,offcore-response-demand-rfo-llc-miss-remote-hitm,23570
ua,A,2,offcore-response-all-reads-llc-hit-any-response,2539364182
ua,A,2,offcore-response-all-reads-llc-miss-any-response,379945171
ua,A,4,cycles,134382716426
ua,A,4,L1-dcache-loads,62927681538
ua,A,4,L1-dcache-load-misses,2307359573
ua,A,4,L1-dcache-stores,23252793710
ua,A,4,LLC-loads,923741559
ua,A,4,LLC-load-misses,153583913
ua,A,4,LLC-stores,234369312
ua,A,4,offcore-requests-demand-rfo,155018544
ua,A,4,l2-rqsts-all-rfo,299368816
ua,A,4,l2-rqsts-rfo-miss,129296256
ua,A,4,l2-store-lock-rqsts-all,298960077
ua,A,4,l2-store-lock-rqsts-miss,112160243
ua,A,4,l2-trans-rfo,342565709
ua,A,4,offcore-requests-outstanding-demand-rfo,29331149382
ua,A,4,offcore-response-demand-rfo-llc-hit-hitm-other-core,1892014
ua,A,4,offcore-response-demand-rfo-llc-miss-remote-hitm,18842
ua,A,4,offcore-response-all-reads-llc-hit-any-response,2582090978
ua,A,4,offcore-response-all-reads-llc-miss-any-response,382692893
ua,A,8,cycles,150104432896
ua,A,8,L1-dcache-loads,63398848930
ua,A,8,L1-dcache-load-misses,2344437402
ua,A,8,L1-dcache-stores,23263030299
ua,A,8,LLC-loads,957042526
ua,A,8,LLC-load-misses,168024187
ua,A,8,LLC-stores,258804204
ua,A,8,offcore-requests-demand-rfo,171437382
ua,A,8,l2-rqsts-all-rfo,320820274
ua,A,8,l2-rqsts-rfo-miss,144517571
ua,A,8,l2-store-lock-rqsts-all,319346077
ua,A,8,l2-store-lock-rqsts-miss,115351794
ua,A,8,l2-trans-rfo,385547225
ua,A,8,offcore-requests-outstanding-demand-rfo,37225034972
ua,A,8,offcore-response-demand-rfo-llc-hit-hitm-other-core,5318954
ua,A,8,offcore-response-demand-rfo-llc-miss-remote-hitm,18205
ua,A,8,offcore-response-all-reads-llc-hit-any-response,2672417815
ua,A,8,offcore-response-all-reads-llc-miss-any-response,374054614
