ua,A,1,cycles,122651483595
ua,A,1,L1-dcache-loads,62375632201
ua,A,1,L1-dcache-load-misses,2275235297
ua,A,1,L1-dcache-stores,23242072296
ua,A,1,LLC-loads,901658486
ua,A,1,LLC-load-misses,148395810
ua,A,1,LLC-stores,199792353
ua,A,1,offcore-requests-demand-rfo,135045157
ua,A,1,l2-rqsts-all-rfo,282144324
ua,A,1,l2-rqsts-rfo-miss,111251848
ua,A,1,l2-store-lock-rqsts-all,282334684
ua,A,1,l2-store-lock-rqsts-miss,112437167
ua,A,1,l2-trans-rfo,320634651
ua,A,1,offcore-requests-outstanding-demand-rfo,21343646740
ua,A,1,offcore-response-demand-rfo-llc-hit-hitm-other-core,200
ua,A,1,offcore-response-demand-rfo-llc-miss-remote-hitm,1032
ua,A,1,offcore-response-all-reads-llc-hit-any-response,2508566069
ua,A,1,offcore-response-all-reads-llc-miss-any-response,357502554
ua,A,2,cycles,126152394292
ua,A,2,L1-dcache-loads,62546102752
ua,A,2,L1-dcache-load-misses,2290578860
ua,A,2,L1-dcache-stores,23247382509
ua,A,2,LLC-loads,905859520
ua,A,2,LLC-load-misses,145290187
ua,A,2,LLC-stores,217263388
ua,A,2,offcore-requests-demand-rfo,143715281
ua,A,2,l2-rqsts-all-rfo,288813304
ua,A,2,l2-rqsts-rfo-miss,119069833
ua,A,2,l2-store-lock-rqsts-all,288827187
ua,A,2,l2-store-lock-rqsts-miss,111673494
ua,A,2,l2-trans-rfo,329562214
ua,A,2,offcore-requests-outstanding-demand-rfo,26685022551
ua,A,2,offcore-response-demand-rfo-llc-hit-hitm-other-core,606760
ua,A,2,offcore-response-demand-rfo-llc-miss-remote-hitm,23380
ua,A,2,offcore-response-all-reads-llc-hit-any-response,2539415913
ua,A,2,offcore-response-all-reads-llc-miss-any-response,377828985
ua,A,4,cycles,134402437947
ua,A,4,L1-dcache-loads,62925261427
ua,A,4,L1-dcache-load-misses,2307053738
ua,A,4,L1-dcache-stores,23252763983
ua,A,4,LLC-loads,930681972
ua,A,4,LLC-load-misses,152427071
ua,A,4,LLC-stores,233064016
ua,A,4,offcore-requests-demand-rfo,155044638
ua,A,4,l2-rqsts-all-rfo,299183270
ua,A,4,l2-rqsts-rfo-miss,128445919
ua,A,4,l2-store-lock-rqsts-all,298016170
ua,A,4,l2-store-lock-rqsts-miss,112368766
ua,A,4,l2-trans-rfo,342861678
ua,A,4,offcore-requests-outstanding-demand-rfo,31058533922
ua,A,4,offcore-response-demand-rfo-llc-hit-hitm-other-core,1908339
ua,A,4,offcore-response-demand-rfo-llc-miss-remote-hitm,19443
ua,A,4,offcore-response-all-reads-llc-hit-any-response,2591506173
ua,A,4,offcore-response-all-reads-llc-miss-any-response,376546492
ua,A,8,cycles,149989920623
ua,A,8,L1-dcache-loads,63397455184
ua,A,8,L1-dcache-load-misses,2343797037
ua,A,8,L1-dcache-stores,23262988431
ua,A,8,LLC-loads,957580906
ua,A,8,LLC-load-misses,159873903
ua,A,8,LLC-stores,260427821
ua,A,8,offcore-requests-demand-rfo,171966085
ua,A,8,l2-rqsts-all-rfo,321002076
ua,A,8,l2-rqsts-rfo-miss,145784562
ua,A,8,l2-store-lock-rqsts-all,319342000
ua,A,8,l2-store-lock-rqsts-miss,115516963
ua,A,8,l2-trans-rfo,385747760
ua,A,8,offcore-requests-outstanding-demand-rfo,37803715172
ua,A,8,offcore-response-demand-rfo-llc-hit-hitm-other-core,5332206
ua,A,8,offcore-response-demand-rfo-llc-miss-remote-hitm,17255
ua,A,8,offcore-response-all-reads-llc-hit-any-response,2661385088
ua,A,8,offcore-response-all-reads-llc-miss-any-response,364265278
