ua,A,1,cycles,122585900789
ua,A,1,L1-dcache-loads,62375610100
ua,A,1,L1-dcache-load-misses,2275576836
ua,A,1,L1-dcache-stores,23242015820
ua,A,1,LLC-loads,919935258
ua,A,1,LLC-load-misses,147961666
ua,A,1,LLC-stores,199781411
ua,A,1,offcore-requests-demand-rfo,134915925
ua,A,1,l2-rqsts-all-rfo,281773038
ua,A,1,l2-rqsts-rfo-miss,111490981
ua,A,1,l2-store-lock-rqsts-all,282044226
ua,A,1,l2-store-lock-rqsts-miss,111277133
ua,A,1,l2-trans-rfo,319491704
ua,A,1,offcore-requests-outstanding-demand-rfo,21209493108
ua,A,1,offcore-response-demand-rfo-llc-hit-hitm-other-core,216
ua,A,1,offcore-response-demand-rfo-llc-miss-remote-hitm,1500
ua,A,1,offcore-response-all-reads-llc-hit-any-response,2515566165
ua,A,1,offcore-response-all-reads-llc-miss-any-response,380480024
ua,A,2,cycles,126094089001
ua,A,2,L1-dcache-loads,62543972032
ua,A,2,L1-dcache-load-misses,2290039317
ua,A,2,L1-dcache-stores,23247342630
ua,A,2,LLC-loads,921824692
ua,A,2,LLC-load-misses,153335674
ua,A,2,LLC-stores,215911433
ua,A,2,offcore-requests-demand-rfo,144438712
ua,A,2,l2-rqsts-all-rfo,288340926
ua,A,2,l2-rqsts-rfo-miss,118371084
ua,A,2,l2-store-lock-rqsts-all,288925846
ua,A,2,l2-store-lock-rqsts-miss,111252055
ua,A,2,l2-trans-rfo,329084523
ua,A,2,offcore-requests-outstanding-demand-rfo,25118796896
ua,A,2,offcore-response-demand-rfo-llc-hit-hitm-other-core,614849
ua,A,2,offcore-response-demand-rfo-llc-miss-remote-hitm,22712
ua,A,2,offcore-response-all-reads-llc-hit-any-response,2547478166
ua,A,2,offcore-response-all-reads-llc-miss-any-response,396196830
ua,A,4,cycles,134553388781
ua,A,4,L1-dcache-loads,62925759678
ua,A,4,L1-dcache-load-misses,2308431699
ua,A,4,L1-dcache-stores,23252760617
ua,A,4,LLC-loads,942338668
ua,A,4,LLC-load-misses,164326125
ua,A,4,LLC-stores,235425012
ua,A,4,offcore-requests-demand-rfo,154424672
ua,A,4,l2-rqsts-all-rfo,299145263
ua,A,4,l2-rqsts-rfo-miss,128834980
ua,A,4,l2-store-lock-rqsts-all,298255519
ua,A,4,l2-store-lock-rqsts-miss,112951387
ua,A,4,l2-trans-rfo,341758209
ua,A,4,offcore-requests-outstanding-demand-rfo,30030204909
ua,A,4,offcore-response-demand-rfo-llc-hit-hitm-other-core,1902999
ua,A,4,offcore-response-demand-rfo-llc-miss-remote-hitm,18484
ua,A,4,offcore-response-all-reads-llc-hit-any-response,2579171533
ua,A,4,offcore-response-all-reads-llc-miss-any-response,398669756
ua,A,8,cycles,150317693144
ua,A,8,L1-dcache-loads,63389341348
ua,A,8,L1-dcache-load-misses,2342906657
ua,A,8,L1-dcache-stores,23262968714
ua,A,8,LLC-loads,970552018
ua,A,8,LLC-load-misses,173702423
ua,A,8,LLC-stores,258561089
ua,A,8,offcore-requests-demand-rfo,171052544
ua,A,8,l2-rqsts-all-rfo,320261787
ua,A,8,l2-rqsts-rfo-miss,144805454
ua,A,8,l2-store-lock-rqsts-all,318845081
ua,A,8,l2-store-lock-rqsts-miss,115635532
ua,A,8,l2-trans-rfo,384398763
ua,A,8,offcore-requests-outstanding-demand-rfo,38418206243
ua,A,8,offcore-response-demand-rfo-llc-hit-hitm-other-core,5365274
ua,A,8,offcore-response-demand-rfo-llc-miss-remote-hitm,16251
ua,A,8,offcore-response-all-reads-llc-hit-any-response,2651149492
ua,A,8,offcore-response-all-reads-llc-miss-any-response,392347965
