ua,A,1,cycles,122658615871
ua,A,1,L1-dcache-loads,62375641701
ua,A,1,L1-dcache-load-misses,2274439256
ua,A,1,L1-dcache-stores,23242057099
ua,A,1,LLC-loads,902698129
ua,A,1,LLC-load-misses,150236690
ua,A,1,LLC-stores,200206763
ua,A,1,offcore-requests-demand-rfo,133932493
ua,A,1,l2-rqsts-all-rfo,282640076
ua,A,1,l2-rqsts-rfo-miss,111972844
ua,A,1,l2-store-lock-rqsts-all,281945416
ua,A,1,l2-store-lock-rqsts-miss,111834305
ua,A,1,l2-trans-rfo,320293748
ua,A,1,offcore-requests-outstanding-demand-rfo,21632408672
ua,A,1,offcore-response-demand-rfo-llc-hit-hitm-other-core,183
ua,A,1,offcore-response-demand-rfo-llc-miss-remote-hitm,1082
ua,A,1,offcore-response-all-reads-llc-hit-any-response,2513843752
ua,A,1,offcore-response-all-reads-llc-miss-any-response,385995461
ua,A,2,cycles,126035409799
ua,A,2,L1-dcache-loads,62546282062
ua,A,2,L1-dcache-load-misses,2290458464
ua,A,2,L1-dcache-stores,23247410483
ua,A,2,LLC-loads,909558194
ua,A,2,LLC-load-misses,151399888
ua,A,2,LLC-stores,216649214
ua,A,2,offcore-requests-demand-rfo,144438688
ua,A,2,l2-rqsts-all-rfo,288513023
ua,A,2,l2-rqsts-rfo-miss,118545512
ua,A,2,l2-store-lock-rqsts-all,288644736
ua,A,2,l2-store-lock-rqsts-miss,111309272
ua,A,2,l2-trans-rfo,329442503
ua,A,2,offcore-requests-outstanding-demand-rfo,25294357944
ua,A,2,offcore-response-demand-rfo-llc-hit-hitm-other-core,606187
ua,A,2,offcore-response-demand-rfo-llc-miss-remote-hitm,22590
ua,A,2,offcore-response-all-reads-llc-hit-any-response,2542823195
ua,A,2,offcore-response-all-reads-llc-miss-any-response,387286710
ua,A,4,cycles,134402680759
ua,A,4,L1-dcache-loads,62925493392
ua,A,4,L1-dcache-load-misses,2307880406
ua,A,4,L1-dcache-stores,23252771643
ua,A,4,LLC-loads,933657057
ua,A,4,LLC-load-misses,157067020
ua,A,4,LLC-stores,234808454
ua,A,4,offcore-requests-demand-rfo,154521873
ua,A,4,l2-rqsts-all-rfo,299064524
ua,A,4,l2-rqsts-rfo-miss,128693632
ua,A,4,l2-store-lock-rqsts-all,298676770
ua,A,4,l2-store-lock-rqsts-miss,112800400
ua,A,4,l2-trans-rfo,342441670
ua,A,4,offcore-requests-outstanding-demand-rfo,30778811996
ua,A,4,offcore-response-demand-rfo-llc-hit-hitm-other-core,1913013
ua,A,4,offcore-response-demand-rfo-llc-miss-remote-hitm,19342
ua,A,4,offcore-response-all-reads-llc-hit-any-response,2582206489
ua,A,4,offcore-response-all-reads-llc-miss-any-response,379929417
ua,A,8,cycles,149584919529
ua,A,8,L1-dcache-loads,63393334482
ua,A,8,L1-dcache-load-misses,2342850408
ua,A,8,L1-dcache-stores,23262938049
ua,A,8,LLC-loads,967056724
ua,A,8,LLC-load-misses,173862995
ua,A,8,LLC-stores,258470323
ua,A,8,offcore-requests-demand-rfo,170809116
ua,A,8,l2-rqsts-all-rfo,321051231
ua,A,8,l2-rqsts-rfo-miss,145336486
ua,A,8,l2-store-lock-rqsts-all,318942447
ua,A,8,l2-store-lock-rqsts-miss,116561240
ua,A,8,l2-trans-rfo,385793713
ua,A,8,offcore-requests-outstanding-demand-rfo,36836527929
ua,A,8,offcore-response-demand-rfo-llc-hit-hitm-other-core,5351228
ua,A,8,offcore-response-demand-rfo-llc-miss-remote-hitm,17424
ua,A,8,offcore-response-all-reads-llc-hit-any-response,2660974906
ua,A,8,offcore-response-all-reads-llc-miss-any-response,385695512
