ua,A,1,cycles,122567649175
ua,A,1,L1-dcache-loads,62375702468
ua,A,1,L1-dcache-load-misses,2278014587
ua,A,1,L1-dcache-stores,23242094672
ua,A,1,LLC-loads,910678333
ua,A,1,LLC-load-misses,152103026
ua,A,1,LLC-stores,202335964
ua,A,1,offcore-requests-demand-rfo,135736367
ua,A,1,l2-rqsts-all-rfo,281729225
ua,A,1,l2-rqsts-rfo-miss,111597105
ua,A,1,l2-store-lock-rqsts-all,282010364
ua,A,1,l2-store-lock-rqsts-miss,112205217
ua,A,1,l2-trans-rfo,319970204
ua,A,1,offcore-requests-outstanding-demand-rfo,23955886837
ua,A,1,offcore-response-demand-rfo-llc-hit-hitm-other-core,205
ua,A,1,offcore-response-demand-rfo-llc-miss-remote-hitm,1034
ua,A,1,offcore-response-all-reads-llc-hit-any-response,2504593125
ua,A,1,offcore-response-all-reads-llc-miss-any-response,380862503
ua,A,2,cycles,126259947636
ua,A,2,L1-dcache-loads,62542493895
ua,A,2,L1-dcache-load-misses,2290873167
ua,A,2,L1-dcache-stores,23247382594
ua,A,2,LLC-loads,916466735
ua,A,2,LLC-load-misses,150556317
ua,A,2,LLC-stores,215698960
ua,A,2,offcore-requests-demand-rfo,144539867
ua,A,2,l2-rqsts-all-rfo,288237095
ua,A,2,l2-rqsts-rfo-miss,118926139
ua,A,2,l2-store-lock-rqsts-all,288844630
ua,A,2,l2-store-lock-rqsts-miss,110697337
ua,A,2,l2-trans-rfo,329600129
ua,A,2,offcore-requests-outstanding-demand-rfo,26442680569
ua,A,2,offcore-response-demand-rfo-llc-hit-hitm-other-core,611106
ua,A,2,offcore-response-demand-rfo-llc-miss-remote-hitm,22468
ua,A,2,offcore-response-all-reads-llc-hit-any-response,2538082546
ua,A,2,offcore-response-all-reads-llc-miss-any-response,383693679
ua,A,4,cycles,134329020071
ua,A,4,L1-dcache-loads,62923431109
ua,A,4,L1-dcache-load-misses,2307584758
ua,A,4,L1-dcache-stores,23252681889
ua,A,4,LLC-loads,928555151
ua,A,4,LLC-load-misses,156573342
ua,A,4,LLC-stores,234432462
ua,A,4,offcore-requests-demand-rfo,154985220
ua,A,4,l2-rqsts-all-rfo,298790382
ua,A,4,l2-rqsts-rfo-miss,128468861
ua,A,4,l2-store-lock-rqsts-all,298207507
ua,A,4,l2-store-lock-rqsts-miss,112803290
ua,A,4,l2-trans-rfo,342531675
ua,A,4,offcore-requests-outstanding-demand-rfo,31255840795
ua,A,4,offcore-response-demand-rfo-llc-hit-hitm-other-core,1915828
ua,A,4,offcore-response-demand-rfo-llc-miss-remote-hitm,19299
ua,A,4,offcore-response-all-reads-llc-hit-any-response,2575022058
ua,A,4,offcore-response-all-reads-llc-miss-any-response,378914675
ua,A,8,cycles,150141143606
ua,A,8,L1-dcache-loads,63389302893
ua,A,8,L1-dcache-load-misses,2345208797
ua,A,8,L1-dcache-stores,23263020331
ua,A,8,LLC-loads,960763436
ua,A,8,LLC-load-misses,170206844
ua,A,8,LLC-stores,257166575
ua,A,8,offcore-requests-demand-rfo,171510106
ua,A,8,l2-rqsts-all-rfo,319924394
ua,A,8,l2-rqsts-rfo-miss,145247759
ua,A,8,l2-store-lock-rqsts-all,318796697
ua,A,8,l2-store-lock-rqsts-miss,116052239
ua,A,8,l2-trans-rfo,384651241
ua,A,8,offcore-requests-outstanding-demand-rfo,38111323725
ua,A,8,offcore-response-demand-rfo-llc-hit-hitm-other-core,5360432
ua,A,8,offcore-response-demand-rfo-llc-miss-remote-hitm,14899
ua,A,8,offcore-response-all-reads-llc-hit-any-response,2657745021
ua,A,8,offcore-response-all-reads-llc-miss-any-response,391631516
