ua,A,1,cycles,122571350267
ua,A,1,L1-dcache-loads,62375964820
ua,A,1,L1-dcache-load-misses,2275105283
ua,A,1,L1-dcache-stores,23242284690
ua,A,1,LLC-loads,922101584
ua,A,1,LLC-load-misses,153153226
ua,A,1,LLC-stores,203497556
ua,A,1,offcore-requests-demand-rfo,136168191
ua,A,1,l2-rqsts-all-rfo,284094186
ua,A,1,l2-rqsts-rfo-miss,111568840
ua,A,1,l2-store-lock-rqsts-all,282180847
ua,A,1,l2-store-lock-rqsts-miss,111958565
ua,A,1,l2-trans-rfo,319739399
ua,A,1,offcore-requests-outstanding-demand-rfo,21126146727
ua,A,1,offcore-response-demand-rfo-llc-hit-hitm-other-core,72
ua,A,1,offcore-response-demand-rfo-llc-miss-remote-hitm,1120
ua,A,1,offcore-response-all-reads-llc-hit-any-response,2507516495
ua,A,1,offcore-response-all-reads-llc-miss-any-response,388204623
ua,A,2,cycles,126208388853
ua,A,2,L1-dcache-loads,62542906219
ua,A,2,L1-dcache-load-misses,2290503095
ua,A,2,L1-dcache-stores,23247378605
ua,A,2,LLC-loads,923392971
ua,A,2,LLC-load-misses,154421106
ua,A,2,LLC-stores,218492950
ua,A,2,offcore-requests-demand-rfo,144497499
ua,A,2,l2-rqsts-all-rfo,288851202
ua,A,2,l2-rqsts-rfo-miss,118668769
ua,A,2,l2-store-lock-rqsts-all,287511529
ua,A,2,l2-store-lock-rqsts-miss,110650647
ua,A,2,l2-trans-rfo,329926186
ua,A,2,offcore-requests-outstanding-demand-rfo,25545152537
ua,A,2,offcore-response-demand-rfo-llc-hit-hitm-other-core,607317
ua,A,2,offcore-response-demand-rfo-llc-miss-remote-hitm,22780
ua,A,2,offcore-response-all-reads-llc-hit-any-response,2531143525
ua,A,2,offcore-response-all-reads-llc-miss-any-response,409388055
ua,A,4,cycles,134674946796
ua,A,4,L1-dcache-loads,62929343737
ua,A,4,L1-dcache-load-misses,2307251818
ua,A,4,L1-dcache-stores,23252713492
ua,A,4,LLC-loads,937143500
ua,A,4,LLC-load-misses,170870110
ua,A,4,LLC-stores,234703467
ua,A,4,offcore-requests-demand-rfo,155484607
ua,A,4,l2-rqsts-all-rfo,298626610
ua,A,4,l2-rqsts-rfo-miss,128838908
ua,A,4,l2-store-lock-rqsts-all,297977835
ua,A,4,l2-store-lock-rqsts-miss,113120372
ua,A,4,l2-trans-rfo,341736668
ua,A,4,offcore-requests-outstanding-demand-rfo,30432510602
ua,A,4,offcore-response-demand-rfo-llc-hit-hitm-other-core,1900191
ua,A,4,offcore-response-demand-rfo-llc-miss-remote-hitm,17409
ua,A,4,offcore-response-all-reads-llc-hit-any-response,2573560846
ua,A,4,offcore-response-all-reads-llc-miss-any-response,406522410
ua,A,8,cycles,157512762928
ua,A,8,L1-dcache-loads,63384647454
ua,A,8,L1-dcache-load-misses,2343465839
ua,A,8,L1-dcache-stores,23263227292
ua,A,8,LLC-loads,982103857
ua,A,8,LLC-load-misses,180953555
ua,A,8,LLC-stores,260120772
ua,A,8,offcore-requests-demand-rfo,171749408
ua,A,8,l2-rqsts-all-rfo,319996437
ua,A,8,l2-rqsts-rfo-miss,144132348
ua,A,8,l2-store-lock-rqsts-all,318719365
ua,A,8,l2-store-lock-rqsts-miss,116715462
ua,A,8,l2-trans-rfo,382615267
ua,A,8,offcore-requests-outstanding-demand-rfo,37445749993
ua,A,8,offcore-response-demand-rfo-llc-hit-hitm-other-core,5352474
ua,A,8,offcore-response-demand-rfo-llc-miss-remote-hitm,18165
ua,A,8,offcore-response-all-reads-llc-hit-any-response,2654571313
ua,A,8,offcore-response-all-reads-llc-miss-any-response,396933697
