ua,A,1,cycles,122599353886
ua,A,1,L1-dcache-loads,62375773587
ua,A,1,L1-dcache-load-misses,2277674550
ua,A,1,L1-dcache-stores,23242031906
ua,A,1,LLC-loads,912917295
ua,A,1,LLC-load-misses,152305890
ua,A,1,LLC-stores,202177392
ua,A,1,offcore-requests-demand-rfo,135654153
ua,A,1,l2-rqsts-all-rfo,282008702
ua,A,1,l2-rqsts-rfo-miss,111056799
ua,A,1,l2-store-lock-rqsts-all,282702684
ua,A,1,l2-store-lock-rqsts-miss,111903958
ua,A,1,l2-trans-rfo,320846258
ua,A,1,offcore-requests-outstanding-demand-rfo,23495103303
ua,A,1,offcore-response-demand-rfo-llc-hit-hitm-other-core,86
ua,A,1,offcore-response-demand-rfo-llc-miss-remote-hitm,956
ua,A,1,offcore-response-all-reads-llc-hit-any-response,2494740740
ua,A,1,offcore-response-all-reads-llc-miss-any-response,386152393
ua,A,2,cycles,126235574846
ua,A,2,L1-dcache-loads,62545728631
ua,A,2,L1-dcache-load-misses,2290195776
ua,A,2,L1-dcache-stores,23247369721
ua,A,2,LLC-loads,920659547
ua,A,2,LLC-load-misses,155990587
ua,A,2,LLC-stores,218989711
ua,A,2,offcore-requests-demand-rfo,144219451
ua,A,2,l2-rqsts-all-rfo,288380238
ua,A,2,l2-rqsts-rfo-miss,119252031
ua,A,2,l2-store-lock-rqsts-all,288121208
ua,A,2,l2-store-lock-rqsts-miss,111286387
ua,A,2,l2-trans-rfo,328938983
ua,A,2,offcore-requests-outstanding-demand-rfo,27276802173
ua,A,2,offcore-response-demand-rfo-llc-hit-hitm-other-core,610765
ua,A,2,offcore-response-demand-rfo-llc-miss-remote-hitm,22373
ua,A,2,offcore-response-all-reads-llc-hit-any-response,2535549319
ua,A,2,offcore-response-all-reads-llc-miss-any-response,399904161
ua,A,4,cycles,134714171472
ua,A,4,L1-dcache-loads,62927306592
ua,A,4,L1-dcache-load-misses,2307597472
ua,A,4,L1-dcache-stores,23252750298
ua,A,4,LLC-loads,944325837
ua,A,4,LLC-load-misses,162455895
ua,A,4,LLC-stores,235490841
ua,A,4,offcore-requests-demand-rfo,155049006
ua,A,4,l2-rqsts-all-rfo,298926792
ua,A,4,l2-rqsts-rfo-miss,128795580
ua,A,4,l2-store-lock-rqsts-all,298341256
ua,A,4,l2-store-lock-rqsts-miss,112626342
ua,A,4,l2-trans-rfo,341615885
ua,A,4,offcore-requests-outstanding-demand-rfo,31073018300
ua,A,4,offcore-response-demand-rfo-llc-hit-hitm-other-core,1909309
ua,A,4,offcore-response-demand-rfo-llc-miss-remote-hitm,19689
ua,A,4,offcore-response-all-reads-llc-hit-any-response,2577729000
ua,A,4,offcore-response-all-reads-llc-miss-any-response,396102643
ua,A,8,cycles,150299004175
ua,A,8,L1-dcache-loads,63395369638
ua,A,8,L1-dcache-load-misses,2344942953
ua,A,8,L1-dcache-stores,23262890997
ua,A,8,LLC-loads,969538900
ua,A,8,LLC-load-misses,177911788
ua,A,8,LLC-stores,259337514
ua,A,8,offcore-requests-demand-rfo,171836925
ua,A,8,l2-rqsts-all-rfo,320724199
ua,A,8,l2-rqsts-rfo-miss,145287183
ua,A,8,l2-store-lock-rqsts-all,318901424
ua,A,8,l2-store-lock-rqsts-miss,116426661
ua,A,8,l2-trans-rfo,383598681
ua,A,8,offcore-requests-outstanding-demand-rfo,37655855880
ua,A,8,offcore-response-demand-rfo-llc-hit-hitm-other-core,5371023
ua,A,8,offcore-response-demand-rfo-llc-miss-remote-hitm,18177
ua,A,8,offcore-response-all-reads-llc-hit-any-response,2649776214
ua,A,8,offcore-response-all-reads-llc-miss-any-response,396876995
