"app","threads","event","avg","sd"
"bt",1,"cycles",155377170048.6,723123166.521187
"bt",1,"L1-dcache-load-misses",7130622768.73333,6683154.57101639
"bt",1,"L1-dcache-loads",102979616749.267,137442.897020188
"bt",1,"L1-dcache-stores",52305903421.2,108196.833553202
"bt",1,"l2-rqsts-all-rfo",2388257567.03333,862415.195365404
"bt",1,"l2-rqsts-rfo-miss",36865995.6666667,3968239.58528327
"bt",1,"l2-store-lock-rqsts-all",2388300674.03333,899924.787043682
"bt",1,"l2-store-lock-rqsts-miss",38599310.7666667,4172185.57670043
"bt",1,"l2-trans-rfo",2399865688.06667,1022183.79860708
"bt",1,"LLC-load-misses",227954438,4795547.42786683
"bt",1,"LLC-loads",655581338.8,11340739.8664425
"bt",1,"LLC-stores",80280855.0333333,5656286.8140043
"bt",1,"offcore-requests-demand-rfo",50334684.5,6789357.75831431
"bt",1,"offcore-requests-outstanding-demand-rfo",12760826018.1333,1549503705.82204
"bt",1,"offcore-response-all-reads-llc-hit-any-response",982808489.6,28507512.7937254
"bt",1,"offcore-response-all-reads-llc-miss-any-response",649154003.766667,1157285.69231513
"bt",1,"offcore-response-demand-rfo-llc-hit-hitm-other-core",131.7,29.662288841395
"bt",1,"offcore-response-demand-rfo-llc-miss-remote-hitm",1714.76666666667,186.143920033713
"bt",2,"cycles",157165303438.367,742514813.909173
"bt",2,"L1-dcache-load-misses",7127144620.06667,4426477.88889872
"bt",2,"L1-dcache-loads",103041170858.8,27193720.2853694
"bt",2,"L1-dcache-stores",52305737821.9667,110945.117720817
"bt",2,"l2-rqsts-all-rfo",2394890582.03333,468038.603691467
"bt",2,"l2-rqsts-rfo-miss",45726168.1333333,7453293.01834373
"bt",2,"l2-store-lock-rqsts-all",2395279337.53333,584762.125795151
"bt",2,"l2-store-lock-rqsts-miss",36382016.3666667,2505363.51816162
"bt",2,"l2-trans-rfo",2407192710,505280.514021619
"bt",2,"LLC-load-misses",231979893.366667,2884485.10210521
"bt",2,"LLC-loads",677827769.6,7584841.07593982
"bt",2,"LLC-stores",92096351.0666667,3264447.81437127
"bt",2,"offcore-requests-demand-rfo",52386676.6333333,1325224.19774971
"bt",2,"offcore-requests-outstanding-demand-rfo",15844786109.6333,1085292628.26853
"bt",2,"offcore-response-all-reads-llc-hit-any-response",1011988762.56667,19531481.3868569
"bt",2,"offcore-response-all-reads-llc-miss-any-response",648739957.266667,856243.041693053
"bt",2,"offcore-response-demand-rfo-llc-hit-hitm-other-core",20324.8666666667,554.893200037877
"bt",2,"offcore-response-demand-rfo-llc-miss-remote-hitm",29985.5,835.121854623004
"bt",4,"cycles",166321815676.3,468698172.443072
"bt",4,"L1-dcache-load-misses",7130468790.8,6689875.76868707
"bt",4,"L1-dcache-loads",103369077796.433,24959985.8917336
"bt",4,"L1-dcache-stores",52306842137.2,211559.442176118
"bt",4,"l2-rqsts-all-rfo",2399173786.7,333773.370128238
"bt",4,"l2-rqsts-rfo-miss",46528663.2333333,2209334.02746386
"bt",4,"l2-store-lock-rqsts-all",2399192217.66667,315991.008240839
"bt",4,"l2-store-lock-rqsts-miss",35976146.6,2463135.13362424
"bt",4,"l2-trans-rfo",2417458075.7,541642.108541643
"bt",4,"LLC-load-misses",267479584.866667,2230852.89428377
"bt",4,"LLC-loads",761865243.333333,5721018.02481387
"bt",4,"LLC-stores",97253358.2666667,1325244.86213717
"bt",4,"offcore-requests-demand-rfo",53672059.7666667,1624078.4454606
"bt",4,"offcore-requests-outstanding-demand-rfo",19856866541.8667,590164800.44308
"bt",4,"offcore-response-all-reads-llc-hit-any-response",1056108556.66667,14384866.6351817
"bt",4,"offcore-response-all-reads-llc-miss-any-response",647847958.966667,687992.000410192
"bt",4,"offcore-response-demand-rfo-llc-hit-hitm-other-core",33649.6,1484.70625865279
"bt",4,"offcore-response-demand-rfo-llc-miss-remote-hitm",25191.8666666667,433.76559059728
"bt",8,"cycles",181938937576.167,409118783.608175
"bt",8,"L1-dcache-load-misses",7130304650.5,2987116.46905616
"bt",8,"L1-dcache-loads",103511673265.033,27300417.6744589
"bt",8,"L1-dcache-stores",52308291250.1667,45048.9092637103
"bt",8,"l2-rqsts-all-rfo",2402513378.06667,224997.617531015
"bt",8,"l2-rqsts-rfo-miss",47585246.4666667,1035820.23322017
"bt",8,"l2-store-lock-rqsts-all",2402263843.2,197182.617311889
"bt",8,"l2-store-lock-rqsts-miss",35815677.2,1125173.4757632
"bt",8,"l2-trans-rfo",2468907718.1,1197897.31546134
"bt",8,"LLC-load-misses",327172428.433333,1434648.72269876
"bt",8,"LLC-loads",906171185.833333,2459732.19006521
"bt",8,"LLC-stores",97669447.7,1583058.28181693
"bt",8,"offcore-requests-demand-rfo",55928455.1333333,1579113.26854205
"bt",8,"offcore-requests-outstanding-demand-rfo",29862624174.0333,817261096.245944
"bt",8,"offcore-response-all-reads-llc-hit-any-response",1117262111.53333,11200807.2457579
"bt",8,"offcore-response-all-reads-llc-miss-any-response",652951844.3,1095101.39847098
"bt",8,"offcore-response-demand-rfo-llc-hit-hitm-other-core",51865.9333333333,1152.86868229677
"bt",8,"offcore-response-demand-rfo-llc-miss-remote-hitm",23589.3,419.479163511955
"cg",1,"cycles",5240280000.13333,15709863.0727096
"cg",1,"L1-dcache-load-misses",748247218.433333,185462.615029405
"cg",1,"L1-dcache-loads",2770117617.23333,91071.3060717866
"cg",1,"L1-dcache-stores",177989386.033333,46539.2998857769
"cg",1,"l2-rqsts-all-rfo",2031029.86666667,3352.03163737024
"cg",1,"l2-rqsts-rfo-miss",1455261.3,2977.55195264325
"cg",1,"l2-store-lock-rqsts-all",2026961.26666667,3857.58033844873
"cg",1,"l2-store-lock-rqsts-miss",1453356.46666667,6007.90052387917
"cg",1,"l2-trans-rfo",2062824,3590.26628923068
"cg",1,"LLC-load-misses",30211995.2666667,609791.753972768
"cg",1,"LLC-loads",482592739.333333,19560219.8827118
"cg",1,"LLC-stores",1476486.4,6062.10422429431
"cg",1,"offcore-requests-demand-rfo",1472574.7,2861.65623667424
"cg",1,"offcore-requests-outstanding-demand-rfo",761882056.333333,516378525.539429
"cg",1,"offcore-response-all-reads-llc-hit-any-response",671165846.433333,20859521.5389436
"cg",1,"offcore-response-all-reads-llc-miss-any-response",59985590.8666667,1107349.58448275
"cg",1,"offcore-response-demand-rfo-llc-hit-hitm-other-core",311.433333333333,240.917070436252
"cg",1,"offcore-response-demand-rfo-llc-miss-remote-hitm",224.833333333333,89.8756708286316
"cg",2,"cycles",4498231177.96667,63106592.9549771
"cg",2,"L1-dcache-load-misses",749603094.366667,280399.448197173
"cg",2,"L1-dcache-loads",2774566778.9,104164.312124049
"cg",2,"L1-dcache-stores",178842942.6,26171.2104110209
"cg",2,"l2-rqsts-all-rfo",2219495.1,9431.05516386121
"cg",2,"l2-rqsts-rfo-miss",1573940.86666667,20781.3678380916
"cg",2,"l2-store-lock-rqsts-all",2203741.8,6419.22189838376
"cg",2,"l2-store-lock-rqsts-miss",1413239.06666667,15594.783718039
"cg",2,"l2-trans-rfo",2287712.2,6602.70072392011
"cg",2,"LLC-load-misses",21483195.6333333,1229545.56843766
"cg",2,"LLC-loads",166252744.766667,15072867.9727431
"cg",2,"LLC-stores",1769275.46666667,18868.500516451
"cg",2,"offcore-requests-demand-rfo",1614664.26666667,19918.0406950497
"cg",2,"offcore-requests-outstanding-demand-rfo",756335423.133333,234585769.344285
"cg",2,"offcore-response-all-reads-llc-hit-any-response",273251838.2,25704506.8731361
"cg",2,"offcore-response-all-reads-llc-miss-any-response",63137959.8,1085639.33796902
"cg",2,"offcore-response-demand-rfo-llc-hit-hitm-other-core",15947.7333333333,228.28665887583
"cg",2,"offcore-response-demand-rfo-llc-miss-remote-hitm",949.066666666667,66.6031893199283
"cg",4,"cycles",4632436743.23333,80231860.882223
"cg",4,"L1-dcache-load-misses",749773018.966667,118437.472891277
"cg",4,"L1-dcache-loads",2784833368,195945.427272617
"cg",4,"L1-dcache-stores",180752086.066667,60599.7433386394
"cg",4,"l2-rqsts-all-rfo",2336618.76666667,4098.85206642223
"cg",4,"l2-rqsts-rfo-miss",1669213.3,22052.6918113695
"cg",4,"l2-store-lock-rqsts-all",2317385.36666667,4105.45941353789
"cg",4,"l2-store-lock-rqsts-miss",1425695.36666667,17058.6313135831
"cg",4,"l2-trans-rfo",2407996.06666667,6842.5249316316
"cg",4,"LLC-load-misses",22015164.2333333,964716.332139918
"cg",4,"LLC-loads",179260231.2,20285950.1431627
"cg",4,"LLC-stores",1914274.36666667,21242.7738961536
"cg",4,"offcore-requests-demand-rfo",1706773.4,18846.9973457404
"cg",4,"offcore-requests-outstanding-demand-rfo",626433394.7,137686527.113747
"cg",4,"offcore-response-all-reads-llc-hit-any-response",270645118.266667,20387376.0248315
"cg",4,"offcore-response-all-reads-llc-miss-any-response",62128456.9,1264059.41850783
"cg",4,"offcore-response-demand-rfo-llc-hit-hitm-other-core",23257.6333333333,149.228254928366
"cg",4,"offcore-response-demand-rfo-llc-miss-remote-hitm",773.366666666667,49.537129926746
"cg",8,"cycles",4912365142.9,34710524.5491269
"cg",8,"L1-dcache-load-misses",749429414.966667,218757.122812689
"cg",8,"L1-dcache-loads",2802119326.33333,294877.351328346
"cg",8,"L1-dcache-stores",184547809.7,67448.0356088505
"cg",8,"l2-rqsts-all-rfo",2459693.7,3508.21408780338
"cg",8,"l2-rqsts-rfo-miss",1720278.03333333,11068.2932592188
"cg",8,"l2-store-lock-rqsts-all",2431751.93333333,3081.68284053619
"cg",8,"l2-store-lock-rqsts-miss",1473208.16666667,9530.94842885262
"cg",8,"l2-trans-rfo",2577017.8,4637.18818429355
"cg",8,"LLC-load-misses",24537805.9333333,1017226.01949631
"cg",8,"LLC-loads",163685321.833333,17154120.6955474
"cg",8,"LLC-stores",2054896.16666667,16274.1782294254
"cg",8,"offcore-requests-demand-rfo",1768243.1,12175.7689978909
"cg",8,"offcore-requests-outstanding-demand-rfo",773595719.933333,179093752.592734
"cg",8,"offcore-response-all-reads-llc-hit-any-response",258219581.8,13315507.657363
"cg",8,"offcore-response-all-reads-llc-miss-any-response",60781969.7,1294395.63661601
"cg",8,"offcore-response-demand-rfo-llc-hit-hitm-other-core",41170.4333333333,575.927414308196
"cg",8,"offcore-response-demand-rfo-llc-miss-remote-hitm",750.8,76.3135184842651
"ep",1,"cycles",40885360826.5667,48601229.9879657
"ep",1,"L1-dcache-load-misses",144203928.2,314452.907268681
"ep",1,"L1-dcache-loads",9487176623.4,338236.429827419
"ep",1,"L1-dcache-stores",4120237562.8,51549.7881204516
"ep",1,"l2-rqsts-all-rfo",66336906.8,21288.3550311529
"ep",1,"l2-rqsts-rfo-miss",1262800.33333333,18895.3917164276
"ep",1,"l2-store-lock-rqsts-all",66343146.2,16463.20797356
"ep",1,"l2-store-lock-rqsts-miss",1271768.73333333,13087.5180876732
"ep",1,"l2-trans-rfo",67906430.8666667,55810.2496201499
"ep",1,"LLC-load-misses",4193.56666666667,622.300249353017
"ep",1,"LLC-loads",3938178.53333333,25473.5208884942
"ep",1,"LLC-stores",1805247.36666667,20779.1604316556
"ep",1,"offcore-requests-demand-rfo",2140054.5,25349.7535257351
"ep",1,"offcore-requests-outstanding-demand-rfo",5612373234.3,9699284509.5512
"ep",1,"offcore-response-all-reads-llc-hit-any-response",139967223.6,57931.4353661708
"ep",1,"offcore-response-all-reads-llc-miss-any-response",21472.9666666667,2185.21321685172
"ep",1,"offcore-response-demand-rfo-llc-hit-hitm-other-core",83.7666666666667,14.8326410790294
"ep",1,"offcore-response-demand-rfo-llc-miss-remote-hitm",376.633333333333,43.8688837961173
"ep",2,"cycles",40920548122.9667,23689685.3465741
"ep",2,"L1-dcache-load-misses",143929854.7,284950.502915403
"ep",2,"L1-dcache-loads",9487074836.6,68303.1689213259
"ep",2,"L1-dcache-stores",4120446941.8,47265.1398333216
"ep",2,"l2-rqsts-all-rfo",66417147.2,20902.4497615916
"ep",2,"l2-rqsts-rfo-miss",1329493.03333333,2844.21073161995
"ep",2,"l2-store-lock-rqsts-all",66411631.4,17411.8159978633
"ep",2,"l2-store-lock-rqsts-miss",1297606.53333333,2773.61967807785
"ep",2,"l2-trans-rfo",67962674.3333333,30451.8306157163
"ep",2,"LLC-load-misses",31150.3666666667,956.718167162781
"ep",2,"LLC-loads",3965525.2,12840.1864000328
"ep",2,"LLC-stores",1882199.86666667,13276.7711000363
"ep",2,"offcore-requests-demand-rfo",2190021.7,24616.783337509
"ep",2,"offcore-requests-outstanding-demand-rfo",4838495752.96667,4818679903.74259
"ep",2,"offcore-response-all-reads-llc-hit-any-response",139771450.733333,48225.0246862024
"ep",2,"offcore-response-all-reads-llc-miss-any-response",85009.6,3535.76625436655
"ep",2,"offcore-response-demand-rfo-llc-hit-hitm-other-core",263.233333333333,85.0838551888259
"ep",2,"offcore-response-demand-rfo-llc-miss-remote-hitm",8017.3,211.160152490947
"ep",4,"cycles",40925111944.4,17710315.3187635
"ep",4,"L1-dcache-load-misses",143923417.633333,128896.223672204
"ep",4,"L1-dcache-loads",9488443874.6,103138.207132679
"ep",4,"L1-dcache-stores",4121199540.86667,30051.9732767911
"ep",4,"l2-rqsts-all-rfo",66461186.3666667,22451.2698343661
"ep",4,"l2-rqsts-rfo-miss",1377937.7,2451.20616256147
"ep",4,"l2-store-lock-rqsts-all",66464040.0333333,20562.5777755494
"ep",4,"l2-store-lock-rqsts-miss",1349173.36666667,2214.09949072475
"ep",4,"l2-trans-rfo",68047448.1,29067.2931469375
"ep",4,"LLC-load-misses",26948.5666666667,744.308107550574
"ep",4,"LLC-loads",4042635.5,14551.6593712503
"ep",4,"LLC-stores",1962056.93333333,9344.5658734977
"ep",4,"offcore-requests-demand-rfo",2254479.03333333,19986.7840354312
"ep",4,"offcore-requests-outstanding-demand-rfo",5186523861.13333,4093621460.13421
"ep",4,"offcore-response-all-reads-llc-hit-any-response",139736631.266667,42622.9038309783
"ep",4,"offcore-response-all-reads-llc-miss-any-response",97261.7666666667,4915.94324905516
"ep",4,"offcore-response-demand-rfo-llc-hit-hitm-other-core",3142.23333333333,551.97534958703
"ep",4,"offcore-response-demand-rfo-llc-miss-remote-hitm",6346.86666666667,154.748543528325
"ep",8,"cycles",40967405715.3667,17112859.7713453
"ep",8,"L1-dcache-load-misses",144001881.333333,120283.851206105
"ep",8,"L1-dcache-loads",9491817067.16667,324635.346103224
"ep",8,"L1-dcache-stores",4122794976.53333,45716.2866343698
"ep",8,"l2-rqsts-all-rfo",66542182.9,8454.59547271431
"ep",8,"l2-rqsts-rfo-miss",1464490.8,2709.1958511706
"ep",8,"l2-store-lock-rqsts-all",66541574.7666667,8649.83874996204
"ep",8,"l2-store-lock-rqsts-miss",1438787.46666667,2533.1299192079
"ep",8,"l2-trans-rfo",68125588.2666667,9307.51439236802
"ep",8,"LLC-load-misses",28025.4333333333,942.577175290867
"ep",8,"LLC-loads",4042091.7,13664.5477756656
"ep",8,"LLC-stores",2097782.6,6433.2641748531
"ep",8,"offcore-requests-demand-rfo",2399276.43333333,10376.9713956035
"ep",8,"offcore-requests-outstanding-demand-rfo",4875775229.06667,2540799011.36456
"ep",8,"offcore-response-all-reads-llc-hit-any-response",139789560.566667,42644.7270336294
"ep",8,"offcore-response-all-reads-llc-miss-any-response",173170.133333333,28327.6726199568
"ep",8,"offcore-response-demand-rfo-llc-hit-hitm-other-core",4471.33333333333,743.588614481292
"ep",8,"offcore-response-demand-rfo-llc-miss-remote-hitm",5447.46666666667,77.0567278720348
"ft",1,"cycles",12883397724.3,20492386.5141997
"ft",1,"L1-dcache-load-misses",1104970218.56667,194823.113757053
"ft",1,"L1-dcache-loads",4843813426.43333,134092.165608586
"ft",1,"L1-dcache-stores",4561690468.46667,24625.8717144781
"ft",1,"l2-rqsts-all-rfo",537808496.966667,115287.286630204
"ft",1,"l2-rqsts-rfo-miss",78528849.1333333,587578.859700083
"ft",1,"l2-store-lock-rqsts-all",537780914.033333,105130.295010605
"ft",1,"l2-store-lock-rqsts-miss",78578496.7666667,1000773.67963124
"ft",1,"l2-trans-rfo",550689240.3,128221.629332761
"ft",1,"LLC-load-misses",29251827.3333333,102280.245454711
"ft",1,"LLC-loads",86148374.2333333,1247716.34807645
"ft",1,"LLC-stores",97277002.2,538480.262693682
"ft",1,"offcore-requests-demand-rfo",87423427.3,655731.573584394
"ft",1,"offcore-requests-outstanding-demand-rfo",5992980119,251949312.928536
"ft",1,"offcore-response-all-reads-llc-hit-any-response",313459353.333333,17734369.0195526
"ft",1,"offcore-response-all-reads-llc-miss-any-response",98247303.4666667,8807.31300845868
"ft",1,"offcore-response-demand-rfo-llc-hit-hitm-other-core",63.8,22.6496859991937
"ft",1,"offcore-response-demand-rfo-llc-miss-remote-hitm",275.2,73.8572808261615
"ft",2,"cycles",13226747911.0333,26747683.6021055
"ft",2,"L1-dcache-load-misses",1105351117.86667,139922.704601214
"ft",2,"L1-dcache-loads",4846478655.4,842646.984956435
"ft",2,"L1-dcache-stores",4561751333.23333,44613.7765084416
"ft",2,"l2-rqsts-all-rfo",537306564.033333,57269.8441883835
"ft",2,"l2-rqsts-rfo-miss",79204324.6333333,250641.87612541
"ft",2,"l2-store-lock-rqsts-all",537252094.1,52207.5567929586
"ft",2,"l2-store-lock-rqsts-miss",79201165.9,445417.815460527
"ft",2,"l2-trans-rfo",550964949.833333,47699.5659366681
"ft",2,"LLC-load-misses",31840294.5,140733.048111107
"ft",2,"LLC-loads",89515620.9,1203574.68502842
"ft",2,"LLC-stores",100856516.2,463062.638957463
"ft",2,"offcore-requests-demand-rfo",88771898.8,398410.847664518
"ft",2,"offcore-requests-outstanding-demand-rfo",6192764318.06667,135750775.117392
"ft",2,"offcore-response-all-reads-llc-hit-any-response",319957110.766667,8840775.70608074
"ft",2,"offcore-response-all-reads-llc-miss-any-response",98364175.9,8680.35964098819
"ft",2,"offcore-response-demand-rfo-llc-hit-hitm-other-core",101288.7,810.679346661458
"ft",2,"offcore-response-demand-rfo-llc-miss-remote-hitm",2631.2,88.5138679958469
"ft",4,"cycles",14236258219.2667,16688420.8580395
"ft",4,"L1-dcache-load-misses",1105430129.4,119224.919607866
"ft",4,"L1-dcache-loads",4848099712.9,429887.225539018
"ft",4,"L1-dcache-stores",4562044275.16667,74077.0392747447
"ft",4,"l2-rqsts-all-rfo",536448075.866667,43895.9326724878
"ft",4,"l2-rqsts-rfo-miss",79370546.0666667,194851.626249588
"ft",4,"l2-store-lock-rqsts-all",536333113.766667,31035.6536971149
"ft",4,"l2-store-lock-rqsts-miss",79160988.9333333,168915.489413101
"ft",4,"l2-trans-rfo",559874363.3,174578.346444531
"ft",4,"LLC-load-misses",33894736.1,84223.6969745185
"ft",4,"LLC-loads",92879544.7333333,352037.956053064
"ft",4,"LLC-stores",103343171.266667,245145.121608206
"ft",4,"offcore-requests-demand-rfo",89566963.8666667,211002.424386255
"ft",4,"offcore-requests-outstanding-demand-rfo",7419808678.9,122859827.361338
"ft",4,"offcore-response-all-reads-llc-hit-any-response",329303304.433333,4345200.70696349
"ft",4,"offcore-response-all-reads-llc-miss-any-response",98619529.6333333,11865.675280913
"ft",4,"offcore-response-demand-rfo-llc-hit-hitm-other-core",115013.666666667,829.53591096842
"ft",4,"offcore-response-demand-rfo-llc-miss-remote-hitm",2259.6,98.4239878246677
"ft",8,"cycles",16818208413.8333,21669747.8725675
"ft",8,"L1-dcache-load-misses",1105762236.6,172338.956079618
"ft",8,"L1-dcache-loads",4853341709.8,668394.936513236
"ft",8,"L1-dcache-stores",4562546214.9,29762.2319760035
"ft",8,"l2-rqsts-all-rfo",536500932.533333,31283.7074820436
"ft",8,"l2-rqsts-rfo-miss",79182596.3,197477.980989229
"ft",8,"l2-store-lock-rqsts-all",536404027.333333,24467.5861320857
"ft",8,"l2-store-lock-rqsts-miss",78908624.8333333,183514.100532343
"ft",8,"l2-trans-rfo",592192117.966667,262843.639003987
"ft",8,"LLC-load-misses",35449398.6,41059.7021901456
"ft",8,"LLC-loads",96106318.0333333,282433.466039794
"ft",8,"LLC-stores",103377427.933333,232206.040129047
"ft",8,"offcore-requests-demand-rfo",89128488.1,173652.767550194
"ft",8,"offcore-requests-outstanding-demand-rfo",9515638676.43333,109719872.529991
"ft",8,"offcore-response-all-reads-llc-hit-any-response",330701301.466667,3115351.29104416
"ft",8,"offcore-response-all-reads-llc-miss-any-response",99400570.3,19537.1293572097
"ft",8,"offcore-response-demand-rfo-llc-hit-hitm-other-core",129039.533333333,930.610341805775
"ft",8,"offcore-response-demand-rfo-llc-miss-remote-hitm",1855.43333333333,128.346998675331
"is",1,"cycles",6021024347.9,16047409.6168267
"is",1,"L1-dcache-load-misses",93292812.5,29701.3379004648
"is",1,"L1-dcache-loads",1117948833.83333,40537.8212188832
"is",1,"L1-dcache-stores",521433722.533333,22760.8012479714
"is",1,"l2-rqsts-all-rfo",51576991.3666667,4722.13581604473
"is",1,"l2-rqsts-rfo-miss",7801604.4,9213.13488667131
"is",1,"l2-store-lock-rqsts-all",51576279.1333333,4048.724291377
"is",1,"l2-store-lock-rqsts-miss",7816717,15180.162406791
"is",1,"l2-trans-rfo",51677091.7666667,4886.9010207443
"is",1,"LLC-load-misses",2427424.53333333,9988.39769249544
"is",1,"LLC-loads",3364457.06666667,51717.554276107
"is",1,"LLC-stores",7989138.13333333,11651.6624447122
"is",1,"offcore-requests-demand-rfo",7880768.2,7709.94686738703
"is",1,"offcore-requests-outstanding-demand-rfo",3191787086.13333,531688799.031385
"is",1,"offcore-response-all-reads-llc-hit-any-response",2777704.36666667,68404.5839266311
"is",1,"offcore-response-all-reads-llc-miss-any-response",25398328.5333333,7958.5215626678
"is",1,"offcore-response-demand-rfo-llc-hit-hitm-other-core",32.9,3.30939102638495
"is",1,"offcore-response-demand-rfo-llc-miss-remote-hitm",189.666666666667,53.48438379887
"is",2,"cycles",6182044659.4,6347038.83292626
"is",2,"L1-dcache-load-misses",96163289.4,30142.0111099167
"is",2,"L1-dcache-loads",1118464436.93333,127289.091341116
"is",2,"L1-dcache-stores",521801202.4,64349.1504703348
"is",2,"l2-rqsts-all-rfo",53138188.1333333,6736.57691658779
"is",2,"l2-rqsts-rfo-miss",9276482.36666667,8957.9604238257
"is",2,"l2-store-lock-rqsts-all",53121853.7,10432.0517030035
"is",2,"l2-store-lock-rqsts-miss",8494067.83333333,13893.8325710392
"is",2,"l2-trans-rfo",53565709.5666667,9913.33308402515
"is",2,"LLC-load-misses",2440320.93333333,5539.12123728839
"is",2,"LLC-loads",4474010.03333333,61241.6702954411
"is",2,"LLC-stores",9607826.33333333,10962.6104395019
"is",2,"offcore-requests-demand-rfo",9451169.5,7970.51852561936
"is",2,"offcore-requests-outstanding-demand-rfo",3142576588.4,378197007.571402
"is",2,"offcore-response-all-reads-llc-hit-any-response",7491318.26666667,82594.662700268
"is",2,"offcore-response-all-reads-llc-miss-any-response",25402768.9333333,5285.25880930909
"is",2,"offcore-response-demand-rfo-llc-hit-hitm-other-core",320587.3,771.79838107791
"is",2,"offcore-response-demand-rfo-llc-miss-remote-hitm",1284.1,70.447096805162
"is",4,"cycles",6350185138.6,4809701.55419296
"is",4,"L1-dcache-load-misses",100303152.6,30970.8951587866
"is",4,"L1-dcache-loads",1119397202.1,340841.615993361
"is",4,"L1-dcache-stores",521962325.566667,43224.3735795578
"is",4,"l2-rqsts-all-rfo",55161969.1666667,12522.7541757615
"is",4,"l2-rqsts-rfo-miss",11022995.2333333,19113.3100904615
"is",4,"l2-store-lock-rqsts-all",55146813.7333333,15656.3111773297
"is",4,"l2-store-lock-rqsts-miss",9210869.63333333,9838.60754601396
"is",4,"l2-trans-rfo",56071924.9666667,11986.2102202691
"is",4,"LLC-load-misses",2495639.9,5228.2393641283
"is",4,"LLC-loads",6023527.43333333,52187.0644514751
"is",4,"LLC-stores",11442357.2666667,9626.85057097398
"is",4,"offcore-requests-demand-rfo",11299519.6333333,17332.1325341809
"is",4,"offcore-requests-outstanding-demand-rfo",2663658918.56667,244340698.853497
"is",4,"offcore-response-all-reads-llc-hit-any-response",14975447,82542.0883128618
"is",4,"offcore-response-all-reads-llc-miss-any-response",25370802.3666667,4840.14644581097
"is",4,"offcore-response-demand-rfo-llc-hit-hitm-other-core",381823.9,693.928149167402
"is",4,"offcore-response-demand-rfo-llc-miss-remote-hitm",1099.1,78.0286883581709
"is",8,"cycles",6591327912.66667,7356923.99516757
"is",8,"L1-dcache-load-misses",102962329.333333,36407.3504139688
"is",8,"L1-dcache-loads",1122217595.4,459625.416589766
"is",8,"L1-dcache-stores",522946453.533333,16121.0120616242
"is",8,"l2-rqsts-all-rfo",56479186,11669.2070876805
"is",8,"l2-rqsts-rfo-miss",12210224.6666667,11510.715438983
"is",8,"l2-store-lock-rqsts-all",56459549.2333333,10115.3002822627
"is",8,"l2-store-lock-rqsts-miss",9776253.56666667,10255.4309171725
"is",8,"l2-trans-rfo",57695669.8666667,10828.1490067197
"is",8,"LLC-load-misses",2938482.03333333,9139.14517524139
"is",8,"LLC-loads",7641240.2,68956.2952243691
"is",8,"LLC-stores",12723845.1666667,15125.7124212382
"is",8,"offcore-requests-demand-rfo",12567096.6,11712.2651111176
"is",8,"offcore-requests-outstanding-demand-rfo",2962360493.8,191181668.223568
"is",8,"offcore-response-all-reads-llc-hit-any-response",19757176.5333333,71323.88532618
"is",8,"offcore-response-all-reads-llc-miss-any-response",25381787.1,4960.62381022304
"is",8,"offcore-response-demand-rfo-llc-hit-hitm-other-core",471923.033333333,761.309658553533
"is",8,"offcore-response-demand-rfo-llc-miss-remote-hitm",969.733333333333,100.713585016603
"lu",1,"cycles",119146807367.533,428123010.620429
"lu",1,"L1-dcache-load-misses",4921895069.3,4154528.76572717
"lu",1,"L1-dcache-loads",59618051628.8667,251173.773338619
"lu",1,"L1-dcache-stores",26795201793.9,44916.2107992856
"lu",1,"l2-rqsts-all-rfo",1634035639.16667,565862.588302138
"lu",1,"l2-rqsts-rfo-miss",170642665.4,461413.781175869
"lu",1,"l2-store-lock-rqsts-all",1634465558.93333,713622.049730425
"lu",1,"l2-store-lock-rqsts-miss",170671344.666667,452823.957622721
"lu",1,"l2-trans-rfo",1647842826.76667,797680.466679476
"lu",1,"LLC-load-misses",217274009.966667,997745.204341837
"lu",1,"LLC-loads",643425183.266667,3425316.67398204
"lu",1,"LLC-stores",221058457.266667,556888.333762244
"lu",1,"offcore-requests-demand-rfo",177061264.266667,395286.802711362
"lu",1,"offcore-requests-outstanding-demand-rfo",6216091604.23333,119643188.049001
"lu",1,"offcore-response-all-reads-llc-hit-any-response",4154144846.9,3261734.28999822
"lu",1,"offcore-response-all-reads-llc-miss-any-response",498593932,1037027.37256192
"lu",1,"offcore-response-demand-rfo-llc-hit-hitm-other-core",112.1,29.2369688036839
"lu",1,"offcore-response-demand-rfo-llc-miss-remote-hitm",1427.73333333333,153.744566486552
"lu",2,"cycles",122025550021.6,338372848.139377
"lu",2,"L1-dcache-load-misses",4917988645.26667,1902310.32789672
"lu",2,"L1-dcache-loads",59704102477.1,7900851.19897863
"lu",2,"L1-dcache-stores",26798380900.6,29571.83848923
"lu",2,"l2-rqsts-all-rfo",1642081422.4,433353.940851768
"lu",2,"l2-rqsts-rfo-miss",180572077.966667,449400.894243746
"lu",2,"l2-store-lock-rqsts-all",1642123941.6,364642.873839831
"lu",2,"l2-store-lock-rqsts-miss",173065073.166667,458727.72030261
"lu",2,"l2-trans-rfo",1656157383.93333,344969.192096926
"lu",2,"LLC-load-misses",224709734.566667,762031.791339515
"lu",2,"LLC-loads",720018680.433333,3224914.28813983
"lu",2,"LLC-stores",244939322.933333,490907.622999135
"lu",2,"offcore-requests-demand-rfo",187328441.533333,456105.938893837
"lu",2,"offcore-requests-outstanding-demand-rfo",7953637036.36667,170023771.716416
"lu",2,"offcore-response-all-reads-llc-hit-any-response",4215747357.4,2840374.91650077
"lu",2,"offcore-response-all-reads-llc-miss-any-response",505058777.766667,1159407.46447731
"lu",2,"offcore-response-demand-rfo-llc-hit-hitm-other-core",16062.5,396.556055523571
"lu",2,"offcore-response-demand-rfo-llc-miss-remote-hitm",23616.6,563.481816247321
"lu",4,"cycles",131245185754.667,255242144.165241
"lu",4,"L1-dcache-load-misses",4919209591.33333,1171671.3677587
"lu",4,"L1-dcache-loads",60012269224.4,10800862.5392128
"lu",4,"L1-dcache-stores",26805915943.8333,75964.3788944688
"lu",4,"l2-rqsts-all-rfo",1643303703.1,200857.713990021
"lu",4,"l2-rqsts-rfo-miss",180598842.666667,381994.600905581
"lu",4,"l2-store-lock-rqsts-all",1643274477.16667,192921.113887664
"lu",4,"l2-store-lock-rqsts-miss",171089391.1,355277.035672543
"lu",4,"l2-trans-rfo",1659370824.86667,171608.607984408
"lu",4,"LLC-load-misses",228559390.866667,768502.846728783
"lu",4,"LLC-loads",781607568.066667,3736459.27257778
"lu",4,"LLC-stores",251965749.466667,558084.736338106
"lu",4,"offcore-requests-demand-rfo",188184579.666667,394145.785232484
"lu",4,"offcore-requests-outstanding-demand-rfo",10449227544.6667,182187618.256485
"lu",4,"offcore-response-all-reads-llc-hit-any-response",4248399978.63333,3501004.43506128
"lu",4,"offcore-response-all-reads-llc-miss-any-response",502265743.1,996918.005634829
"lu",4,"offcore-response-demand-rfo-llc-hit-hitm-other-core",29609.1,1179.4779442764
"lu",4,"offcore-response-demand-rfo-llc-miss-remote-hitm",20071.8,368.263756678225
"lu",8,"cycles",143316314245.033,179583962.417314
"lu",8,"L1-dcache-load-misses",4930126104.53333,685402.512529421
"lu",8,"L1-dcache-loads",60299087008.4333,9718362.9228672
"lu",8,"L1-dcache-stores",26820174559.0333,58452.809650677
"lu",8,"l2-rqsts-all-rfo",1645694925.56667,152489.984568689
"lu",8,"l2-rqsts-rfo-miss",173152703.833333,540459.960203492
"lu",8,"l2-store-lock-rqsts-all",1645601364.43333,160123.533657741
"lu",8,"l2-store-lock-rqsts-miss",160987409.166667,569450.181999973
"lu",8,"l2-trans-rfo",1675986151.2,394101.498652587
"lu",8,"LLC-load-misses",215867978.033333,722955.414485637
"lu",8,"LLC-loads",730717976.7,2342683.46194323
"lu",8,"LLC-stores",247300031.4,663449.687179725
"lu",8,"offcore-requests-demand-rfo",181479878.133333,593375.825257834
"lu",8,"offcore-requests-outstanding-demand-rfo",15601630901.9667,197000277.72807
"lu",8,"offcore-response-all-reads-llc-hit-any-response",3963272275.56667,17490543.9864605
"lu",8,"offcore-response-all-reads-llc-miss-any-response",488728700.133333,836691.906212565
"lu",8,"offcore-response-demand-rfo-llc-hit-hitm-other-core",54580.7666666667,1008.12109990267
"lu",8,"offcore-response-demand-rfo-llc-miss-remote-hitm",18588.7666666667,619.824235653502
"mg",1,"cycles",6463568608.33333,26468650.0406761
"mg",1,"L1-dcache-load-misses",334149676.633333,370620.664938624
"mg",1,"L1-dcache-loads",5177207776.63333,52457.5829690506
"mg",1,"L1-dcache-stores",1369199398.93333,47016.8093252791
"mg",1,"l2-rqsts-all-rfo",45818029.4666667,94682.5530995893
"mg",1,"l2-rqsts-rfo-miss",18804127.6,75782.172369496
"mg",1,"l2-store-lock-rqsts-all",45834054.6333333,76442.2189520519
"mg",1,"l2-store-lock-rqsts-miss",18517777.4,93998.9778280007
"mg",1,"l2-trans-rfo",54398592.2333333,93435.129457861
"mg",1,"LLC-load-misses",31074490,346689.050464932
"mg",1,"LLC-loads",82066062.6333333,903716.827480918
"mg",1,"LLC-stores",35527944.5333333,181858.032818274
"mg",1,"offcore-requests-demand-rfo",25726860.7333333,115195.67369911
"mg",1,"offcore-requests-outstanding-demand-rfo",4184853615.2,171182848.926268
"mg",1,"offcore-response-all-reads-llc-hit-any-response",143816794.2,494283.336253661
"mg",1,"offcore-response-all-reads-llc-miss-any-response",163867429.433333,66717.8660745768
"mg",1,"offcore-response-demand-rfo-llc-hit-hitm-other-core",74.0666666666667,23.7656373203283
"mg",1,"offcore-response-demand-rfo-llc-miss-remote-hitm",206.5,60.8174912453589
"mg",2,"cycles",6714288013.23333,19447511.8146095
"mg",2,"L1-dcache-load-misses",335267165.266667,282059.816487479
"mg",2,"L1-dcache-loads",5178739634.46667,491859.672489611
"mg",2,"L1-dcache-stores",1369289012.86667,44192.0431310652
"mg",2,"l2-rqsts-all-rfo",46323820.2333333,91046.8026260935
"mg",2,"l2-rqsts-rfo-miss",19705130.6,59514.9502546412
"mg",2,"l2-store-lock-rqsts-all",46237346.7666667,106030.13717472
"mg",2,"l2-store-lock-rqsts-miss",19517878.9,63244.4002676999
"mg",2,"l2-trans-rfo",54781546.4333333,69934.4619345585
"mg",2,"LLC-load-misses",33785133.0666667,297894.22378669
"mg",2,"LLC-loads",88877578.8666667,818532.406521609
"mg",2,"LLC-stores",38278356.5666667,134324.11694172
"mg",2,"offcore-requests-demand-rfo",26718578.2666667,81672.4133298555
"mg",2,"offcore-requests-outstanding-demand-rfo",4726744153.66667,77234358.2976697
"mg",2,"offcore-response-all-reads-llc-hit-any-response",150682300.633333,456021.750989036
"mg",2,"offcore-response-all-reads-llc-miss-any-response",164489746.4,115765.837855287
"mg",2,"offcore-response-demand-rfo-llc-hit-hitm-other-core",122562.8,758.749998352554
"mg",2,"offcore-response-demand-rfo-llc-miss-remote-hitm",1401.6,53.7962823994372
"mg",4,"cycles",7835419596.36667,16221183.2328027
"mg",4,"L1-dcache-load-misses",334001426.433333,285130.893061452
"mg",4,"L1-dcache-loads",5180755211.16667,414600.139603327
"mg",4,"L1-dcache-stores",1369514475.66667,21327.6314788246
"mg",4,"l2-rqsts-all-rfo",46273328.4666667,63627.0172990514
"mg",4,"l2-rqsts-rfo-miss",21433079.0333333,37944.1878358247
"mg",4,"l2-store-lock-rqsts-all",46162309.9333333,59438.9944090926
"mg",4,"l2-store-lock-rqsts-miss",21207967.1,62467.6229725585
"mg",4,"l2-trans-rfo",66294976.8,205004.365150888
"mg",4,"LLC-load-misses",47903252.4666667,244794.404040449
"mg",4,"LLC-loads",125125650.166667,589505.150801189
"mg",4,"LLC-stores",45134902.9666667,107768.227743887
"mg",4,"offcore-requests-demand-rfo",29039894.9666667,56220.2142309029
"mg",4,"offcore-requests-outstanding-demand-rfo",6520928061.06667,86241266.5569057
"mg",4,"offcore-response-all-reads-llc-hit-any-response",168988176.833333,409033.685178383
"mg",4,"offcore-response-all-reads-llc-miss-any-response",171551102,302231.927187851
"mg",4,"offcore-response-demand-rfo-llc-hit-hitm-other-core",150092.866666667,858.748826029414
"mg",4,"offcore-response-demand-rfo-llc-miss-remote-hitm",1150.93333333333,105.130651063824
"mg",8,"cycles",15047052168.2,20515345.8991398
"mg",8,"L1-dcache-load-misses",331766530.166667,190865.960970886
"mg",8,"L1-dcache-loads",5188982714.83333,389091.404991718
"mg",8,"L1-dcache-stores",1370528784.1,24497.936089147
"mg",8,"l2-rqsts-all-rfo",47088916.9666667,57519.426197527
"mg",8,"l2-rqsts-rfo-miss",23485598.5666667,35980.8369257332
"mg",8,"l2-store-lock-rqsts-all",46936005.9666667,50247.895496329
"mg",8,"l2-store-lock-rqsts-miss",23180090.1333333,28937.9502972874
"mg",8,"l2-trans-rfo",130128663.3,504626.700861691
"mg",8,"LLC-load-misses",93328300.8,213374.64699014
"mg",8,"LLC-loads",199989633.966667,469473.632156067
"mg",8,"LLC-stores",50841868.4666667,70667.2407199672
"mg",8,"offcore-requests-demand-rfo",31332562.7,46664.1566833541
"mg",8,"offcore-requests-outstanding-demand-rfo",11328598141,115685267.389337
"mg",8,"offcore-response-all-reads-llc-hit-any-response",176656285.233333,379702.069206889
"mg",8,"offcore-response-all-reads-llc-miss-any-response",206259097.533333,260560.891418906
"mg",8,"offcore-response-demand-rfo-llc-hit-hitm-other-core",173140.966666667,990.199222204892
"mg",8,"offcore-response-demand-rfo-llc-miss-remote-hitm",1620.56666666667,86.1304563858881
"sp",1,"cycles",104227512270.9,413368536.518665
"sp",1,"L1-dcache-load-misses",5352589776.36667,891321.469584426
"sp",1,"L1-dcache-loads",60225539806.2333,92002.8566229313
"sp",1,"L1-dcache-stores",25795954990.8667,86098.1035679328
"sp",1,"l2-rqsts-all-rfo",714006227.966667,62718.3957042385
"sp",1,"l2-rqsts-rfo-miss",180488322,1261238.27561821
"sp",1,"l2-store-lock-rqsts-all",714001839.466667,53677.4761417962
"sp",1,"l2-store-lock-rqsts-miss",180877814,1234760.46119016
"sp",1,"l2-trans-rfo",736096214.333333,63059.1677687682
"sp",1,"LLC-load-misses",421397188.266667,4815414.2237439
"sp",1,"LLC-loads",1690430125.06667,19559168.6714623
"sp",1,"LLC-stores",253549508.166667,1353933.04884489
"sp",1,"offcore-requests-demand-rfo",199462707.533333,1130399.10810593
"sp",1,"offcore-requests-outstanding-demand-rfo",13881617588.9,891647396.636966
"sp",1,"offcore-response-all-reads-llc-hit-any-response",4540285746.93333,21212277.6077519
"sp",1,"offcore-response-all-reads-llc-miss-any-response",1372923007.86667,3548178.84233724
"sp",1,"offcore-response-demand-rfo-llc-hit-hitm-other-core",128.166666666667,43.2096931973243
"sp",1,"offcore-response-demand-rfo-llc-miss-remote-hitm",1265.33333333333,140.166969398446
"sp",2,"cycles",107599250509.033,304131925.751883
"sp",2,"L1-dcache-load-misses",5356788450.1,627554.229910147
"sp",2,"L1-dcache-loads",60271864488.4333,11690621.4805559
"sp",2,"L1-dcache-stores",25796597883.0667,61624.2000846622
"sp",2,"l2-rqsts-all-rfo",716937379.766667,183745.673899401
"sp",2,"l2-rqsts-rfo-miss",183675874.233333,976730.789092485
"sp",2,"l2-store-lock-rqsts-all",716912777.066667,165417.302480909
"sp",2,"l2-store-lock-rqsts-miss",181336464.466667,1055637.94651742
"sp",2,"l2-trans-rfo",740302805.933333,173735.071659395
"sp",2,"LLC-load-misses",448808562.533333,2987137.04793382
"sp",2,"LLC-loads",1766864990.43333,16140114.587248
"sp",2,"LLC-stores",277699523.5,826393.403639158
"sp",2,"offcore-requests-demand-rfo",202134506.433333,757651.196474041
"sp",2,"offcore-requests-outstanding-demand-rfo",18443492905.0333,685589907.149209
"sp",2,"offcore-response-all-reads-llc-hit-any-response",4575967426.06667,12185878.3165843
"sp",2,"offcore-response-all-reads-llc-miss-any-response",1384932640.96667,3340187.72458651
"sp",2,"offcore-response-demand-rfo-llc-hit-hitm-other-core",25510.9666666667,466.027041171913
"sp",2,"offcore-response-demand-rfo-llc-miss-remote-hitm",20914.8,576.520605248297
"sp",4,"cycles",122960389845.5,281906225.050139
"sp",4,"L1-dcache-load-misses",5358099430.26667,482621.717089602
"sp",4,"L1-dcache-loads",60516090257.6,16990706.1996587
"sp",4,"L1-dcache-stores",25798995691.1,77971.8395183557
"sp",4,"l2-rqsts-all-rfo",720017266.433333,118326.863978326
"sp",4,"l2-rqsts-rfo-miss",192129204.566667,556300.792010954
"sp",4,"l2-store-lock-rqsts-all",719970988.7,132338.355744932
"sp",4,"l2-store-lock-rqsts-miss",188162876.166667,646884.070401401
"sp",4,"l2-trans-rfo",758849066.666667,1133574.86770703
"sp",4,"LLC-load-misses",547134986.066667,3651057.99540068
"sp",4,"LLC-loads",1992888224.4,10220399.7701522
"sp",4,"LLC-stores",305573832.866667,868607.443242074
"sp",4,"offcore-requests-demand-rfo",210019624,528812.603120673
"sp",4,"offcore-requests-outstanding-demand-rfo",26705325422.9667,434993698.215184
"sp",4,"offcore-response-all-reads-llc-hit-any-response",4690863138.6,9289660.21562955
"sp",4,"offcore-response-all-reads-llc-miss-any-response",1409250222.96667,3760645.22576552
"sp",4,"offcore-response-demand-rfo-llc-hit-hitm-other-core",42532,1133.35333687553
"sp",4,"offcore-response-demand-rfo-llc-miss-remote-hitm",18683.1333333333,449.180051450072
"sp",8,"cycles",167917264246.8,284726452.473218
"sp",8,"L1-dcache-load-misses",5361636965.3,665346.876668888
"sp",8,"L1-dcache-loads",60659525499,9082517.07320204
"sp",8,"L1-dcache-stores",25804896948.9333,72284.4428901306
"sp",8,"l2-rqsts-all-rfo",723722615.2,105214.317615152
"sp",8,"l2-rqsts-rfo-miss",202514810.733333,453404.995861725
"sp",8,"l2-store-lock-rqsts-all",723672224.833333,98268.5445256412
"sp",8,"l2-store-lock-rqsts-miss",197198820,539910.458165994
"sp",8,"l2-trans-rfo",864807462.633333,3421957.2478536
"sp",8,"LLC-load-misses",685531008.1,2500570.03728246
"sp",8,"LLC-loads",2306550799.66667,4909311.72186531
"sp",8,"LLC-stores",320378614.166667,781143.519734808
"sp",8,"offcore-requests-demand-rfo",217893268.633333,502073.507853364
"sp",8,"offcore-requests-outstanding-demand-rfo",46394268284.1667,579023731.896982
"sp",8,"offcore-response-all-reads-llc-hit-any-response",4753302954.26667,6928277.56973623
"sp",8,"offcore-response-all-reads-llc-miss-any-response",1474661402.9,3595229.70178135
"sp",8,"offcore-response-demand-rfo-llc-hit-hitm-other-core",72179.7,1861.80510934212
"sp",8,"offcore-response-demand-rfo-llc-miss-remote-hitm",20539.7666666667,584.613217553222
"ua",1,"cycles",122643163482.3,54786976.3558177
"ua",1,"L1-dcache-load-misses",2276417124.66667,697216.756612753
"ua",1,"L1-dcache-loads",62375664358.2667,57816.1189270927
"ua",1,"L1-dcache-stores",23242110465.0667,76435.176432817
"ua",1,"l2-rqsts-all-rfo",282087763.3,323548.689529939
"ua",1,"l2-rqsts-rfo-miss",111748308.233333,407419.04813526
"ua",1,"l2-store-lock-rqsts-all",282192031.933333,216130.049512465
"ua",1,"l2-store-lock-rqsts-miss",111842980.033333,452398.620540165
"ua",1,"l2-trans-rfo",319984765.7,239114.56537746
"ua",1,"LLC-load-misses",148266109.266667,2310783.30791516
"ua",1,"LLC-loads",906953004.1,3670700.69785495
"ua",1,"LLC-stores",200985818.8,668534.693928297
"ua",1,"offcore-requests-demand-rfo",135486957.566667,324611.028277878
"ua",1,"offcore-requests-outstanding-demand-rfo",22719993387.7667,575166623.55029
"ua",1,"offcore-response-all-reads-llc-hit-any-response",2510613081.2,4366122.58031368
"ua",1,"offcore-response-all-reads-llc-miss-any-response",378728445.9,5068980.30118263
"ua",1,"offcore-response-demand-rfo-llc-hit-hitm-other-core",141.266666666667,37.4749387522216
"ua",1,"offcore-response-demand-rfo-llc-miss-remote-hitm",1337.23333333333,157.915604915607
"ua",2,"cycles",126222039961.6,56734782.2167333
"ua",2,"L1-dcache-load-misses",2290664259.33333,390091.582987301
"ua",2,"L1-dcache-loads",62544921574.8333,694617.087217491
"ua",2,"L1-dcache-stores",23247395945.7,28787.8271236239
"ua",2,"l2-rqsts-all-rfo",288632120.966667,198467.395707733
"ua",2,"l2-rqsts-rfo-miss",118845797.233333,241341.527930885
"ua",2,"l2-store-lock-rqsts-all",288399025.833333,221421.118727754
"ua",2,"l2-store-lock-rqsts-miss",111072934.733333,289741.590821853
"ua",2,"l2-trans-rfo",329418713.666667,148248.594842117
"ua",2,"LLC-load-misses",149736861.1,2326658.76576546
"ua",2,"LLC-loads",912774583.633333,3612196.55676956
"ua",2,"LLC-stores",217128783.733333,529782.221538682
"ua",2,"offcore-requests-demand-rfo",144086824.466667,263017.510190117
"ua",2,"offcore-requests-outstanding-demand-rfo",26456762544.5,482509685.665934
"ua",2,"offcore-response-all-reads-llc-hit-any-response",2539562269.53333,3418583.50263052
"ua",2,"offcore-response-all-reads-llc-miss-any-response",383516623.666667,5514591.09750034
"ua",2,"offcore-response-demand-rfo-llc-hit-hitm-other-core",608664.233333333,1988.25665458028
"ua",2,"offcore-response-demand-rfo-llc-miss-remote-hitm",23510.8333333333,672.356803111008
"ua",4,"cycles",134520904921.633,65598024.5448657
"ua",4,"L1-dcache-load-misses",2307762393.2,357402.646145089
"ua",4,"L1-dcache-loads",62925950285.8667,1328017.96242368
"ua",4,"L1-dcache-stores",23252748047.7333,48181.7923733537
"ua",4,"l2-rqsts-all-rfo",299084663.666667,153861.417798548
"ua",4,"l2-rqsts-rfo-miss",128483419.533333,261772.863590664
"ua",4,"l2-store-lock-rqsts-all",298415434.7,203022.304808991
"ua",4,"l2-store-lock-rqsts-miss",112759053.2,230746.602341963
"ua",4,"l2-trans-rfo",342561087.066667,264251.76265196
"ua",4,"LLC-load-misses",157294899.3,2559607.21669415
"ua",4,"LLC-loads",933758102.533333,3894591.36818497
"ua",4,"LLC-stores",234285733.466667,509002.323718083
"ua",4,"offcore-requests-demand-rfo",154801012.166667,296944.739916534
"ua",4,"offcore-requests-outstanding-demand-rfo",30658054085.6,364169985.590479
"ua",4,"offcore-response-all-reads-llc-hit-any-response",2579340809.2,3571233.42627723
"ua",4,"offcore-response-all-reads-llc-miss-any-response",382109521.9,4818181.48326115
"ua",4,"offcore-response-demand-rfo-llc-hit-hitm-other-core",1897601.56666667,4854.24997796989
"ua",4,"offcore-response-demand-rfo-llc-miss-remote-hitm",19379.7,421.480865929674
"ua",8,"cycles",150420122744.867,748821437.988488
"ua",8,"L1-dcache-load-misses",2344142258.96667,503905.462678299
"ua",8,"L1-dcache-loads",63393655070.5667,3954293.5766316
"ua",8,"L1-dcache-stores",23263009310.9333,37362.1520574516
"ua",8,"l2-rqsts-all-rfo",320639994.266667,198196.59141162
"ua",8,"l2-rqsts-rfo-miss",145136892.133333,301530.674832517
"ua",8,"l2-store-lock-rqsts-all",318916642.9,137770.916248778
"ua",8,"l2-store-lock-rqsts-miss",116276094.566667,280798.351597714
"ua",8,"l2-trans-rfo",385154650.466667,584637.445351203
"ua",8,"LLC-load-misses",169738919.4,2575844.99623282
"ua",8,"LLC-loads",963446736.633333,3663937.56122226
"ua",8,"LLC-stores",258668966.966667,429117.567782404
"ua",8,"offcore-requests-demand-rfo",171655548.533333,245179.363435892
"ua",8,"offcore-requests-outstanding-demand-rfo",37683095033.7333,306116350.174208
"ua",8,"offcore-response-all-reads-llc-hit-any-response",2660176365.13333,3716580.65670514
"ua",8,"offcore-response-all-reads-llc-miss-any-response",381670607.566667,5099065.90543584
"ua",8,"offcore-response-demand-rfo-llc-hit-hitm-other-core",5359133.63333333,9364.51238322195
"ua",8,"offcore-response-demand-rfo-llc-miss-remote-hitm",17024.2666666667,643.942403721284
